Division,WeightClassKg,Place,Name,Team,BodyweightKg,Best3SquatKg,Best3BenchKg,Best3DeadliftKg,TotalKg,Equipment,Event,Sex,BirthDate
Boys,51.71,1,Jose Cruz,Edinburg North,51.07,102.06,63.5,142.88,308.44,Single-ply,SBD,M,
Boys,51.71,2,Dane Arispe,Edinburg,50.08,90.72,52.16,99.79,242.67,Single-ply,SBD,M,
Boys,55.79,1,Nate Martinez,Weslaco East,55.2,188.24,104.33,170.1,462.66,Single-ply,SBD,M,
Boys,55.79,2,Joe Hernandez,Los Fresnos,55.61,165.56,106.59,163.29,435.45,Single-ply,SBD,M,
Boys,55.79,3,Rey Lopez,Edinburg,54.52,108.86,68.04,138.35,315.25,Single-ply,SBD,M,
Boys,55.79,4,Jaime Salinas,Edinburg North,55.52,104.33,74.84,117.93,297.1,Single-ply,SBD,M,
Boys,55.79,DQ,Thomas Sandoval,Los Fresnos,55.52,,,,,Single-ply,SBD,M,
Boys,59.87,1,Jorge Martinez,Los Fresnos,57.79,185.97,92.99,219.99,498.95,Single-ply,SBD,M,
Boys,59.87,2,Rivers Martinez,Edinburg,59.87,154.22,113.4,151.95,419.57,Single-ply,SBD,M,
Boys,59.87,3,Diego Cruz,Santa Rosa,59.6,145.15,92.99,142.88,381.02,Single-ply,SBD,M,
Boys,59.87,4,Fernando Diosdado,Edinburg North,59.6,97.52,142.88,111.13,351.53,Single-ply,SBD,M,
Boys,67.13,1,Juan Gomez,Weslaco East,66.95,183.7,92.99,201.85,478.54,Single-ply,SBD,M,
Boys,67.13,2,Elias Perez,Edinburg,65.59,151.95,102.06,188.24,442.25,Single-ply,SBD,M,
Boys,67.13,3,Jacob Espericueta,La Villa,65.59,151.95,102.06,170.1,424.11,Single-ply,SBD,M,
Boys,67.13,DQ,Julius Molina,Edinburg North,66.68,138.35,86.18,156.49,,Single-ply,SBD,M,
Boys,67.13,DQ,Sean Carpenter,Edinburg North,60.96,120.2,86.18,,,Single-ply,SBD,M,
Boys,74.84,1,Allan Benavides,Edinburg North,74.57,244.94,136.08,224.53,605.55,Single-ply,SBD,M,
Boys,74.84,2,Aj Contreras,La Villa,68.4,204.12,115.67,201.85,521.63,Single-ply,SBD,M,
Boys,74.84,3,Domingo Luevano,Edinburg,73.57,167.83,136.08,163.29,467.2,Single-ply,SBD,M,
Boys,74.84,4,John Lopez,Weslaco East,73.03,158.76,111.13,181.44,451.32,Single-ply,SBD,M,
Boys,74.84,5,Derrek Ramirez,Weslaco East,70.31,163.29,99.79,183.7,446.79,Single-ply,SBD,M,
Boys,74.84,6,Oziel Silva,Edinburg North,73.57,156.49,104.33,167.83,428.64,Single-ply,SBD,M,
Boys,74.84,7,August Wilson,Harlingen South,70.94,158.76,92.99,161.03,412.77,Single-ply,SBD,M,
Boys,74.84,8,Jaime Anaya,Santa Rosa,74.48,142.88,68.04,147.42,358.34,Single-ply,SBD,M,
Boys,74.84,9,Dylan Aneya,Harlingen South,72.48,122.47,83.91,136.08,342.46,Single-ply,SBD,M,
Boys,74.84,DQ,Sam Burton,Los Fresnos,69.4,242.67,117.93,,,Single-ply,SBD,M,
Boys,74.84,DQ,Erick Garcia,Los Fresnos,72.12,224.53,142.88,,,Single-ply,SBD,M,
Boys,82.1,1,Josue Ceron,Los Fresnos,80.29,233.6,145.15,231.33,610.08,Single-ply,SBD,M,
Boys,82.1,2,Jonathan Maldonado,Edinburg,81.37,199.58,154.22,176.9,530.7,Single-ply,SBD,M,
Boys,82.1,3,Diego Ortiz,Weslaco East,81.19,195.04,115.67,192.78,503.49,Single-ply,SBD,M,
Boys,82.1,4,Andrew Ballin,Santa Rosa,77.56,158.76,77.11,172.37,408.23,Single-ply,SBD,M,
Boys,89.81,1,Bobby Flores,Edinburg,89.27,240.4,156.49,247.21,644.1,Single-ply,SBD,M,
Boys,89.81,2,Zeke Aguilar,Los Fresnos,89.81,254.01,149.69,224.53,628.23,Single-ply,SBD,M,
Boys,89.81,3,Jerry Reyes,La Villa,89.81,254.01,154.22,190.51,598.74,Single-ply,SBD,M,
Boys,89.81,4,Ever Reyes,La Villa,89.54,226.8,127.01,199.58,553.38,Single-ply,SBD,M,
Boys,89.81,5,Jaime Munoz,Weslaco East,84.01,208.65,120.2,206.38,535.24,Single-ply,SBD,M,
Boys,89.81,6,Caleb Anaya,Harlingen South,86.09,210.92,131.54,188.24,530.7,Single-ply,SBD,M,
Boys,89.81,7,Jose Sanchez,Edinburg North,87.09,174.63,108.86,181.44,464.93,Single-ply,SBD,M,
Boys,89.81,8,Julian Garcia,Weslaco East,86.27,142.88,102.06,192.78,437.72,Single-ply,SBD,M,
Boys,89.81,DQ,Izacc Parra,Harlingen South,83.23,247.21,129.27,,,Single-ply,SBD,M,
Boys,99.79,1,Anthony Elvir,Los Fresnos,97.34,310.71,201.85,310.71,823.27,Single-ply,SBD,M,
Boys,99.79,2,Nathan Evans,Los Fresnos,99.52,258.55,156.49,238.14,653.17,Single-ply,SBD,M,
Boys,99.79,3,Yael Herrera,Edinburg,95.62,263.08,149.69,229.06,641.83,Single-ply,SBD,M,
Boys,99.79,4,Josue Moralez,Weslaco East,97.98,233.6,165.56,226.8,625.96,Single-ply,SBD,M,
Boys,99.79,5,Alessandro Escobedo,Edinburg,99.06,213.19,147.42,188.24,548.85,Single-ply,SBD,M,
Boys,99.79,6,Greg Jones,Los Fresnos,94.62,213.19,113.4,219.99,546.58,Single-ply,SBD,M,
Boys,99.79,7,Gilbert Lerma,Harlingen South,92.8,213.19,131.54,197.31,542.04,Single-ply,SBD,M,
Boys,99.79,8,Julius Gonzalez,Weslaco East,99.34,206.38,115.67,197.31,519.36,Single-ply,SBD,M,
Boys,99.79,9,Reno Villanueva,Harlingen South,91.63,183.7,124.74,190.51,498.95,Single-ply,SBD,M,
Boys,99.79,10,Diego Flores,Santa Rosa,89.9,183.7,113.4,167.83,464.93,Single-ply,SBD,M,
Boys,99.79,11,Tyson Tatum,Harlingen South,99.06,154.22,102.06,190.51,446.79,Single-ply,SBD,M,
Boys,109.77,1,Noe Castillo,Weslaco East,106.23,272.16,197.31,229.06,698.53,Single-ply,SBD,M,
Boys,109.77,2,Isaac Gonzalez,Weslaco East,107.59,272.16,176.9,231.33,680.39,Single-ply,SBD,M,
Boys,109.77,3,Julian Gonzalez,Weslaco East,108.86,226.8,151.95,226.8,605.55,Single-ply,SBD,M,
Boys,109.77,4,Ezra Echavarria,Harlingen South,109.13,210.92,131.54,199.58,542.04,Single-ply,SBD,M,
Boys,109.77,5,Isaiah Hinojosa,Harlingen South,99.88,163.29,113.4,165.56,442.25,Single-ply,SBD,M,
Boys,124.74,1,Kelvin Flores,Weslaco East,110.68,244.94,185.97,231.33,662.24,Single-ply,SBD,M,
Boys,124.74,2,Maximiliano Zepeda,Edinburg North,123.92,260.82,158.76,219.99,639.57,Single-ply,SBD,M,
Boys,124.74,3,Julian Moreno,Santa Rosa,120.38,226.8,145.15,222.26,594.21,Single-ply,SBD,M,
Boys,124.74,4,Michael Alegria,Weslaco East,122.47,183.7,131.54,185.97,501.22,Single-ply,SBD,M,
Boys,124.74,5,Carlos Arteaga,Edinburg,123.47,183.7,133.81,183.7,501.22,Single-ply,SBD,M,
Boys,124.74,6,Aaron Mendoza,Santa Rosa,116.66,179.17,95.25,163.29,437.72,Single-ply,SBD,M,
Boys,124.74,DQ,Isaias Centeno,Weslaco East,113.4,165.56,102.06,,,Single-ply,SBD,M,
Boys,124.74,DQ,Arturo Saucedo,Santa Rosa,119.84,158.76,,,,Single-ply,SBD,M,
Boys,124.74,DQ,Dante Ramones,Edinburg North,122.2,,,,,Single-ply,SBD,M,
Boys,139.71,1,Amadeo Sanchez,Edinburg,130.82,258.55,190.51,190.51,639.57,Single-ply,SBD,M,
Boys,139.71,2,Jaime Elissetche,La Villa,126.19,278.96,142.88,208.65,630.49,Single-ply,SBD,M,
Boys,139.71,3,Gerardo Rios,Santa Rosa,127.28,235.87,120.2,215.46,571.53,Single-ply,SBD,M,
Boys,139.71,DQ,Jaime Palafox,Los Fresnos,137.8,290.3,165.56,,,Single-ply,SBD,M,
Boys,139.71+,1,Caleb Davis,Harlingen South,159.39,310.71,192.78,249.48,752.96,Single-ply,SBD,M,
Boys,139.71+,2,Ty Mattingly,Harlingen South,152.59,188.24,127.01,190.51,505.76,Single-ply,SBD,M,
Boys,139.71+,3,Michael Drexler,Edinburg,140.66,213.19,115.67,167.83,496.68,Single-ply,SBD,M,
Boys,139.71+,DQ,Daniel García,Weslaco East,142.88,185.97,,,,Single-ply,SBD,M,
