Division,WeightClassKg,Place,Name,Team,BodyweightKg,Best3SquatKg,Best3BenchKg,Best3DeadliftKg,TotalKg,Equipment,Event,Sex,BirthDate
Boys,51.71,1,Cason Wilbanks,Decatur,43.27,92.99,45.36,90.72,229.06,Single-ply,SBD,M,
Boys,59.87,1,Rowdy Parker,Bridgeport,59.51,183.7,102.06,190.51,476.27,Single-ply,SBD,M,
Boys,59.87,2,Drew Gam,Decatur,59.69,142.88,83.91,140.61,367.41,Single-ply,SBD,M,
Boys,67.13,1,Erick Macias,Bridgeport,67.04,188.24,120.2,161.03,469.47,Single-ply,SBD,M,
Boys,67.13,2,Yahir Hernandez,Graham,64.05,179.17,106.59,174.63,460.4,Single-ply,SBD,M,
Boys,67.13,3,Colton Rudder,Bridgeport,65.86,151.95,97.52,176.9,426.38,Single-ply,SBD,M,
Boys,67.13,4,Jake Dunn,Decatur,63.78,151.95,77.11,149.69,378.75,Single-ply,SBD,M,
Boys,67.13,5,Zandon White,Bridgeport,61.33,142.88,90.72,138.35,371.95,Single-ply,SBD,M,
Boys,67.13,6,Eddy Cervantes,Bridgeport,66.32,113.4,92.99,163.29,369.68,Single-ply,SBD,M,
Boys,74.84,1,Michael Young,Graham,70.13,156.49,79.38,142.88,378.75,Single-ply,SBD,M,
Boys,74.84,2,Giovanni Torres,Decatur,74.48,154.22,74.84,149.69,378.75,Single-ply,SBD,M,
Boys,74.84,3,Eric Cervantes,Bridgeport,71.3,120.2,88.45,156.49,365.14,Single-ply,SBD,M,
Boys,82.1,1,Kevin Salas,Decatur,81.83,181.44,104.33,192.78,478.54,Single-ply,SBD,M,
Boys,89.81,1,Colton Ligon,Graham,83.19,226.8,124.74,213.19,564.72,Single-ply,SBD,M,
Boys,89.81,2,Anthony Salas,Decatur,86,204.12,122.47,213.19,539.77,Single-ply,SBD,M,
Boys,89.81,3,Aden Hinshaw,Decatur,85.55,192.78,104.33,185.97,483.08,Single-ply,SBD,M,
Boys,89.81,4,Jorge Padron,Decatur,88.54,181.44,102.06,181.44,464.93,Single-ply,SBD,M,
Boys,99.79,1,Jimmy Gamino,Decatur,95.89,233.6,138.35,233.6,605.55,Single-ply,SBD,M,
Boys,99.79,2,Korbin Owens,Decatur,91.17,188.24,113.4,199.58,501.22,Single-ply,SBD,M,
Boys,99.79,3,Gustavo Isaac,Decatur,92.35,190.51,108.86,190.51,489.88,Single-ply,SBD,M,
Boys,99.79,4,Devin Castro,Graham,99.43,174.63,106.59,156.49,437.72,Single-ply,SBD,M,
Boys,109.77,1,Wyatt Vinzant,Decatur,101.33,215.46,124.74,213.19,553.38,Single-ply,SBD,M,
Boys,109.77,2,Toben Petree,Decatur,107.23,217.72,120.2,195.04,532.97,Single-ply,SBD,M,
Boys,109.77,3,Talan Yowell,Graham,109.68,188.24,115.67,174.63,478.54,Single-ply,SBD,M,
Boys,109.77,4,Lawson Marin,Graham,103.24,156.49,97.52,151.95,405.97,Single-ply,SBD,M,
Boys,124.74,1,Justin Frazier,Graham,115.3,204.12,124.74,183.7,512.56,Single-ply,SBD,M,
Boys,139.71,1,Hayden Philpot,Decatur,133.17,272.16,158.76,240.4,671.32,Single-ply,SBD,M,
Boys,139.71,2,Kaleb Crawford,Graham,127.19,170.1,102.06,158.76,430.91,Single-ply,SBD,M,
Boys,139.71+,1,Rohan Collins,Decatur,155.76,208.65,117.93,188.24,514.83,Single-ply,SBD,M,
