Division,WeightClassKg,Place,Name,Team,BodyweightKg,Best3SquatKg,Best3BenchKg,Best3DeadliftKg,TotalKg,Equipment,Event,Sex,BirthDate
Boys,51.71,1,Deandre Moody,Donna North,50.8,165.56,108.86,165.56,439.98,Single-ply,SBD,M,
Boys,51.71,2,Marcos Salinas,Weslaco,50.8,127.01,61.23,138.35,326.59,Single-ply,SBD,M,
Boys,55.79,1,Jacob Martinez,Donna North,53.52,151.95,74.84,158.76,385.55,Single-ply,SBD,M,
Boys,55.79,2,Beau Cuellar,Weslaco,55.79,124.74,65.77,124.74,315.25,Single-ply,SBD,M,
Boys,59.87,1,Louie Cavazos,Donna North,57.61,183.7,127.01,204.12,514.83,Single-ply,SBD,M,
Boys,59.87,2,Jason Duarte,Weslaco,59.87,165.56,99.79,167.83,433.18,Single-ply,SBD,M,
Boys,59.87,3,Jeremy Salazar,Donna North,58.97,142.88,88.45,167.83,399.16,Single-ply,SBD,M,
Boys,59.87,4,Gael Garcia,Weslaco,59.24,124.74,77.11,147.42,349.27,Single-ply,SBD,M,
Boys,59.87,5,Joel Lopez,Weslaco East,59.87,108.86,65.77,113.4,288.03,Single-ply,SBD,M,
Boys,67.13,1,Evan Zamora,Weslaco,67.13,190.51,115.67,217.72,523.9,Single-ply,SBD,M,
Boys,67.13,2,Alexis Guzman,Donna North,66.68,154.22,102.06,185.97,442.25,Single-ply,SBD,M,
Boys,67.13,3,Miguel Lerma,Weslaco,67.13,167.83,83.91,183.7,435.45,Single-ply,SBD,M,
Boys,74.84,1,Robert Gomez,Donna North,73.94,170.1,111.13,201.85,483.08,Single-ply,SBD,M,
Boys,74.84,2,Sebastian Solis,Weslaco East,70.62,122.47,70.31,127.01,319.78,Single-ply,SBD,M,
Boys,82.1,1,Pablo Ruiz,Weslaco East,79.83,151.95,83.91,154.22,390.09,Single-ply,SBD,M,
Boys,89.81,1,Luis Esquivel,Weslaco,88.81,215.46,140.61,192.78,548.85,Single-ply,SBD,M,
Boys,89.81,2,Florentino Vela,Weslaco East,89.81,108.86,77.11,129.27,315.25,Single-ply,SBD,M,
Boys,99.79,1,Javier Garcia,Donna North,95.25,213.19,113.4,201.85,528.44,Single-ply,SBD,M,
Boys,99.79,2,Omar Guerrero,Donna North,98.88,197.31,145.15,183.7,526.17,Single-ply,SBD,M,
Boys,99.79,3,Jerry Lerma,Donna North,92.99,197.31,142.88,158.76,498.95,Single-ply,SBD,M,
Boys,99.79,4,Diego Salazar,Weslaco,96.16,206.38,113.4,174.63,494.42,Single-ply,SBD,M,
Boys,99.79,5,Miguel Chavez,Weslaco East,92.71,192.78,108.86,190.51,492.15,Single-ply,SBD,M,
Boys,99.79,6,Christian Sanchez,Weslaco East,95.57,183.7,133.81,174.63,492.15,Single-ply,SBD,M,
Boys,99.79,7,Angel Sanchez,Donna North,92.08,192.78,115.67,147.42,455.86,Single-ply,SBD,M,
Boys,99.79,8,Abraham Garces,Weslaco,95.71,165.56,106.59,170.1,442.25,Single-ply,SBD,M,
Boys,109.77,1,Marcus Landeros,Weslaco,109.77,183.7,127.01,179.17,489.88,Single-ply,SBD,M,
Boys,124.74,1,Edgar Otero,Donna North,115.67,244.94,156.49,240.4,641.83,Single-ply,SBD,M,
Boys,124.74,2,Jeremiah Vega,Weslaco,112.94,206.38,120.2,204.12,530.7,Single-ply,SBD,M,
Boys,124.74,DQ,Angel Rodriguez,Donna North,121.56,,,,,Single-ply,SBD,M,
Boys,139.71,1,Thomas Santillan,Weslaco,135.53,306.17,149.69,235.87,691.73,Single-ply,SBD,M,
Boys,139.71,2,Isaiah Loya,Donna North,130.63,226.8,127.01,183.7,537.51,Single-ply,SBD,M,
