Division,WeightClassKg,Place,Name,Team,BodyweightKg,Best3SquatKg,Best3BenchKg,Best3DeadliftKg,TotalKg,Equipment,Event,Sex,BirthDate
Boys,51.71,1,Jared Ricker,Royse City,49.9,90.72,52.16,79.38,222.26,Single-ply,SBD,M,
Boys,51.71,2,Kelton Varner,Paris,51.71,72.57,43.09,102.06,217.72,Single-ply,SBD,M,
Boys,51.71,3,Eric Melendez,Carrollton Turner,49.9,74.84,47.63,90.72,213.19,Single-ply,SBD,M,
Boys,51.71,4,Jeremiah Jackson,Royse City,41.87,68.04,29.48,61.23,158.76,Single-ply,SBD,M,
Boys,55.79,1,Austin Reynolds,Royse City,55.79,158.76,90.72,163.29,412.77,Single-ply,SBD,M,
Boys,55.79,2,Ryne Moncier,Princeton,54.88,136.08,83.91,142.88,362.87,Single-ply,SBD,M,
Boys,55.79,3,Braulio Rodriguez,Nevada Community,53.52,124.74,74.84,142.88,342.46,Single-ply,SBD,M,
Boys,55.79,4,Andy Mejia,Carrollton Turner,53.07,122.47,68.04,124.74,315.25,Single-ply,SBD,M,
Boys,55.79,5,Asa Porter,Royse City,55.34,72.57,36.29,79.38,188.24,Single-ply,SBD,M,
Boys,59.87,1,Jacob Luna,Bishop Lynch,58.97,131.54,63.5,140.61,335.66,Single-ply,SBD,M,
Boys,59.87,2,Romario Melendez,Carrollton Turner,56.25,95.25,70.31,120.2,285.76,Single-ply,SBD,M,
Boys,59.87,3,Stetson Brannon,Royse City,59.74,83.91,61.23,120.2,265.35,Single-ply,SBD,M,
Boys,59.87,4,Sam Gappa,Bishop Lynch,59.87,102.06,45.36,102.06,249.48,Single-ply,SBD,M,
Boys,59.87,5,Nathan Kolstad,Nevada Community,58.51,120.2,,,120.2,Single-ply,S,M,
Boys,67.13,1,Leonel Padron,Quinlan Ford,67.13,215.46,113.4,181.44,510.29,Single-ply,SBD,M,
Boys,67.13,2,Johnathan Jones,Paris,65.77,195.04,102.06,190.51,487.61,Single-ply,SBD,M,
Boys,67.13,3,Jeromy Griffin,Quinlan Ford,66.5,181.44,106.59,195.04,483.08,Single-ply,SBD,M,
Boys,67.13,4,Jesse James,Nevada Community,64.41,142.88,74.84,190.51,408.23,Single-ply,SBD,M,
Boys,67.13,5,Will Nguyen,Princeton,66.68,147.42,106.59,151.95,405.97,Single-ply,SBD,M,
Boys,67.13,6,Alejandro Mojica,South Garland,61.69,140.61,92.99,156.49,390.09,Single-ply,SBD,M,
Boys,67.13,7,Jace Oliver,Royse City,65.77,142.88,79.38,154.22,376.48,Single-ply,SBD,M,
Boys,67.13,8,Braydon Beck,Paris,61.69,142.88,81.65,140.61,365.14,Single-ply,SBD,M,
Boys,67.13,9,Aj Gonzles,Princeton,66.68,149.69,56.7,151.95,358.34,Single-ply,SBD,M,
Boys,67.13,10,Gavin Martinez,Royse City,66.68,129.27,74.84,140.61,344.73,Single-ply,SBD,M,
Boys,67.13,11,Patrick Moreno,Carrollton Turner,65.73,120.2,72.57,142.88,335.66,Single-ply,SBD,M,
Boys,67.13,12,Gabe Dorman,Nevada Community,60.78,127.01,63.5,124.74,315.25,Single-ply,SBD,M,
Boys,67.13,13,Tyreke Williams,Carrollton Turner,61.69,113.4,72.57,115.67,301.64,Single-ply,SBD,M,
Boys,67.13,14,Bruce Yamamura,North Forney,63.5,83.91,65.77,127.01,276.69,Single-ply,SBD,M,
Boys,67.13,15,Evan Larson,North Forney,65.77,86.18,65.77,111.13,263.08,Single-ply,SBD,M,
Boys,74.84,1,Colton Monroe,Bishop Lynch,73.53,204.12,124.74,215.46,544.31,Single-ply,SBD,M,
Boys,74.84,2,Gabriel Westlake,Quinlan Ford,74.84,226.8,104.33,195.04,526.17,Single-ply,SBD,M,
Boys,74.84,3,Kadyn McDonald,Paris,74.39,195.04,108.86,201.85,505.76,Single-ply,SBD,M,
Boys,74.84,4,Hayden Bohme,Royse City,74.39,192.78,104.33,204.12,501.22,Single-ply,SBD,M,
Boys,74.84,5,Arius Burton,Royse City,69.85,179.17,97.52,217.72,494.42,Single-ply,SBD,M,
Boys,74.84,6,Greg Davidson,Princeton,70.31,163.29,90.72,172.37,426.38,Single-ply,SBD,M,
Boys,74.84,7,Carlos Orozco,Carrollton Turner,72.89,156.49,83.91,161.03,401.43,Single-ply,SBD,M,
Boys,74.84,8,William Torres,Carrollton Turner,70.31,154.22,95.25,149.69,399.16,Single-ply,SBD,M,
Boys,74.84,9,Alvaro Gonzalez,South Garland,68.49,106.59,65.77,138.35,310.71,Single-ply,SBD,M,
Boys,74.84,10,Caden Laing,North Forney,72.12,102.06,72.57,108.86,283.5,Single-ply,SBD,M,
Boys,74.84,11,Christain Johnson,Royse City,68.95,83.91,47.63,102.06,233.6,Single-ply,SBD,M,
Boys,82.1,1,Matthew Wisdom,Quinlan Ford,80.74,199.58,108.86,183.7,492.15,Single-ply,SBD,M,
Boys,82.1,2,Jesse Price,Royse City,78.93,158.76,106.59,188.24,453.59,Single-ply,SBD,M,
Boys,82.1,3,Ahmad Bills,Paris,76.2,158.76,102.06,183.7,444.52,Single-ply,SBD,M,
Boys,82.1,4,Junior Money,Nevada Community,78.47,161.03,92.99,183.7,437.72,Single-ply,SBD,M,
Boys,82.1,5,Gabriel Duncan,Royse City,81.19,165.56,97.52,172.37,435.45,Single-ply,SBD,M,
Boys,82.1,6,Kindall Sanders,North Forney,76.66,149.69,113.4,165.56,428.64,Single-ply,SBD,M,
Boys,82.1,7,Mario Farfan,Paris,78.02,151.95,106.59,163.29,421.84,Single-ply,SBD,M,
Boys,82.1,8,Lam Tran,Carrollton Turner,78.47,142.88,102.06,167.83,412.77,Single-ply,SBD,M,
Boys,82.1,9,Corey Thompson,Princeton,80.74,154.22,102.06,147.42,403.7,Single-ply,SBD,M,
Boys,82.1,10,Dawson Etheridge,North Forney,78.47,136.08,106.59,147.42,390.09,Single-ply,SBD,M,
Boys,82.1,11,Enrique Rivera,South Garland,79.38,151.95,83.91,151.95,387.82,Single-ply,SBD,M,
Boys,82.1,12,Blake White,Quinlan Ford,76.66,154.22,92.99,136.08,383.29,Single-ply,SBD,M,
Boys,82.1,13,Hayden ONeil,North Forney,79.83,117.93,102.06,142.88,362.87,Single-ply,SBD,M,
Boys,82.1,14,Sam Mitchum,Royse City,79.83,,131.54,231.33,362.87,Single-ply,BD,M,
Boys,82.1,15,Ean Rodgers,Royse City,75.52,102.06,111.13,136.08,349.27,Single-ply,SBD,M,
Boys,82.1,16,Saul Sanchez,Bishop Lynch,79.2,124.74,72.57,142.88,340.19,Single-ply,SBD,M,
Boys,82.1,17,Drew Purser,Princeton,80.74,115.67,79.38,136.08,331.12,Single-ply,SBD,M,
Boys,82.1,18,Christian Perry,Royse City,80.74,,122.47,199.58,322.05,Single-ply,BD,M,
Boys,89.81,1,Caleb Robb,Royse City,89.36,226.8,151.95,233.6,612.35,Single-ply,SBD,M,
Boys,89.81,2,Joey Allen,Paris,89.36,210.92,136.08,231.33,578.33,Single-ply,SBD,M,
Boys,89.81,3,Patrick Roland,Paris,88.45,217.72,136.08,215.46,569.26,Single-ply,SBD,M,
Boys,89.81,4,Justin Scott,Royse City,89.36,215.46,131.54,215.46,562.45,Single-ply,SBD,M,
Boys,89.81,5,Jacen Gray,Royse City,89.81,204.12,120.2,215.46,539.77,Single-ply,SBD,M,
Boys,89.81,6,Eric Starks,Nevada Community,84.37,172.37,120.2,185.97,478.54,Single-ply,SBD,M,
Boys,89.81,7,Lane Gilbreath,Nevada Community,88.45,158.76,90.72,158.76,408.23,Single-ply,SBD,M,
Boys,89.81,8,Caleb Smothers,North Forney,89.36,151.95,102.06,151.95,405.97,Single-ply,SBD,M,
Boys,89.81,9,Hayden Chevez,Bishop Lynch,89.68,113.4,,,113.4,Single-ply,S,M,
Boys,99.79,1,Graham Akoh,Princeton,92.08,224.53,117.93,217.72,560.19,Single-ply,SBD,M,
Boys,99.79,2,Taydrick Dawson,Paris,93.89,206.38,136.08,204.12,546.58,Single-ply,SBD,M,
Boys,99.79,3,Travis Shirley,Quinlan Ford,99.34,204.12,136.08,190.51,530.7,Single-ply,SBD,M,
Boys,99.79,4,Daniel Emuakpeje,Royse City,98.88,204.12,106.59,192.78,503.49,Single-ply,SBD,M,
Boys,99.79,5,Aveon Pacheco,South Garland,97.98,170.1,104.33,174.63,449.06,Single-ply,SBD,M,
Boys,99.79,6,Brian Ipina,Carrollton Turner,95.71,170.1,113.4,161.03,444.52,Single-ply,SBD,M,
Boys,99.79,7,Chase Agy,Quinlan Ford,96.16,163.29,83.91,163.29,410.5,Single-ply,SBD,M,
Boys,99.79,8,Obed Calzada,Carrollton Turner,93.12,113.4,79.38,127.01,319.78,Single-ply,SBD,M,
Boys,99.79,9,Jesus Guerrero,Princeton,99.34,,106.59,204.12,310.71,Single-ply,BD,M,
Boys,109.77,1,Jackson Younger,Nevada Community,107.95,242.67,158.76,235.87,637.3,Single-ply,SBD,M,
Boys,109.77,2,Joel Portillo,Carrollton Turner,107.05,249.48,138.35,226.8,614.62,Single-ply,SBD,M,
Boys,109.77,3,Andrew Bailey,Princeton,107.5,276.69,,272.16,548.85,Single-ply,SD,M,
Boys,109.77,4,Benjamin Cuevas,North Forney,104.33,195.04,122.47,204.12,521.63,Single-ply,SBD,M,
Boys,109.77,5,Jack Durkin,Nevada Community,105.69,206.38,111.13,192.78,510.29,Single-ply,SBD,M,
Boys,109.77,6,Josh Marquez,Carrollton Turner,101.6,165.56,113.4,174.63,453.59,Single-ply,SBD,M,
Boys,124.74,1,Keiran Phounsavath,Royse City,111.58,249.48,165.56,226.8,641.83,Single-ply,SBD,M,
Boys,124.74,2,Jacob Speer,Princeton,121.56,251.74,158.76,215.46,625.96,Single-ply,SBD,M,
Boys,124.74,3,Stevie Hopper,Nevada Community,113.4,219.99,133.81,238.14,591.94,Single-ply,SBD,M,
Boys,124.74,4,Salvador Gomez,Paris,123.83,226.8,113.4,181.44,521.63,Single-ply,SBD,M,
Boys,124.74,5,Tavin States,Quinlan Ford,119.29,208.65,102.06,197.31,508.02,Single-ply,SBD,M,
Boys,124.74,6,Luis Hernandez,South Garland,112.04,195.04,117.93,183.7,496.68,Single-ply,SBD,M,
Boys,124.74,7,Parker Morgan,Princeton,123.83,192.78,90.72,158.76,442.25,Single-ply,SBD,M,
Boys,124.74,8,Jeremiah Smith,Paris,121.56,147.42,113.4,151.95,412.77,Single-ply,SBD,M,
Boys,124.74,9,James Evans,North Forney,114.76,142.88,92.99,142.88,378.75,Single-ply,SBD,M,
Boys,124.74,10,Chris Rodriguez,Paris,112.49,113.4,90.72,154.22,358.34,Single-ply,SBD,M,
Boys,124.74,11,Armando Ruiz,Royse City,121.11,127.01,81.65,136.08,344.73,Single-ply,SBD,M,
Boys,124.74,12,Michael Ipina,Carrollton Turner,110,113.4,83.91,138.35,335.66,Single-ply,SBD,M,
Boys,139.71,1,Brandon James,Quinlan Ford,133.81,281.23,142.88,226.8,650.91,Single-ply,SBD,M,
Boys,139.71,2,Byron Golden,North Forney,127.46,215.46,147.42,226.8,589.67,Single-ply,SBD,M,
Boys,139.71,3,Collin Howe,Royse City,127.01,219.99,142.88,192.78,555.65,Single-ply,SBD,M,
Boys,139.71+,1,Ismael Alvarez,South Garland,158.76,283.5,172.37,272.16,728.02,Single-ply,SBD,M,
Boys,139.71+,2,Satchel Swain,Paris,140.61,290.3,183.7,244.94,718.94,Single-ply,SBD,M,
Boys,139.71+,3,David Johnson,Princeton,151.95,240.4,154.22,238.14,632.76,Single-ply,SBD,M,
Boys,139.71+,4,Logan Ireland,Nevada Community,146.96,185.97,115.67,165.56,467.2,Single-ply,SBD,M,
