Division,WeightClassKg,Place,Name,Team,BodyweightKg,Best3SquatKg,Best3BenchKg,Best3DeadliftKg,TotalKg,Equipment,Event,Sex,BirthDate
Boys,51.71,1,Erik Orta,Victoria West,51.07,151.95,88.45,161.03,401.43,Single-ply,SBD,M,
Boys,51.71,2,John Paul Acosta,Victoria West,51.12,129.27,88.45,151.95,369.68,Single-ply,SBD,M,
Boys,51.71,3,Victor Roberson,Victoria East,51.17,138.35,65.77,142.88,347,Single-ply,SBD,M,
Boys,51.71,4,Brandon Perez,Victoria West,51.71,120.2,72.57,142.88,335.66,Single-ply,SBD,M,
Boys,51.71,5,Caleb Rucker,Stockdale,51.66,97.52,61.23,124.74,283.5,Single-ply,SBD,M,
Boys,51.71,6,Aiden Flores,Nixon Smiley,51.71,104.33,61.23,113.4,278.96,Single-ply,SBD,M,
Boys,51.71,7,Cesar Vasquez,Nixon Smiley,50.71,108.86,52.16,115.67,276.69,Single-ply,SBD,M,
Boys,51.71,8,Colbin Gutierrez,Runge,51.71,83.91,58.97,111.13,254.01,Single-ply,SBD,M,
Boys,55.79,1,Jayden Moya,Refugio,54.02,127.01,81.65,151.95,360.61,Single-ply,SBD,M,
Boys,55.79,2,Tyler Barrientez,Nixon Smiley,55.79,142.88,77.11,133.81,353.8,Single-ply,SBD,M,
Boys,55.79,3,Randy Velasquez,Robstown,55.66,127.01,99.79,122.47,349.27,Single-ply,SBD,M,
Boys,55.79,4,Dorvin Moreno,Stockdale,55.79,120.2,68.04,133.81,322.05,Single-ply,SBD,M,
Boys,55.79,5,Gabriel Flores,Victoria West,54.2,102.06,61.23,129.27,292.57,Single-ply,SBD,M,
Boys,55.79,6,Jaden Estrada,Runge,52.62,56.7,34.02,74.84,165.56,Single-ply,SBD,M,
Boys,55.79,NS,Benjamin Garcia,Robstown,,,,,,Single-ply,SBD,M,
Boys,55.79,NS,Eddie Vasquez,Stockdale,,,,,,Single-ply,SBD,M,
Boys,59.87,1,Ceyth Grevey,Victoria East,59.42,190.51,115.67,199.58,505.76,Single-ply,SBD,M,
Boys,59.87,2,Danny Hughston,Cuero,58.92,188.24,86.18,174.63,449.06,Single-ply,SBD,M,
Boys,59.87,3,Jason Adams,Nixon Smiley,58.06,158.76,92.99,174.63,426.38,Single-ply,SBD,M,
Boys,59.87,4,Javier Ontiveros,Refugio,59.6,151.95,97.52,176.9,426.38,Single-ply,SBD,M,
Boys,59.87,5,Nicolas Martinez,Stockdale,58.24,163.29,83.91,163.29,410.5,Single-ply,SBD,M,
Boys,59.87,6,Riley Banda,Victoria West,59.69,142.88,83.91,170.1,396.89,Single-ply,SBD,M,
Boys,59.87,7,Jared Jaso,Refugio,59.87,154.22,74.84,151.95,381.02,Single-ply,SBD,M,
Boys,59.87,8,John Garza,Nixon Smiley,59.47,133.81,72.57,138.35,344.73,Single-ply,SBD,M,
Boys,59.87,NS,Adolfo Vasquez,Nixon Smiley,,,,,,Single-ply,SBD,M,
Boys,67.13,1,Joe Fraga,Runge,66.09,188.24,97.52,226.8,512.56,Single-ply,SBD,M,
Boys,67.13,2,Jayme Robles,Stockdale,63.28,181.44,106.59,185.97,474,Single-ply,SBD,M,
Boys,67.13,3,Jason Duran,Victoria St. Joseph,66.13,156.49,106.59,204.12,467.2,Single-ply,SBD,M,
Boys,67.13,4,Mason Gwosdz,Victoria East,65.09,192.78,102.06,167.83,462.66,Single-ply,SBD,M,
Boys,67.13,5,Trent Jones,Runge,67.04,174.63,97.52,181.44,453.59,Single-ply,SBD,M,
Boys,67.13,6,Oscar Acosta,Nixon Smiley,64.95,154.22,102.06,183.7,439.98,Single-ply,SBD,M,
Boys,67.13,7,Gavin Gutierrez,Runge,65.41,158.76,90.72,183.7,433.18,Single-ply,SBD,M,
Boys,67.13,8,Jaime Caltzonzin,Victoria West,64.77,161.03,97.52,165.56,424.11,Single-ply,SBD,M,
Boys,67.13,9,Derec Chavez,Port Lavaca Calhoun,66.45,147.42,74.84,190.51,412.77,Single-ply,SBD,M,
Boys,67.13,10,Camden Derricoatte,Stockdale,67.13,151.95,81.65,165.56,399.16,Single-ply,SBD,M,
Boys,67.13,11,Draven Garza,Victoria East,64.73,158.76,83.91,149.69,392.36,Single-ply,SBD,M,
Boys,67.13,12,Giovanni Robles,Robstown,66.32,138.35,104.33,140.61,383.29,Single-ply,SBD,M,
Boys,67.13,13,Nathaniel Robles,Robstown,61.87,129.27,97.52,147.42,374.21,Single-ply,SBD,M,
Boys,67.13,14,Kaiden Hernandez,Karnes City,64.14,136.08,72.57,124.74,333.39,Single-ply,SBD,M,
Boys,67.13,15,Alex Carreon,Victoria East,65.91,124.74,81.65,124.74,331.12,Single-ply,SBD,M,
Boys,67.13,16,Alonzo Hernandez,Victoria West,61.23,111.13,61.23,145.15,317.51,Single-ply,SBD,M,
Boys,67.13,17,Isaiah Gonzales,Victoria East,62.73,124.74,47.63,127.01,299.37,Single-ply,SBD,M,
Boys,67.13,18,Tristan Haney,Victoria West,66.41,176.9,,,176.9,Single-ply,S,M,
Boys,67.13,DQ,Andy Rico,Port Lavaca Calhoun,62.87,156.49,,,,Single-ply,SBD,M,
Boys,67.13,NS,Joe Luna,Robstown,,,,,,Single-ply,SBD,M,
Boys,67.13,NS,Ashton Gomez,Stockdale,,,,,,Single-ply,SBD,M,
Boys,74.84,1,Martin Moreno,Nixon Smiley,72.85,242.67,120.2,222.26,585.13,Single-ply,SBD,M,
Boys,74.84,2,Noah Neibrandt,Victoria West,74.66,192.78,115.67,201.85,510.29,Single-ply,SBD,M,
Boys,74.84,3,Rodolfo Ayala,Stockdale,68.99,176.9,97.52,179.17,453.59,Single-ply,SBD,M,
Boys,74.84,4,Jordan Stafford,Victoria East,73.35,167.83,99.79,174.63,442.25,Single-ply,SBD,M,
Boys,74.84,5,Armando Medel,Nixon Smiley,71.12,165.56,97.52,174.63,437.72,Single-ply,SBD,M,
Boys,74.84,6,Trentyn Voelkel,Stockdale,69.49,158.76,86.18,172.37,417.3,Single-ply,SBD,M,
Boys,74.84,7,Andrew Morris,Victoria St. Joseph,70.31,145.15,86.18,185.97,417.3,Single-ply,SBD,M,
Boys,74.84,8,Nikolaus Mahlstede,Stockdale,68.63,149.69,86.18,165.56,401.43,Single-ply,SBD,M,
Boys,74.84,9,Russell Lover,Karnes City,70.13,140.61,90.72,158.76,390.09,Single-ply,SBD,M,
Boys,74.84,10,Davian Gomez,Karnes City,68.81,140.61,81.65,151.95,374.21,Single-ply,SBD,M,
Boys,74.84,11,Jonathan Kraatz,Runge,74.48,129.27,74.84,149.69,353.8,Single-ply,SBD,M,
Boys,74.84,12,Gavin Trevino,Victoria St. Joseph,71.58,124.74,70.31,142.88,337.93,Single-ply,SBD,M,
Boys,74.84,NS,Rhylan Guajardo,Robstown,,,,,,Single-ply,SBD,M,
Boys,74.84,NS,John David Garcia,Victoria West,,,,,,Single-ply,SBD,M,
Boys,74.84,NS,Jacob Jenicke,Victoria West,,,,,,Single-ply,SBD,M,
Boys,82.1,1,Cody Baker,Cuero,80.2,249.48,158.76,217.72,625.96,Single-ply,SBD,M,
Boys,82.1,2,Jose Reynaga,Port Lavaca Calhoun,81.1,244.94,147.42,219.99,612.35,Single-ply,SBD,M,
Boys,82.1,3,Daniel Martinez,Victoria East,80.97,238.14,131.54,206.38,576.06,Single-ply,SBD,M,
Boys,82.1,4,Randal Delgado,Victoria East,79.38,256.28,113.4,204.12,573.79,Single-ply,SBD,M,
Boys,82.1,5,Abel Delarosa,Robstown,81.92,215.46,142.88,204.12,562.45,Single-ply,SBD,M,
Boys,82.1,6,Omar Morales Navarro,Nixon Smiley,81.65,185.97,129.27,215.46,530.7,Single-ply,SBD,M,
Boys,82.1,7,Sincere Alaniz,Karnes City,81.74,188.24,111.13,217.72,517.1,Single-ply,SBD,M,
Boys,82.1,8,Eh Ler Moo,Port Lavaca Calhoun,77.93,183.7,108.86,195.04,487.61,Single-ply,SBD,M,
Boys,82.1,9,Rafael Arrieta,Victoria West,79.92,183.7,102.06,190.51,476.27,Single-ply,SBD,M,
Boys,82.1,10,Kamauri Montgomery,Victoria West,80.56,195.04,102.06,179.17,476.27,Single-ply,SBD,M,
Boys,82.1,11,Jesus Espino,Nixon Smiley,81.92,183.7,97.52,192.78,474,Single-ply,SBD,M,
Boys,82.1,12,Harrison Crain,Cuero,82.01,158.76,106.59,183.7,449.06,Single-ply,SBD,M,
Boys,82.1,13,Thomas Copeland,Victoria St. Joseph,79.38,165.56,92.99,174.63,433.18,Single-ply,SBD,M,
Boys,82.1,14,Jose Olvera,Nixon Smiley,79.83,151.95,92.99,133.81,378.75,Single-ply,SBD,M,
Boys,82.1,NS,Adrian Perez,Robstown,,,,,,Single-ply,SBD,M,
Boys,89.81,1,Seth Neibrandt,Victoria West,87.91,265.35,163.29,260.82,689.46,Single-ply,SBD,M,
Boys,89.81,2,Javaree Bacon,Cuero,87.86,272.16,142.88,240.4,655.44,Single-ply,SBD,M,
Boys,89.81,3,Pavan Patel,Port Lavaca Calhoun,89.72,242.67,129.27,249.48,621.42,Single-ply,SBD,M,
Boys,89.81,4,David Perez,Port Lavaca Calhoun,88.72,224.53,120.2,226.8,571.53,Single-ply,SBD,M,
Boys,89.81,5,Xavier Salazar,Victoria East,87.91,195.04,117.93,247.21,560.19,Single-ply,SBD,M,
Boys,89.81,6,Dayshaun Huerta,Victoria West,89.22,188.24,102.06,183.7,474,Single-ply,SBD,M,
Boys,89.81,7,Patrick Segura,Runge,89.77,163.29,106.59,197.31,467.2,Single-ply,SBD,M,
Boys,89.81,8,Zane Artiaga,Victoria West,83.69,161.03,90.72,199.58,451.32,Single-ply,SBD,M,
Boys,89.81,9,Sabastian Reyna,Runge,85.77,158.76,102.06,170.1,430.91,Single-ply,SBD,M,
Boys,89.81,10,Bryce Nichols,Port Lavaca Calhoun,86.23,163.29,92.99,161.03,417.3,Single-ply,SBD,M,
Boys,89.81,11,Ean Flores,Victoria West,85.91,106.59,56.7,106.59,269.89,Single-ply,SBD,M,
Boys,89.81,NS,Jared Villanueva,Cuero,,,,,,Single-ply,SBD,M,
Boys,89.81,DQ,Bo Woody,Port Lavaca Calhoun,83.69,,,,,Single-ply,SBD,M,
Boys,89.81,NS,Armando Martinez,Nixon Smiley,,,,,,Single-ply,SBD,M,
Boys,89.81,DQ,Jacoby Flores,Victoria West,86.64,174.63,92.99,,,Single-ply,SBD,M,
Boys,99.79,1,DJ Nunez,Karnes City,99.02,265.35,142.88,233.6,641.83,Single-ply,SBD,M,
Boys,99.79,2,Xavier Smith,Port Lavaca Calhoun,91.08,238.14,131.54,247.21,616.89,Single-ply,SBD,M,
Boys,99.79,3,Damian Diaz,Victoria West,95.98,249.48,122.47,235.87,607.81,Single-ply,SBD,M,
Boys,99.79,4,Michael Rocha,Refugio,99.25,224.53,113.4,226.8,564.72,Single-ply,SBD,M,
Boys,99.79,5,Bentley Orgis,Victoria East,96.03,213.19,149.69,195.04,557.92,Single-ply,SBD,M,
Boys,99.79,6,Kevin Zavala,Nixon Smiley,99.7,226.8,129.27,170.1,526.17,Single-ply,SBD,M,
Boys,99.79,7,Israel Espinoza,Robstown,97.79,208.65,136.08,179.17,523.9,Single-ply,SBD,M,
Boys,99.79,8,Thomas Lopez,Victoria St. Joseph,94.53,208.65,104.33,208.65,521.63,Single-ply,SBD,M,
Boys,99.79,9,Mason Moore,Karnes City,96.3,197.31,115.67,197.31,510.29,Single-ply,SBD,M,
Boys,99.79,10,Rhett Hodges,Karnes City,96.03,179.17,102.06,183.7,464.93,Single-ply,SBD,M,
Boys,99.79,11,Aidan Garza,Karnes City,92.44,167.83,92.99,192.78,453.59,Single-ply,SBD,M,
Boys,99.79,12,Jeremey Echols,Stockdale,98.16,176.9,,,176.9,Single-ply,S,M,
Boys,109.77,1,Ryan Cain,Victoria East,103.1,328.85,145.15,265.35,739.36,Single-ply,SBD,M,
Boys,109.77,2,Dylon Gatica,Karnes City,105.37,249.48,133.81,215.46,598.74,Single-ply,SBD,M,
Boys,109.77,3,Jose Lugo,Victoria East,108.18,249.48,136.08,204.12,589.67,Single-ply,SBD,M,
Boys,109.77,4,Cameron Villa,Cuero,104.73,217.72,115.67,174.63,508.02,Single-ply,SBD,M,
Boys,109.77,5,Jathan Alvear,Karnes City,100.7,195.04,108.86,183.7,487.61,Single-ply,SBD,M,
Boys,109.77,NS,Matthew Guerrero,Cuero,,,,,,Single-ply,SBD,M,
Boys,109.77,NS,Isaiah Fraga,Runge,,,,,,Single-ply,SBD,M,
Boys,124.74,1,Kyle Weghorst,Cuero,115.12,306.17,151.95,226.8,684.92,Single-ply,SBD,M,
Boys,124.74,2,Macario Martinez,Victoria East,120.75,283.5,156.49,240.4,680.39,Single-ply,SBD,M,
Boys,124.74,3,Edwin Aguilar,Robstown,111.86,226.8,145.15,208.65,580.6,Single-ply,SBD,M,
Boys,124.74,4,Solomon Barnoski,Karnes City,116.48,226.8,131.54,215.46,573.79,Single-ply,SBD,M,
Boys,124.74,5,Camren Body,Cuero,124.19,233.6,136.08,192.78,562.45,Single-ply,SBD,M,
Boys,124.74,6,Zackaria Biessar,Stockdale,111.4,201.85,113.4,208.65,523.9,Single-ply,SBD,M,
Boys,124.74,DQ,Christian Rodriguez,Port Lavaca Calhoun,123.38,278.96,156.49,,,Single-ply,SBD,M,
Boys,124.74,DQ,Gage Spencer,Port Lavaca Calhoun,119.07,,,,,Single-ply,SBD,M,
Boys,139.71,1,Cooper Kliem,Victoria East,134.63,281.23,136.08,226.8,644.1,Single-ply,SBD,M,
Boys,139.71,2,Benjamin Oyervides,Robstown,134.04,251.74,158.76,215.46,625.96,Single-ply,SBD,M,
Boys,139.71,3,Vinson Samudio,Port Lavaca Calhoun,135.9,299.37,136.08,188.24,623.69,Single-ply,SBD,M,
Boys,139.71,4,Alex Brown,Cuero,131.86,231.33,113.4,172.37,517.1,Single-ply,SBD,M,
Boys,139.71,5,Marcus Tristan,Karnes City,126.28,201.85,108.86,158.76,469.47,Single-ply,SBD,M,
Boys,139.71,6,Jayden Fraire,Victoria West,135.99,147.42,88.45,154.22,390.09,Single-ply,SBD,M,
Boys,139.71,NS,Mark Pena,Robstown,,,,,,Single-ply,SBD,M,
Boys,139.71+,1,Artemio Herrera,Port Lavaca Calhoun,147.87,249.48,131.54,204.12,585.13,Single-ply,SBD,M,
Boys,139.71+,DQ,Jose Perez,Nixon Smiley,143.11,,,,,Single-ply,SBD,M,
