Division,WeightClassKg,Place,Name,Team,BodyweightKg,Best3SquatKg,Best3BenchKg,Best3DeadliftKg,TotalKg,Equipment,Event,Sex
Boys,51.71,1,Jonathan Luna,Tulia,51.17,122.47,83.91,142.88,349.27,Single-ply,SBD,M
Boys,55.79,2,Carlos Bravo,Olton,51.89,113.4,83.91,129.27,326.59,Single-ply,SBD,M
Boys,51.71,3,Erli Rueda,Bovina,51.71,104.33,40.82,149.69,294.84,Single-ply,SBD,M
Boys,51.71,4,Arturo Aguillon,Bovina,51.26,104.33,54.43,124.74,283.5,Single-ply,SBD,M
Boys,51.71,5,Mark Lopez,Abernathy,46.54,99.79,47.63,124.74,272.16,Single-ply,SBD,M
Boys,51.71,6,Justin Tovar,Abernathy,50.08,95.25,63.5,102.06,260.82,Single-ply,SBD,M
Boys,51.71,7,Carlos Raya,Plainview,48.35,90.72,61.23,95.25,247.21,Single-ply,SBD,M
Boys,51.71,8,Zane Ponder,Plainview,50.08,92.99,49.9,92.99,235.87,Single-ply,SBD,M
Boys,51.71,9,Alex Figueroa,Sudan,51.71,74.84,47.63,102.06,224.53,Single-ply,SBD,M
Boys,51.71,10,Luis Macias,Abernathy,46.99,83.91,43.09,95.25,222.26,Single-ply,SBD,M
Boys,51.71,11,Jonathan Hernandez,Lamesa,47.26,58.97,43.09,70.31,172.37,Single-ply,SBD,M
Boys,51.71,DQ,Hector Bustillos,Sunray,48.08,90.72,,,,Single-ply,SBD,M
Boys,55.79,1,Jorge Guitron,Sudan,55.43,99.79,74.84,124.74,299.37,Single-ply,SBD,M
Boys,59.87,2,Devon Nolen,Stinnett West Texas,55.88,117.93,49.9,127.01,294.84,Single-ply,SBD,M
Boys,55.79,3,Nik Clarkson,Sudan,53.71,104.33,52.16,122.47,278.96,Single-ply,SBD,M
Boys,55.79,4,Eddie Fierro,Sunray,53.71,104.33,52.16,113.4,269.89,Single-ply,SBD,M
Boys,55.79,5,Michael Lopez,Seagraves,54.88,97.52,49.9,117.93,265.35,Single-ply,SBD,M
Boys,55.79,6,Luis Anchondo,Friona,53.98,95.25,49.9,97.52,242.67,Single-ply,SBD,M
Boys,55.79,7,Noah Del Toro,Muleshoe,53.43,61.23,43.09,90.72,195.04,Single-ply,SBD,M
Boys,55.79,DQ,Ryan Shemwell,Panhandle,52.25,111.13,,,,Single-ply,SBD,M
Boys,59.87,1,Bobby Clift,Canyon Randall,58.88,163.29,92.99,158.76,415.04,Single-ply,SBD,M
Boys,67.13,2,Pablo Hinojosa,Lamesa,59.96,145.15,95.25,174.63,415.04,Single-ply,SBD,M
Boys,59.87,3,Carlos Sosa,Muleshoe,59.24,149.69,72.57,158.76,381.02,Single-ply,SBD,M
Boys,59.87,4,Julian Gaspar,Sunray,58.24,140.61,74.84,147.42,362.87,Single-ply,SBD,M
Boys,59.87,5,Adam Martin,Sudan,56.25,140.61,72.57,138.35,351.53,Single-ply,SBD,M
Boys,59.87,6,Jj Barrera,Tulia,56.52,122.47,68.04,142.88,333.39,Single-ply,SBD,M
Boys,59.87,7,Angel Samarron,Lazbuddie,56.52,113.4,74.84,136.08,324.32,Single-ply,SBD,M
Boys,59.87,8,Esdras Rodriguez,Friona,58.97,117.93,61.23,136.08,315.25,Single-ply,SBD,M
Boys,59.87,9,Juan Pinela,Bovina,58.97,104.33,70.31,136.08,310.71,Single-ply,SBD,M
Boys,59.87,10,Nic Cruz,Tulia,58.6,90.72,72.57,133.81,297.1,Single-ply,SBD,M
Boys,59.87,11,Adam Munoz,Vega,59.6,102.06,74.84,117.93,294.84,Single-ply,SBD,M
Boys,59.87,12,Ramiro Carmona,Bovina,57.61,104.33,45.36,136.08,285.76,Single-ply,SBD,M
Boys,59.87,13,Eli Rodriguez,Seagraves,59.69,102.06,56.7,120.2,278.96,Single-ply,SBD,M
Boys,67.13,14,Adan Hernandez,Friona,60.1,99.79,70.31,102.06,272.16,Single-ply,SBD,M
Boys,59.87,15,Chauncey Sieber,Vega,56.52,92.99,61.23,113.4,267.62,Single-ply,SBD,M
Boys,59.87,16,Xavier Trillo,Sudan,57.24,97.52,56.7,106.59,260.82,Single-ply,SBD,M
Boys,59.87,17,Lucas Macias,Abernathy,57.79,90.72,61.23,106.59,258.55,Single-ply,SBD,M
Boys,59.87,18,Sean Hightower,Panhandle,59.6,88.45,52.16,99.79,240.4,Single-ply,SBD,M
Boys,59.87,19,Tyler Strader,Muleshoe,58.33,90.72,45.36,92.99,229.06,Single-ply,SBD,M
Boys,67.13,1,Karlonte Jackson,Anton,65.5,176.9,72.57,181.44,430.91,Single-ply,SBD,M
Boys,67.13,2,Emilio Sandoval,Olton,66.68,149.69,90.72,167.83,408.23,Single-ply,SBD,M
Boys,67.13,3,Marco Terrones,Bovina,67.13,140.61,97.52,163.29,401.43,Single-ply,SBD,M
Boys,67.13,4,Payson Bain,Vega,67.04,129.27,92.99,142.88,365.14,Single-ply,SBD,M
Boys,67.13,5,Michael Pardo,Hale Center,65.5,124.74,97.52,140.61,362.87,Single-ply,SBD,M
Boys,74.84,6,Marcus Ruff,Whiteface,67.31,122.47,81.65,158.76,362.87,Single-ply,SBD,M
Boys,67.13,7,Eric Vega,Plainview,66.68,124.74,79.38,151.95,356.07,Single-ply,SBD,M
Boys,67.13,8,Levi Wright,Slaton,61.42,136.08,77.11,136.08,349.27,Single-ply,SBD,M
Boys,67.13,9,Colin Coleman,Stinnett West Texas,66.13,117.93,77.11,151.95,347,Single-ply,SBD,M
Boys,74.84,10,Antonio Adame,Friona,67.36,124.74,77.11,142.88,344.73,Single-ply,SBD,M
Boys,67.13,11,Cesar Medrano,Sudan,62.23,120.2,70.31,140.61,331.12,Single-ply,SBD,M
Boys,67.13,12,Garrett Ely,Sunray,64.23,115.67,70.31,138.35,324.32,Single-ply,SBD,M
Boys,67.13,13,Juan Perez #15,Sunray,64.05,111.13,83.91,127.01,322.05,Single-ply,SBD,M
Boys,67.13,14,Jonahan Schwartzenberg,Canyon Randall,60.6,113.4,77.11,127.01,317.51,Single-ply,SBD,M
Boys,67.13,15,Zach Rosas,Plainview,61.96,108.86,77.11,131.54,317.51,Single-ply,SBD,M
Boys,67.13,16,Nolan Willingham,Canyon Randall,61.6,111.13,83.91,120.2,315.25,Single-ply,SBD,M
Boys,67.13,17,Abel Martinez,Bovina,64.41,104.33,68.04,127.01,299.37,Single-ply,SBD,M
Boys,67.13,18,Ubaldo Ramon,Sudan,65.95,113.4,65.77,106.59,285.76,Single-ply,SBD,M
Boys,67.13,19,Colby George,Vega,64.05,90.72,61.23,122.47,274.42,Single-ply,SBD,M
Boys,74.84,20,Fabian Honesto,Whiteface,67.31,99.79,56.7,108.86,265.35,Single-ply,SBD,M
Boys,67.13,21,Adrian Chavez,Panhandle,67.04,61.23,43.09,72.57,176.9,Single-ply,SBD,M
Boys,67.13,DQ,Nathan Luna,Plainview,64.41,115.67,,,,Single-ply,SBD,M
Boys,74.84,DQ,Laz Escobar,Plains,67.31,77.11,40.82,,,Single-ply,SBD,M
Boys,67.13,DQ,Issac Pierson,Abernathy,63.68,151.95,92.99,,,Single-ply,SBD,M
Boys,82.1,1,Michael Garcia #9,Friona,75.07,165.56,104.33,158.76,428.64,Single-ply,SBD,M
Boys,74.84,2,Broc Harris,Tulia,70.4,154.22,70.31,181.44,405.97,Single-ply,SBD,M
Boys,74.84,3,Omar Ramos,Friona,69.85,147.42,92.99,158.76,399.16,Single-ply,SBD,M
Boys,82.1,4,Tony Rivas,Plainview,74.93,136.08,92.99,156.49,385.55,Single-ply,SBD,M
Boys,74.84,5,Eric Waters,Abernathy,72.57,129.27,68.04,165.56,362.87,Single-ply,SBD,M
Boys,74.84,6,Merrit Crump,Plains,72.12,142.88,70.31,136.08,349.27,Single-ply,SBD,M
Boys,74.84,7,Trey Tarbet,Vega,68.17,145.15,79.38,120.2,344.73,Single-ply,SBD,M
Boys,74.84,8,Nick Koontz,Slaton,71.4,133.81,70.31,136.08,340.19,Single-ply,SBD,M
Boys,74.84,9,Jason Hopkins,Panhandle,72.12,124.74,77.11,124.74,326.59,Single-ply,SBD,M
Boys,74.84,10,Travis Sullivan,Sunray,72.39,117.93,72.57,129.27,319.78,Single-ply,SBD,M
Boys,74.84,11,Dominique de la Rosa #1,Sunray,73.66,104.33,63.5,133.81,301.64,Single-ply,SBD,M
Boys,74.84,12,Jacob Buxton,Hale Center,71.67,102.06,70.31,124.74,297.1,Single-ply,SBD,M
Boys,74.84,13,Victor Sanchez,Bovina,71.67,102.06,56.7,127.01,285.76,Single-ply,SBD,M
Boys,82.1,14,Estevan Rocha,Friona,75.07,97.52,61.23,106.59,265.35,Single-ply,SBD,M
Boys,74.84,15,Kollin Abbie,Panhandle,73.94,61.23,70.31,113.4,244.94,Single-ply,SBD,M
Boys,74.84,16,Logan Falkenbury,Whiteface,74.39,61.23,52.16,90.72,204.12,Single-ply,SBD,M
Boys,74.84,DQ,Cesar Huerta,Friona,73.48,129.27,,,,Single-ply,SBD,M
Boys,82.1,1,Rex Mathis,Floydada,81.56,181.44,104.33,199.58,485.34,Single-ply,SBD,M
Boys,82.1,2,Quentin Valentine,Plainview,79.83,185.97,97.52,181.44,464.93,Single-ply,SBD,M
Boys,82.1,3,Domingo Saucedo,Plainview,80.01,183.7,97.52,174.63,455.86,Single-ply,SBD,M
Boys,82.1,4,Aaron Chavarria,Floydada,79.02,172.37,97.52,181.44,451.32,Single-ply,SBD,M
Boys,82.1,5,Anthony Ortiz,Bovina,82.1,161.03,108.86,174.63,444.52,Single-ply,SBD,M
Boys,82.1,6,Brandon Jackson,Tulia,80.83,167.83,97.52,167.83,433.18,Single-ply,SBD,M
Boys,82.1,7,Abdiel Ramos,Bovina,79.38,156.49,81.65,188.24,426.38,Single-ply,SBD,M
Boys,82.1,8,Kody Harred,Canyon Randall,79.83,124.74,106.59,183.7,415.04,Single-ply,SBD,M
Boys,82.1,9,Alexis Mendoza,Sunray,79.2,147.42,90.72,172.37,410.5,Single-ply,SBD,M
Boys,82.1,10,Renee Barrera,Tulia,79.47,151.95,92.99,165.56,410.5,Single-ply,SBD,M
Boys,82.1,11,Daniel Soltero,Friona,80.74,147.42,97.52,158.76,403.7,Single-ply,SBD,M
Boys,82.1,12,Adrian Prieto,Friona,82.1,145.15,92.99,154.22,392.36,Single-ply,SBD,M
Boys,89.81,13,Jose Trejo,Sudan,82.19,142.88,77.11,163.29,383.29,Single-ply,SBD,M
Boys,82.1,14,Alejandro Guevara,Bovina,81.19,136.08,86.18,154.22,376.48,Single-ply,SBD,M
Boys,82.1,15,Nick Anna,Plains,77.11,136.08,79.38,158.76,374.21,Single-ply,SBD,M
Boys,82.1,16,Edwin Delgado,Sudan,76.57,124.74,79.38,151.95,356.07,Single-ply,SBD,M
Boys,82.1,17,Coleman Townsend,Plainview,82.01,147.42,77.11,131.54,356.07,Single-ply,SBD,M
Boys,82.1,18,Michael Deanda,Lamesa,79.29,142.88,70.31,138.35,351.53,Single-ply,SBD,M
Boys,82.1,19,Marcial Salinas,Slaton,78.65,120.2,72.57,142.88,335.66,Single-ply,SBD,M
Boys,82.1,20,Kevin Flores,Sunray,81.74,111.13,77.11,133.81,322.05,Single-ply,SBD,M
Boys,82.1,21,James Hill,Tulia,80.74,106.59,68.04,122.47,297.1,Single-ply,SBD,M
Boys,82.1,22,Jeremy Jones,Panhandle,79.74,97.52,70.31,127.01,294.84,Single-ply,SBD,M
Boys,82.1,23,Jason Durham,Panhandle,81.56,102.06,63.5,115.67,281.23,Single-ply,SBD,M
Boys,82.1,DQ,Isaiah Gonzales,Plainview,79.83,188.24,,,,Single-ply,SBD,M
Boys,82.1,DQ,Zach Ponder,Plainview,78.47,165.56,,,,Single-ply,SBD,M
Boys,82.1,DQ,Arroldo Santellano,Abernathy,81.47,133.81,,,,Single-ply,SBD,M
Boys,89.81,1,Mason Cook,Vega,84.73,172.37,124.74,170.1,467.2,Single-ply,SBD,M
Boys,89.81,2,Caleb Morales,Lamesa,87.91,183.7,102.06,179.17,464.93,Single-ply,SBD,M
Boys,89.81,3,Staley Arredondo,Lamesa,84.55,170.1,92.99,188.24,451.32,Single-ply,SBD,M
Boys,89.81,4,Chris Galvan #2,Plainview,87.54,181.44,111.13,156.49,449.06,Single-ply,SBD,M
Boys,99.79,5,Joey Maldonado,Anton,89.99,167.83,90.72,176.9,435.45,Single-ply,SBD,M
Boys,89.81,6,Jacob Habel,Canyon Randall,87.82,147.42,92.99,172.37,412.77,Single-ply,SBD,M
Boys,89.81,7,Damion Montes,Sudan,87.54,151.95,83.91,151.95,387.82,Single-ply,SBD,M
Boys,89.81,8,Leonell Carrillo,Bovina,87.54,127.01,81.65,149.69,358.34,Single-ply,SBD,M
Boys,89.81,9,Luis Balderrama,Vega,88.27,102.06,79.38,147.42,328.85,Single-ply,SBD,M
Boys,89.81,10,Adam Jones #6,Panhandle,83.82,124.74,72.57,129.27,326.59,Single-ply,SBD,M
Boys,89.81,11,Cesar Calderon,Sunray,83.1,124.74,77.11,113.4,315.25,Single-ply,SBD,M
Boys,89.81,12,Rance Hargrove,Vega,84.46,92.99,61.23,104.33,258.55,Single-ply,SBD,M
Boys,89.81,DQ,Alec Long,Vega,89.04,,,,,Single-ply,SBD,M
Boys,89.81,DQ,David Montiel,Anton,85.91,,,,,Single-ply,SBD,M
Boys,89.81,DQ,Dylan Ewing,Stinnett West Texas,87.18,170.1,102.06,183.7,,Single-ply,SBD,M
Boys,99.79,1,Anthony Montemayor,Lamesa,99.79,204.12,108.86,185.97,498.95,Single-ply,SBD,M
Boys,99.79,2,Angel Ornelas,Plainview,98.61,181.44,104.33,197.31,483.08,Single-ply,SBD,M
Boys,99.79,3,Luis Tafoya,Bovina,98.43,147.42,147.42,185.97,480.81,Single-ply,SBD,M
Boys,99.79,4,Josh Hull,Sunray,95.35,170.1,124.74,179.17,474,Single-ply,SBD,M
Boys,99.79,5,Brendan Voss,Plainview,95.71,172.37,108.86,176.9,458.13,Single-ply,SBD,M
Boys,99.79,6,Saul Gallegos,Slaton,92.26,165.56,95.25,158.76,419.57,Single-ply,SBD,M
Boys,99.79,7,Aaron Castaneda,Bovina,96.62,151.95,92.99,156.49,401.43,Single-ply,SBD,M
Boys,99.79,8,Max Zapata,Sunray,92.71,161.03,70.31,158.76,390.09,Single-ply,SBD,M
Boys,99.79,9,Joel Salas,Bovina,99.79,138.35,72.57,154.22,365.14,Single-ply,SBD,M
Boys,99.79,10,Jaime Borunda,Sunray,99.7,129.27,79.38,142.88,351.53,Single-ply,SBD,M
Boys,99.79,11,Bobby Taylor,Whiteface,93.71,108.86,74.84,136.08,319.78,Single-ply,SBD,M
Boys,99.79,12,Matt Mongomery,Vega,92.17,120.2,65.77,131.54,317.51,Single-ply,SBD,M
Boys,99.79,13,Carlos Martinez #21,Muleshoe,90.81,124.74,77.11,113.4,315.25,Single-ply,SBD,M
Boys,109.77,1,James Iglesias,Lamesa,107.86,249.48,129.27,231.33,610.08,Single-ply,SBD,M
Boys,109.77,2,Santana Vera,Plainview,105.6,217.72,122.47,210.92,551.11,Single-ply,SBD,M
Boys,109.77,3,Chris Thomas,Slaton,108.86,224.53,115.67,170.1,510.29,Single-ply,SBD,M
Boys,109.77,4,Esai Sandoval,Olton,104.6,158.76,102.06,176.9,437.72,Single-ply,SBD,M
Boys,109.77,5,Ivan Gonzales,Hale Center,102.97,149.69,97.52,165.56,412.77,Single-ply,SBD,M
Boys,109.77,6,Rolando Gutierrez,Seagraves,101.79,167.83,79.38,163.29,410.5,Single-ply,SBD,M
Boys,109.77,7,Hagan Kelly,Plainview,101.7,136.08,104.33,167.83,408.23,Single-ply,SBD,M
Boys,109.77,8,Santana Benitez,Abernathy,100.43,133.81,74.84,165.56,374.21,Single-ply,SBD,M
Boys,109.77,9,Brad Vincent,Canyon Randall,106.05,124.74,95.25,149.69,369.68,Single-ply,SBD,M
Boys,109.77,10,Eric Mendez,Plainview,100.97,120.2,86.18,151.95,358.34,Single-ply,SBD,M
Boys,109.77,11,Dutch White,Vega,109.5,102.06,97.52,113.4,312.98,Single-ply,SBD,M
Boys,109.77,12,Dallyn Clements,Panhandle,102.6,83.91,65.77,124.74,274.42,Single-ply,SBD,M
Boys,109.77,13,Hunter Pool,Panhandle,105.41,102.06,61.23,106.59,269.89,Single-ply,SBD,M
Boys,109.77,DQ,Isaiah Hernandez,Abernathy,107.23,,,,,Single-ply,SBD,M
Boys,109.77,DQ,Danny Ray,Vega,102.97,61.23,65.77,,,Single-ply,SBD,M
Boys,124.74,1,Emiliano Renteria,Lamesa,122.02,226.8,124.74,217.72,569.26,Single-ply,SBD,M
Boys,124.74,2,Homero Ramirez,Floydada,114.49,179.17,136.08,226.8,542.04,Single-ply,SBD,M
Boys,124.74,3,Librado Chavarria,Floydada,115.94,219.99,115.67,174.63,510.29,Single-ply,SBD,M
Boys,124.74,4,Tyler Wise,Panhandle,119.29,201.85,102.06,204.12,508.02,Single-ply,SBD,M
Boys,124.74,5,Carlos García,Sunray,122.29,190.51,122.47,179.17,492.15,Single-ply,SBD,M
Boys,124.74,6,Jason Olvera,Bovina,122.02,181.44,99.79,176.9,458.13,Single-ply,SBD,M
Boys,124.74,7,Victor Perez,Lamesa,111.31,165.56,102.06,158.76,426.38,Single-ply,SBD,M
Boys,124.74,8,Steven Scott,Vega,116.03,142.88,83.91,190.51,417.3,Single-ply,SBD,M
Boys,124.74,9,Edwin Carrillo,Bovina,117.93,156.49,95.25,136.08,387.82,Single-ply,SBD,M
Boys,124.74,10,Reid McIlwain,Lamesa,123.47,111.13,92.99,147.42,351.53,Single-ply,SBD,M
Boys,124.74,11,Diego Perez #4,Bovina,115.21,108.86,97.52,129.27,335.66,Single-ply,SBD,M
Boys,124.74,12,ZR Smith,Slaton,118.57,127.01,65.77,136.08,328.85,Single-ply,SBD,M
Boys,124.74,13,Jordan Russell,Muleshoe,112.76,90.72,52.16,111.13,254.01,Single-ply,SBD,M
Boys,124.74,14,Tucker Wise,Panhandle,116.66,83.91,52.16,102.06,238.14,Single-ply,SBD,M
Boys,124.74+,1,Daniel Meza,Friona,167.38,235.87,136.08,195.04,566.99,Single-ply,SBD,M
Boys,124.74+,2,Edgar Guerrero,Friona,128.37,204.12,136.08,199.58,539.77,Single-ply,SBD,M
Boys,124.74+,3,Jobe Allen,Stinnett West Texas,138.35,195.04,113.4,172.37,480.81,Single-ply,SBD,M
Boys,124.74+,4,Ivan Trillo,Sudan,142.43,181.44,106.59,176.9,464.93,Single-ply,SBD,M
Boys,124.74+,5,Kyle Weiss #1,Panhandle,128.19,151.95,124.74,176.9,453.59,Single-ply,SBD,M
Boys,124.74+,6,Jayme Murdock,Slaton,168.46,167.83,106.59,163.29,437.72,Single-ply,SBD,M
