Division,WeightClassKg,Place,Name,Team,BodyweightKg,Best3SquatKg,Best3BenchKg,Best3DeadliftKg,TotalKg,Equipment,Event,Sex,BirthDate
Boys,51.71,1,Carlos Gaviria,Mexia,48.53,56.7,61.23,90.72,208.65,Single-ply,SBD,M,
Boys,59.87,1,Erick Rivera,Mexia,58.97,92.99,70.31,106.59,269.89,Single-ply,SBD,M,
Boys,59.87,2,Brian Carter,Mexia,57.61,83.91,61.23,115.67,260.82,Single-ply,SBD,M,
Boys,67.13,1,Adrian Avila,Mexia,66.68,151.95,70.31,142.88,365.14,Single-ply,SBD,M,
Boys,67.13,2,Abraham Saldana,Mexia,61.23,102.06,92.99,136.08,331.12,Single-ply,SBD,M,
Boys,67.13,3,Hubert Tran,Mexia,63.5,83.91,61.23,83.91,229.06,Single-ply,SBD,M,
Boys,74.84,1,Rowdy Phillips,Teague,74.57,156.49,90.72,142.88,390.09,Single-ply,SBD,M,
Boys,82.1,1,Daquon Millls,Mexia,79.83,170.1,124.74,183.7,478.54,Single-ply,SBD,M,
Boys,82.1,2,Anthony Dimicilli,Teague,80.01,158.76,102.06,151.95,412.77,Single-ply,SBD,M,
Boys,82.1,3,Jose Aguilera,Mexia,79.38,154.22,92.99,151.95,399.16,Single-ply,SBD,M,
Boys,82.1,4,Landon Russell,Mexia,80.74,102.06,83.91,136.08,322.05,Single-ply,SBD,M,
Boys,89.81,1,Gage Kuehn,Mexia,87.54,179.17,120.2,167.83,467.2,Single-ply,SBD,M,
Boys,89.81,2,Marshall Eberle,Mexia,84.37,158.76,104.33,199.58,462.66,Single-ply,SBD,M,
Boys,99.79,1,Alex Perez,Teague,97.34,197.31,120.2,174.63,492.15,Single-ply,SBD,M,
Boys,99.79,2,Asa Guzman,Mexia,93.44,161.03,92.99,165.56,419.57,Single-ply,SBD,M,
Boys,99.79,DQ,Hayden Lummus,Teague,96.62,,,,,Single-ply,SBD,M,
Boys,109.77,DQ,Christian Lopez,Mexia,109.32,124.74,,,,Single-ply,SBD,M,
Boys,124.74,1,Dixon Nichols,Teague,116.3,204.12,102.06,192.78,498.95,Single-ply,SBD,M,
Boys,124.74,2,Damion Molina,Mexia,112.94,142.88,104.33,204.12,451.32,Single-ply,SBD,M,
Boys,124.74,3,Carl Shugart,Teague,110.68,176.9,79.38,158.76,415.04,Single-ply,SBD,M,
Boys,124.74,4,Evan Gilbert,Teague,114.49,161.03,102.06,138.35,401.43,Single-ply,SBD,M,
Boys,139.71,1,Xavier West,Mexia,127.01,188.24,117.93,183.7,489.88,Single-ply,SBD,M,
