Division,WeightClassKg,Place,Name,Team,BodyweightKg,Best3SquatKg,Best3BenchKg,Best3DeadliftKg,TotalKg,Equipment,Event,Sex,BirthDate
Boys,51.71,1,Kam Wright,Jasper,50.8,117.93,68.04,124.74,310.71,Single-ply,SBD,M,
Boys,51.71,DQ,Jase Stevens,Kirbyville,48.08,,,,,Single-ply,SBD,M,
Boys,55.79,1,Austin Walker,Kirbyville,55.34,117.93,52.16,131.54,301.64,Single-ply,SBD,M,
Boys,59.87,1,Kierstin Danna,Kirbyville,58.97,154.22,99.79,158.76,412.77,Single-ply,SBD,M,
Boys,67.13,1,Donaldo Anastacio,Kirbyville,65.32,151.95,90.72,165.56,408.23,Single-ply,SBD,M,
Boys,67.13,2,Blade Siau,Newton,65.77,131.54,97.52,165.56,394.63,Single-ply,SBD,M,
Boys,67.13,3,Jacovian Adams,Jasper,63.5,142.88,92.99,156.49,392.36,Single-ply,SBD,M,
Boys,67.13,4,Jace Gore,Kirbyville,65.77,136.08,88.45,151.95,376.48,Single-ply,SBD,M,
Boys,67.13,5,Maliek Woods,Newton,66.68,131.54,77.11,165.56,374.21,Single-ply,SBD,M,
Boys,67.13,6,Colton Hinds,Kirbyville,66.22,131.54,70.31,151.95,353.8,Single-ply,SBD,M,
Boys,67.13,7,Alex Butler #3,Kirbyville,61.23,129.27,77.11,142.88,349.27,Single-ply,SBD,M,
Boys,67.13,8,Ethan Hutson,Newton,61.69,83.91,58.97,142.88,285.76,Single-ply,SBD,M,
Boys,67.13,DQ,Trevoughn Simmons,Jasper,63.05,,,,,Single-ply,SBD,M,
Boys,67.13,DQ,Keylyn Reed,Newton,63.5,,,,,Single-ply,SBD,M,
Boys,74.84,1,Marcus Parnell,Jasper,70.76,174.63,124.74,188.24,487.61,Single-ply,SBD,M,
Boys,74.84,2,Keyvon Fertile,Newton,68.95,156.49,102.06,183.7,442.25,Single-ply,SBD,M,
Boys,74.84,3,Reese Obannion,Kirbyville,73.48,163.29,86.18,176.9,426.38,Single-ply,SBD,M,
Boys,74.84,4,Jatarius Hanks,Newton,69.85,151.95,83.91,167.83,403.7,Single-ply,SBD,M,
Boys,74.84,5,Clinton Foster,Newton,71.67,151.95,77.11,172.37,401.43,Single-ply,SBD,M,
Boys,74.84,6,Xavier Smith,Newton,73.94,129.27,68.04,158.76,356.07,Single-ply,SBD,M,
Boys,82.1,1,Kaleb Sells,Jasper,76.2,151.95,115.67,188.24,455.86,Single-ply,SBD,M,
Boys,82.1,2,Hico Malone,Newton,82.1,156.49,68.04,151.95,376.48,Single-ply,SBD,M,
Boys,82.1,3,Gage Myer,Newton,78.02,120.2,79.38,156.49,356.07,Single-ply,SBD,M,
Boys,89.81,1,Taylon Alfred,Kirbyville,84.82,254.01,136.08,254.01,644.1,Single-ply,SBD,M,
Boys,89.81,2,Leighton Foster,Newton,86.64,199.58,113.4,208.65,521.63,Single-ply,SBD,M,
Boys,89.81,3,Jacob Kelley,Kirbyville,87.54,190.51,117.93,183.7,492.15,Single-ply,SBD,M,
Boys,89.81,4,Dyllen Brown,Kirbyville,86.64,102.06,77.11,147.42,326.59,Single-ply,SBD,M,
Boys,89.81,DQ,Brayden Mahathay,Kirbyville,83.01,,,,,Single-ply,SBD,M,
Boys,99.79,1,Jonathan Kennebrew,Newton,90.72,215.46,133.81,258.55,607.81,Single-ply,SBD,M,
Boys,99.79,2,Sam Justice,Jasper,97.07,170.1,124.74,163.29,458.13,Single-ply,SBD,M,
Boys,99.79,3,Devon Dupont,Newton,92.99,145.15,92.99,183.7,421.84,Single-ply,SBD,M,
Boys,99.79,4,Brayden Ludd,Newton,99.34,151.95,79.38,183.7,415.04,Single-ply,SBD,M,
Boys,99.79,5,Ethan Dunman,Jasper,94.35,142.88,97.52,161.03,401.43,Single-ply,SBD,M,
Boys,99.79,6,Hunter Pyle,Jasper,94.35,124.74,61.23,129.27,315.25,Single-ply,SBD,M,
Boys,109.77,1,Antrevion Gatson,Newton,108.41,190.51,97.52,199.58,487.61,Single-ply,SBD,M,
Boys,109.77,2,Al Adams,Jasper,108.86,170.1,120.2,183.7,474,Single-ply,SBD,M,
Boys,109.77,3,Mike Smith,Kirbyville,108.41,158.76,117.93,163.29,439.98,Single-ply,SBD,M,
Boys,124.74,1,Tyler Cochran,Newton,117.03,199.58,122.47,204.12,526.17,Single-ply,SBD,M,
Boys,124.74,2,Danin Spikes,Newton,121.11,142.88,86.18,124.74,353.8,Single-ply,SBD,M,
Boys,139.71,1,Bryson Mansfield,Newton,129.73,238.14,122.47,249.48,610.08,Single-ply,SBD,M,
Boys,139.71,2,Emmanuel Hernandez,Newton,130.63,226.8,136.08,240.4,603.28,Single-ply,SBD,M,
Boys,139.71,3,Hunter Williams,Newton,130.63,219.99,127.01,226.8,573.79,Single-ply,SBD,M,
Boys,139.71,4,Jared Schmidt,Newton,132.9,172.37,113.4,163.29,449.06,Single-ply,SBD,M,
Boys,139.71+,1,J'Kwon Brumley,Kirbyville,148.32,283.5,163.29,249.48,696.26,Single-ply,SBD,M,
Boys,139.71+,2,Chris Phifer,Newton,150.59,183.7,95.25,147.42,426.38,Single-ply,SBD,M,
