Division,WeightClassKg,Place,Name,Team,BodyweightKg,Best3SquatKg,Best3BenchKg,Best3DeadliftKg,TotalKg,Equipment,Event,Sex
Boys,51.71,1,Robert Barajas,Laredo Martin,51.35,165.56,83.91,185.97,435.45,Single-ply,SBD,M
Boys,51.71,2,Michael Sauceda,Laredo United,51.62,151.95,74.84,158.76,385.55,Single-ply,SBD,M
Boys,51.71,3,Rafael Morales,Laredo Cigarroa,51.53,142.88,81.65,149.69,374.21,Single-ply,SBD,M
Boys,51.71,4,Diego Pena,Roma,50.71,136.08,74.84,154.22,365.14,Single-ply,SBD,M
Boys,51.71,5,Martin Villareal,Laredo United South,51.26,131.54,68.04,156.49,356.07,Single-ply,SBD,M
Boys,51.71,6,Oscar Ramos,Laredo Alexander,47.45,124.74,68.04,145.15,337.93,Single-ply,SBD,M
Boys,55.79,1,Enrique Alvarez,Laredo Cigarroa,55.34,183.7,99.79,183.7,467.2,Single-ply,SBD,M
Boys,55.79,2,Enrique Gonzalez,Roma,55.79,133.81,97.52,179.17,410.5,Single-ply,SBD,M
Boys,55.79,3,Angel Solano,Bruni,54.88,133.81,68.04,167.83,369.68,Single-ply,SBD,M
Boys,55.79,4,Alexis Flores #4,Laredo Alexander,53.8,129.27,86.18,142.88,358.34,Single-ply,SBD,M
Boys,55.79,5,Jordan Tomerlin,Laredo United,55.16,77.11,43.09,102.06,222.26,Single-ply,SBD,M
Boys,59.87,1,Aj Dovalina,Laredo Alexander,59.87,183.7,99.79,195.04,478.54,Single-ply,SBD,M
Boys,59.87,2,John Bojanski,Laredo Alexander,58.88,183.7,83.91,183.7,451.32,Single-ply,SBD,M
Boys,59.87,3,Marcos Ortiz,Laredo Alexander,59.69,170.1,117.93,158.76,446.79,Single-ply,SBD,M
Boys,59.87,4,Eduardo Porras,Roma,58.42,156.49,102.06,185.97,444.52,Single-ply,SBD,M
Boys,59.87,5,Amado De La Fuente,Laredo United South,58.69,147.42,90.72,172.37,410.5,Single-ply,SBD,M
Boys,59.87,6,Leo Ibarra,Laredo Johnson,57.88,140.61,102.06,149.69,392.36,Single-ply,SBD,M
Boys,67.13,7,Jairo Morales,Laredo Cigarroa,60.06,124.74,56.7,147.42,328.85,Single-ply,SBD,M
Boys,67.13,DQ,Edgar Martinez #4,Laredo Cigarroa,60.06,,,,,Single-ply,SBD,M
Boys,67.13,1,Ruben Salinas,Roma,66.32,197.31,117.93,188.24,503.49,Single-ply,SBD,M
Boys,74.84,2,Paul Lopez,Laredo United South,67.22,179.17,120.2,188.24,487.61,Single-ply,SBD,M
Boys,67.13,3,Frank Rubalcava,Laredo Cigarroa,64.68,181.44,104.33,174.63,460.4,Single-ply,SBD,M
Boys,67.13,4,Jj Serna,Laredo United,65.32,161.03,74.84,190.51,426.38,Single-ply,SBD,M
Boys,67.13,5,Jesus Sandoval,Laredo Martin,63.5,158.76,102.06,149.69,410.5,Single-ply,SBD,M
Boys,67.13,6,Alfonso Flores,Laredo Martin,66.32,142.88,81.65,179.17,403.7,Single-ply,SBD,M
Boys,67.13,7,Chris Chan,Laredo United,61.69,142.88,83.91,156.49,383.29,Single-ply,SBD,M
Boys,67.13,8,James Vasquez,Bruni,66.22,136.08,81.65,154.22,371.95,Single-ply,SBD,M
Boys,67.13,9,Fermin Rendon,Laredo Nixon,66.59,138.35,70.31,149.69,358.34,Single-ply,SBD,M
Boys,67.13,10,Jesus Perez,Laredo Nixon,66.95,129.27,86.18,142.88,358.34,Single-ply,SBD,M
Boys,67.13,11,Jose Hernandez #34,Laredo Cigarroa,63.68,124.74,72.57,138.35,335.66,Single-ply,SBD,M
Boys,67.13,DQ,Pedro Vargas,Roma,65.41,,,,,Single-ply,SBD,M
Boys,74.84,1,Cesar Castillo,Laredo United South,74.84,213.19,147.42,224.53,585.13,Single-ply,SBD,M
Boys,74.84,2,Daniel Wells,Laredo Nixon,74.39,179.17,108.86,195.04,483.08,Single-ply,SBD,M
Boys,82.1,3,Gerardo Rodriguez,Laredo Nixon,75.02,183.7,104.33,188.24,476.27,Single-ply,SBD,M
Boys,74.84,4,Carlos Ramirez #5,Laredo Alexander,70.67,147.42,124.74,183.7,455.86,Single-ply,SBD,M
Boys,74.84,5,Mark Morales,Bruni,74.03,181.44,95.25,174.63,451.32,Single-ply,SBD,M
Boys,74.84,6,Jesus Cruz,Roma,72.76,158.76,102.06,179.17,439.98,Single-ply,SBD,M
Boys,74.84,7,Cruz Garcia,Roma,73.75,172.37,104.33,154.22,430.91,Single-ply,SBD,M
Boys,74.84,8,Alex Salinas,Laredo United,73.84,156.49,95.25,165.56,417.3,Single-ply,SBD,M
Boys,74.84,9,Christian Gonzalez,Laredo Nixon,74.57,145.15,88.45,170.1,403.7,Single-ply,SBD,M
Boys,74.84,10,Billy Williams,Laredo United,72.21,170.1,88.45,142.88,401.43,Single-ply,SBD,M
Boys,74.84,11,Pablo Vela,Laredo United,74.75,127.01,81.65,181.44,390.09,Single-ply,SBD,M
Boys,74.84,12,Matthew Gravina,Laredo Alexander,71.85,117.93,90.72,174.63,383.29,Single-ply,SBD,M
Boys,74.84,13,Jose Cerda,Laredo Cigarroa,72.94,124.74,102.06,138.35,365.14,Single-ply,SBD,M
Boys,74.84,DQ,Felipe Gonzalez,Roma,68.04,,,,,Single-ply,SBD,M
Boys,82.1,1,Jerry Ayala,Laredo Johnson,80.92,185.97,115.67,213.19,514.83,Single-ply,SBD,M
Boys,82.1,2,Daryl Garcia,Bruni,81.28,185.97,108.86,213.19,508.02,Single-ply,SBD,M
Boys,82.1,3,Jose de la Rosa,Roma,80.47,190.51,102.06,208.65,501.22,Single-ply,SBD,M
Boys,82.1,4,Frank Rios,Roma,79.38,161.03,120.2,188.24,469.47,Single-ply,SBD,M
Boys,82.1,5,Jaime Sanchez,Bruni,82.1,149.69,86.18,172.37,408.23,Single-ply,SBD,M
Boys,82.1,6,Joe Castillo #6,Laredo Johnson,78.29,145.15,83.91,176.9,405.97,Single-ply,SBD,M
Boys,82.1,7,Alfredo Mancillas,Laredo United,79.92,142.88,111.13,151.95,405.97,Single-ply,SBD,M
Boys,82.1,8,Josephad Dominguez,Laredo United,79.92,147.42,72.57,154.22,374.21,Single-ply,SBD,M
Boys,82.1,DQ,Ricky Martinez,Laredo Nixon,79.83,,,,,Single-ply,SBD,M
Boys,82.1,DQ,Jesus Cantu,Laredo Johnson,76.97,113.4,,,,Single-ply,SBD,M
Boys,99.79,1,Kevin Castro,Laredo Nixon,89.99,199.58,129.27,215.46,544.31,Single-ply,SBD,M
Boys,89.81,2,Cliff Salinas,Roma,88.54,183.7,108.86,210.92,503.49,Single-ply,SBD,M
Boys,89.81,3,Lauro Banda,Laredo Nixon,86.82,188.24,120.2,192.78,501.22,Single-ply,SBD,M
Boys,89.81,4,Pete Tejada,Bruni,86,183.7,113.4,190.51,487.61,Single-ply,SBD,M
Boys,99.79,5,Carlos Muñoz,Laredo Nixon,89.9,167.83,95.25,217.72,480.81,Single-ply,SBD,M
Boys,89.81,6,Matt Rodriguez,Laredo United,85.37,188.24,106.59,174.63,469.47,Single-ply,SBD,M
Boys,89.81,7,Ely Guzman,Roma,87.27,170.1,104.33,185.97,460.4,Single-ply,SBD,M
Boys,89.81,8,Arman Khaledi,Laredo Alexander,87.63,151.95,90.72,170.1,412.77,Single-ply,SBD,M
Boys,89.81,9,Adrian Munoz,Laredo Martin,89.45,154.22,92.99,158.76,405.97,Single-ply,SBD,M
Boys,89.81,10,Leo Lira,Bruni,88.72,127.01,90.72,154.22,371.95,Single-ply,SBD,M
Boys,99.79,1,Jerry Nino,Laredo Martin,99.52,235.87,163.29,226.8,625.96,Single-ply,SBD,M
Boys,99.79,2,Richy Lopez,Laredo United South,93.08,229.06,136.08,224.53,589.67,Single-ply,SBD,M
Boys,99.79,3,George Gonzalez,Laredo United South,91.08,226.8,113.4,238.14,578.33,Single-ply,SBD,M
Boys,99.79,4,Ivan Pina,Roma,97.25,226.8,136.08,213.19,576.06,Single-ply,SBD,M
Boys,99.79,5,Jose Coreas,Laredo Cigarroa,97.34,235.87,97.52,199.58,532.97,Single-ply,SBD,M
Boys,99.79,6,Alonzo Villarreal,Laredo Alexander,97.34,192.78,113.4,215.46,521.63,Single-ply,SBD,M
Boys,99.79,7,Juan Garcia,Laredo Johnson,93.17,183.7,106.59,199.58,489.88,Single-ply,SBD,M
Boys,99.79,8,Kevin Lujan,Laredo United,92.53,195.04,115.67,176.9,487.61,Single-ply,SBD,M
Boys,99.79,9,Ricardo Sanchez,Laredo Johnson,94.62,156.49,102.06,163.29,421.84,Single-ply,SBD,M
Boys,99.79,DQ,Eddie Alvarez,Laredo Martin,98.88,185.97,86.18,,,Single-ply,SBD,M
Boys,99.79,DQ,Noe Ortega,Laredo United South,92.9,,,,,Single-ply,SBD,M
Boys,109.77,1,Freddy Chavarria,Laredo Martin,103.15,272.16,163.29,226.8,662.24,Single-ply,SBD,M
Boys,124.74,2,Rafael Vasquez,Laredo United South,109.95,272.16,142.88,226.8,641.83,Single-ply,SBD,M
Boys,109.77,3,Ivan Gonzalez,Bruni,107.41,240.4,117.93,249.48,607.81,Single-ply,SBD,M
Boys,124.74,4,Kevin Vela,Bruni,109.95,249.48,136.08,219.99,605.55,Single-ply,SBD,M
Boys,109.77,5,Jorge Martinez,Laredo United South,101.15,219.99,127.01,229.06,576.06,Single-ply,SBD,M
Boys,109.77,6,Juan Saenz,Roma,108.77,238.14,111.13,210.92,560.19,Single-ply,SBD,M
Boys,109.77,7,Victor Martinez,Laredo Martin,109.77,235.87,122.47,199.58,557.92,Single-ply,SBD,M
Boys,109.77,8,Benji Mota,Laredo Alexander,109.77,174.63,117.93,226.8,519.36,Single-ply,SBD,M
Boys,109.77,9,Efrain Valle,Laredo Johnson,100.97,172.37,97.52,181.44,451.32,Single-ply,SBD,M
Boys,109.77,DQ,Antonio Soavedra,Laredo Johnson,104.24,,,,,Single-ply,SBD,M
Boys,124.74,1,Adrian Trinidad,Laredo United South,113.04,226.8,122.47,235.87,585.13,Single-ply,SBD,M
Boys,124.74,2,Eric Morales,Roma,119.57,190.51,111.13,217.72,519.36,Single-ply,SBD,M
Boys,124.74,3,Jaime Cardona,Laredo Nixon,112.85,219.99,97.52,192.78,510.29,Single-ply,SBD,M
Boys,124.74,4,Martin Lara,Laredo Alexander,111.95,179.17,124.74,201.85,505.76,Single-ply,SBD,M
Boys,124.74,5,Arturo Velazquez,Roma,120.75,201.85,117.93,172.37,492.15,Single-ply,SBD,M
Boys,124.74+,1,Carlos Gomez,Laredo Martin,128,235.87,158.76,235.87,630.49,Single-ply,SBD,M
Boys,124.74+,2,Rudy Martinez,Laredo Nixon,125.1,215.46,120.2,217.72,553.38,Single-ply,SBD,M
Boys,124.74+,3,Edward Garza,Laredo Johnson,145.51,208.65,127.01,190.51,526.17,Single-ply,SBD,M
Boys,124.74+,4,JR Sandoval,Laredo United,130.82,226.8,88.45,199.58,514.83,Single-ply,SBD,M
Boys,124.74+,5,Benito Vega,Laredo United South,130.36,206.38,90.72,215.46,512.56,Single-ply,SBD,M
Boys,124.74+,6,Gerardo Cadena,Laredo Cigarroa,164.11,154.22,88.45,158.76,401.43,Single-ply,SBD,M
Boys,124.74+,7,Samuel Alarcon,Laredo Johnson,171.19,151.95,79.38,133.81,365.14,Single-ply,SBD,M
