Division,WeightClassKg,Place,Name,Team,BodyweightKg,Best3SquatKg,Best3BenchKg,Best3DeadliftKg,TotalKg,Equipment,Event,Sex,BirthDate
Boys,51.71,1,Carlos Gamez,Hitchcock,51.71,113.4,83.91,136.08,333.39,Single-ply,SBD,M,
Boys,51.71,2,Seven Petteway,Clute Brazoswood,50.71,83.91,61.23,108.86,254.01,Single-ply,SBD,M,
Boys,51.71,3,Richard Perry,West Columbia,43.82,61.23,52.16,79.38,192.78,Single-ply,SBD,M,
Boys,51.71,4,Kooper Hodge,Van Vleck,46.72,52.16,43.09,70.31,165.56,Single-ply,SBD,M,
Boys,55.79,1,Marcos Aguirre,Pasadena Memorial,55.34,124.74,83.91,115.67,324.32,Single-ply,SBD,M,
Boys,55.79,2,Mateo Aguirre,Pasadena Memorial,54.43,129.27,61.23,113.4,303.91,Single-ply,SBD,M,
Boys,59.87,1,Noah Almaraz,Danbury,59.06,138.35,99.79,151.95,390.09,Single-ply,SBD,M,
Boys,67.13,1,Noah Hysten,Van Vleck,67.13,192.78,111.13,165.56,469.47,Single-ply,SBD,M,
Boys,67.13,2,David Jimenez,Alvin Shadow Creek,62.14,183.7,88.45,192.78,464.93,Single-ply,SBD,M,
Boys,67.13,3,Victor Williams,Manvel,65.59,165.56,97.52,190.51,453.59,Single-ply,SBD,M,
Boys,67.13,4,Cole Fisher,Hitchcock,65.86,185.97,95.25,158.76,439.98,Single-ply,SBD,M,
Boys,67.13,5,Ty Maxwell,Hitchcock,64.77,165.56,88.45,176.9,430.91,Single-ply,SBD,M,
Boys,67.13,6,Gavin Shuttlesworth,Hitchcock,67.13,170.1,92.99,154.22,417.3,Single-ply,SBD,M,
Boys,67.13,7,Brayze Schill,West Columbia,67.13,142.88,99.79,165.56,408.23,Single-ply,SBD,M,
Boys,67.13,8,Marcos Zuñiga,Clute Brazoswood,65.68,138.35,86.18,161.03,385.55,Single-ply,SBD,M,
Boys,67.13,9,Hunter Sanderson,West Columbia,66.68,138.35,92.99,151.95,383.29,Single-ply,SBD,M,
Boys,67.13,10,Christian Byrd,Sweeny,63.78,106.59,83.91,145.15,335.66,Single-ply,SBD,M,
Boys,67.13,11,Alexander Keo,Manvel,62.14,111.13,61.23,131.54,303.91,Single-ply,SBD,M,
Boys,67.13,12,Trayvon Hall,Hitchcock,66.59,111.13,63.5,102.06,276.69,Single-ply,SBD,M,
Boys,67.13,DQ,Jaden Beck,Alvin Shadow Creek,67.13,,,,,Single-ply,SBD,M,
Boys,67.13,DQ,Eric Stephenson,Hitchcock,66.04,,,,,Single-ply,SBD,M,
Boys,74.84,1,Clayton Johnson,Danbury,72.76,170.1,115.67,183.7,469.47,Single-ply,SBD,M,
Boys,74.84,2,Luke Simbajon,Alvin Shadow Creek,74.21,151.95,106.59,183.7,442.25,Single-ply,SBD,M,
Boys,74.84,3,Kaiden Garza,Van Vleck,70.13,158.76,102.06,161.03,421.84,Single-ply,SBD,M,
Boys,74.84,4,Jacob Artiles,Pasadena Memorial,72.94,149.69,88.45,165.56,403.7,Single-ply,SBD,M,
Boys,74.84,5,Benjan Cherian,Alvin Shadow Creek,74.3,147.42,65.77,179.17,392.36,Single-ply,SBD,M,
Boys,74.84,6,Jarred Dotson,Hitchcock,70.76,163.29,86.18,136.08,385.55,Single-ply,SBD,M,
Boys,74.84,7,Jaden Zetka,Danbury,69.22,140.61,83.91,147.42,371.95,Single-ply,SBD,M,
Boys,74.84,8,Keegan Toomer,Sweeny,68.31,111.13,68.04,142.88,322.05,Single-ply,SBD,M,
Boys,74.84,NS,Cody Armstrong,Van Vleck,,,,,,Single-ply,SBD,M,
Boys,74.84,NS,Daiton Garza,Van Vleck,,,,,,Single-ply,SBD,M,
Boys,74.84,DQ,Tj Allen,Hitchcock,69.31,,,,,Single-ply,SBD,M,
Boys,82.1,1,LaMarcus Owens,Manvel,79.65,235.87,133.81,231.33,601.01,Single-ply,SBD,M,
Boys,82.1,2,Matt Fleming,Hitchcock,82.1,249.48,124.74,204.12,578.33,Single-ply,SBD,M,
Boys,82.1,3,Carlo Lewis,Hitchcock,80.74,215.46,108.86,219.99,544.31,Single-ply,SBD,M,
Boys,82.1,4,Parker Kingrea,West Columbia,77.75,201.85,102.06,185.97,489.88,Single-ply,SBD,M,
Boys,82.1,5,Austin Hill,Van Vleck,78.29,192.78,104.33,174.63,471.74,Single-ply,SBD,M,
Boys,82.1,6,Camron Barmettler,Danbury,81.1,170.1,106.59,185.97,462.66,Single-ply,SBD,M,
Boys,82.1,7,Fabian Garza,Pasadena Memorial,82.1,165.56,111.13,183.7,460.4,Single-ply,SBD,M,
Boys,82.1,8,Isaac Kinard,Manvel,80.92,170.1,102.06,176.9,449.06,Single-ply,SBD,M,
Boys,82.1,9,Dakota Craig,Danbury,81.1,158.76,120.2,170.1,449.06,Single-ply,SBD,M,
Boys,82.1,10,Darrin Adams,Hitchcock,78.29,167.83,79.38,172.37,419.57,Single-ply,SBD,M,
Boys,82.1,11,Chris Rebollar,Danbury,75.66,138.35,92.99,145.15,376.48,Single-ply,SBD,M,
Boys,82.1,12,Colton Whyde,Sweeny,75.57,113.4,88.45,136.08,337.93,Single-ply,SBD,M,
Boys,82.1,13,Hunter Ryman,Van Vleck,80.38,124.74,90.72,117.93,333.39,Single-ply,SBD,M,
Boys,82.1,14,Danny Garcia,Clute Brazoswood,75.93,92.99,74.84,147.42,315.25,Single-ply,SBD,M,
Boys,82.1,15,Brandon Simson,Hitchcock,80.92,138.35,54.43,115.67,308.44,Single-ply,SBD,M,
Boys,82.1,DQ,Dacoda Lopez,Clute Brazoswood,80.29,,,,,Single-ply,SBD,M,
Boys,82.1,DQ,Joshua Roberson,Alvin Shadow Creek,79.2,183.7,,,,Single-ply,SBD,M,
Boys,89.81,1,Caleb Myers,Sweeny,89.27,213.19,124.74,217.72,555.65,Single-ply,SBD,M,
Boys,89.81,2,Garrett Sassin,Alvin Shadow Creek,88.27,204.12,133.81,215.46,553.38,Single-ply,SBD,M,
Boys,89.81,3,Hadyn Schneider,West Columbia,84.28,206.38,102.06,197.31,505.76,Single-ply,SBD,M,
Boys,89.81,4,Bradford Erwin,West Columbia,86.45,192.78,117.93,185.97,496.68,Single-ply,SBD,M,
Boys,89.81,5,Tyler Norman,Hitchcock,87.09,185.97,92.99,204.12,483.08,Single-ply,SBD,M,
Boys,89.81,6,Justin Davila,Pasadena Memorial,86,170.1,92.99,206.38,469.47,Single-ply,SBD,M,
Boys,89.81,7,Mauricio Gloria,Pasadena Memorial,82.92,154.22,86.18,183.7,424.11,Single-ply,SBD,M,
Boys,89.81,8,Ethan Cromeans,Clute Brazoswood,88.99,154.22,106.59,147.42,408.23,Single-ply,SBD,M,
Boys,89.81,9,Landon Perez,Pasadena Memorial,85.82,138.35,97.52,161.03,396.89,Single-ply,SBD,M,
Boys,89.81,10,Israel Ayala,Danbury,88.72,149.69,90.72,138.35,378.75,Single-ply,SBD,M,
Boys,89.81,DQ,Jesse Sanchez,Sweeny,89.81,,,,,Single-ply,SBD,M,
Boys,89.81,DQ,Mason Folkert,Clute Brazoswood,84.37,147.42,,,,Single-ply,SBD,M,
Boys,99.79,1,Max Kroschel,Danbury,98.07,210.92,154.22,213.19,578.33,Single-ply,SBD,M,
Boys,99.79,2,Nick Rideau,Stafford,95.35,181.44,108.86,206.38,496.68,Single-ply,SBD,M,
Boys,99.79,3,Robert Boysen,Hitchcock,99.79,183.7,102.06,174.63,460.4,Single-ply,SBD,M,
Boys,99.79,4,Blaine Ashworth,Van Vleck,99.7,174.63,108.86,174.63,458.13,Single-ply,SBD,M,
Boys,99.79,5,Cade Lamb,West Columbia,93.17,165.56,106.59,181.44,453.59,Single-ply,SBD,M,
Boys,99.79,6,Donato Cortes,Danbury,94.17,170.1,111.13,170.1,451.32,Single-ply,SBD,M,
Boys,99.79,7,Davis Groves,Clute Brazoswood,92.08,176.9,95.25,170.1,442.25,Single-ply,SBD,M,
Boys,99.79,8,Chidi Nwagboso,Stafford,91.26,181.44,92.99,165.56,439.98,Single-ply,SBD,M,
Boys,99.79,9,Tresten McArthur,Sweeny,93.08,151.95,102.06,165.56,419.57,Single-ply,SBD,M,
Boys,99.79,DQ,Logan Bosarge,Sweeny,99.79,,,,,Single-ply,SBD,M,
Boys,99.79,DQ,Braylon Rideau,Stafford,99.79,,,,,Single-ply,SBD,M,
Boys,99.79,DQ,Vicente Casas,Manvel,99.79,,,,,Single-ply,SBD,M,
Boys,109.77,1,Alex Flores,Clute Brazoswood,100.88,226.8,156.49,197.31,580.6,Single-ply,SBD,M,
Boys,109.77,2,Josh Diaz,Alvin Shadow Creek,105.14,204.12,161.03,195.04,560.19,Single-ply,SBD,M,
Boys,109.77,3,Ricardo Cordova,Pasadena Memorial,105.69,204.12,131.54,201.85,537.51,Single-ply,SBD,M,
Boys,109.77,4,Mason Flemming,Manvel,107.59,183.7,140.61,188.24,512.56,Single-ply,SBD,M,
Boys,109.77,5,Britton Mosley,Manvel,106.05,201.85,113.4,181.44,496.68,Single-ply,SBD,M,
Boys,109.77,6,Jaiden Longoria,Pasadena Memorial,105.96,174.63,106.59,199.58,480.81,Single-ply,SBD,M,
Boys,109.77,7,Jase Ogelsby,Stafford,101.79,170.1,106.59,183.7,460.4,Single-ply,SBD,M,
Boys,109.77,8,Angel Amezquita,Van Vleck,102.6,161.03,106.59,174.63,442.25,Single-ply,SBD,M,
Boys,109.77,9,Taylor Williams,Stafford,108.41,136.08,111.13,161.03,408.23,Single-ply,SBD,M,
Boys,124.74,1,Jordan Able,Clute Brazoswood,116.94,226.8,142.88,213.19,582.87,Single-ply,SBD,M,
Boys,124.74,2,Alex Mateo,Pasadena Memorial,123.47,206.38,117.93,215.46,539.77,Single-ply,SBD,M,
Boys,124.74,3,Kris Whitley,Clute Brazoswood,118.39,201.85,142.88,192.78,537.51,Single-ply,SBD,M,
Boys,124.74,4,Ronnie Cathey,Van Vleck,119.02,217.72,108.86,192.78,519.36,Single-ply,SBD,M,
Boys,124.74,5,Shane Martinez,Sweeny,112.76,195.04,124.74,192.78,512.56,Single-ply,SBD,M,
Boys,124.74,6,Erskin Hill,Hitchcock,123.29,208.65,131.54,172.37,512.56,Single-ply,SBD,M,
Boys,124.74,7,Christian Betts,Pasadena Memorial,115.21,206.38,102.06,197.31,505.76,Single-ply,SBD,M,
Boys,124.74,8,Albert Ruben,Hitchcock,119.2,226.8,113.4,151.95,492.15,Single-ply,SBD,M,
Boys,124.74,9,Gabriel Villarreal,Pasadena Memorial,114.4,165.56,83.91,170.1,419.57,Single-ply,SBD,M,
Boys,124.74,10,Julian Rodreguez,Alvin Shadow Creek,113.31,142.88,88.45,151.95,383.29,Single-ply,SBD,M,
Boys,124.74,DQ,Malcolm Fields,Manvel,124.74,,,,,Single-ply,SBD,M,
Boys,124.74,DQ,Rudy Garcia,Clute Brazoswood,121.93,183.7,129.27,,,Single-ply,SBD,M,
Boys,139.71,1,Dylan Hughes,Alvin Shadow Creek,131.54,281.23,185.97,272.16,739.36,Single-ply,SBD,M,
Boys,139.71,2,John Fletcher,Manvel,132,247.21,165.56,247.21,659.98,Single-ply,SBD,M,
Boys,139.71,3,Xavier Potts,Manvel,126.01,260.82,147.42,229.06,637.3,Single-ply,SBD,M,
Boys,139.71,4,Jayden Edmison,Manvel,129.09,231.33,138.35,215.46,585.13,Single-ply,SBD,M,
Boys,139.71,5,Wade Springfield,Van Vleck,135.35,229.06,142.88,208.65,580.6,Single-ply,SBD,M,
Boys,139.71,6,Micah Williams,Manvel,135.62,208.65,140.61,185.97,535.24,Single-ply,SBD,M,
Boys,139.71,7,Jacob Perez,Van Vleck,137.53,183.7,122.47,183.7,489.88,Single-ply,SBD,M,
Boys,139.71,8,Francisco Elgueda,Alvin Shadow Creek,131.54,174.63,113.4,192.78,480.81,Single-ply,SBD,M,
Boys,139.71,9,Declan Donnelly,Sweeny,127.1,174.63,111.13,165.56,451.32,Single-ply,SBD,M,
Boys,139.71,10,Corey Locke,Stafford,128.46,183.7,95.25,165.56,444.52,Single-ply,SBD,M,
Boys,139.71+,1,Reagan Gibson,West Columbia,142.43,283.5,183.7,233.6,700.8,Single-ply,SBD,M,
Boys,139.71+,2,Marcus Kemp,Alvin Shadow Creek,156.13,238.14,113.4,215.46,566.99,Single-ply,SBD,M,
Boys,139.71+,3,Erick Woods,Stafford,144.79,149.69,117.93,183.7,451.32,Single-ply,SBD,M,
Boys,139.71+,DQ,Cooper Wattier,Clute Brazoswood,140.61,,,,,Single-ply,SBD,M,
Boys,139.71+,DQ,Dominic Strange,Manvel,140.16,,,,,Single-ply,SBD,M,
