Division,WeightClassKg,Place,Name,Team,BodyweightKg,Best3SquatKg,Best3BenchKg,Best3DeadliftKg,TotalKg,Equipment,Event,Sex
Boys,51.71,1,Michael Ramsey,Ranger,51.44,151.95,83.91,181.44,417.3,Single-ply,SBD,M
Boys,51.71,2,Chris Martichuski,Perrin-Whitt,50.8,131.54,68.04,108.86,308.44,Single-ply,SBD,M
Boys,51.71,3,Echo Jones,Strawn,49.53,95.25,52.16,136.08,283.5,Single-ply,SBD,M
Boys,51.71,4,Armando Alvarado,Castleberry,50.71,99.79,61.23,111.13,272.16,Single-ply,SBD,M
Boys,51.71,5,Cj Pinedo,Lake Worth,51.62,92.99,54.43,117.93,265.35,Single-ply,SBD,M
Boys,51.71,6,Zachary Tucker,Perrin-Whitt,47.99,83.91,47.63,90.72,222.26,Single-ply,SBD,M
Boys,55.79,1,Jordan Whiteside,Peaster,55.43,140.61,95.25,149.69,385.55,Single-ply,SBD,M
Boys,55.79,2,Lucas Diaz,Santa Anna,54.88,124.74,72.57,167.83,365.14,Single-ply,SBD,M
Boys,59.87,3,Josh Vandygrift,Godley,56.02,129.27,63.5,136.08,328.85,Single-ply,SBD,M
Boys,55.79,4,Evan Gravell,Bangs,52.98,102.06,65.77,108.86,276.69,Single-ply,SBD,M
Boys,55.79,DQ,Isaac Martin,Early,53.52,102.06,,,,Single-ply,SBD,M
Boys,59.87,1,Quenton Winborn,Early,59.6,165.56,79.38,170.1,415.04,Single-ply,SBD,M
Boys,59.87,2,Clayton Bryant,Godley,58.97,131.54,88.45,142.88,362.87,Single-ply,SBD,M
Boys,67.13,3,Chase Phelps,Bangs,60.1,129.27,65.77,145.15,340.19,Single-ply,SBD,M
Boys,67.13,4,Anthony Garcia,Strawn,60.06,113.4,72.57,131.54,317.51,Single-ply,SBD,M
Boys,59.87,5,Jaime Padron,Millsap,58.74,106.59,70.31,138.35,315.25,Single-ply,SBD,M
Boys,59.87,6,Avery Rangel,Castleberry,58.06,106.59,65.77,136.08,308.44,Single-ply,SBD,M
Boys,59.87,7,Alan Salazar,Mineral Wells,57.38,81.65,47.63,115.67,244.94,Single-ply,SBD,M
Boys,67.13,1,Oscar Orozco,Castleberry,66.86,176.9,113.4,217.72,508.02,Single-ply,SBD,M
Boys,74.84,2,Ethan Blathrop,Castleberry,67.31,163.29,92.99,158.76,415.04,Single-ply,SBD,M
Boys,67.13,3,Homer Ortiz,Santo,60.96,149.69,83.91,167.83,401.43,Single-ply,SBD,M
Boys,67.13,4,Xaiver Olivo,Strawn,63.46,147.42,83.91,151.95,383.29,Single-ply,SBD,M
Boys,67.13,5,Ryan Martinez,Early,61.23,136.08,88.45,142.88,367.41,Single-ply,SBD,M
Boys,67.13,6,Hayden Turner,Early,66.45,140.61,72.57,154.22,367.41,Single-ply,SBD,M
Boys,67.13,7,Leroy Spruell,Bangs,61.51,140.61,74.84,149.69,365.14,Single-ply,SBD,M
Boys,67.13,8,Sam Marin,Strawn,62.78,117.93,61.23,136.08,315.25,Single-ply,SBD,M
Boys,67.13,9,Talon Sanders,Lake Worth,64.64,102.06,63.5,136.08,301.64,Single-ply,SBD,M
Boys,74.84,DQ,Matt Merriman,Lake Worth,67.36,136.08,,,,Single-ply,SBD,M
Boys,67.13,DQ,Steven Pearce,Castleberry,64.68,90.72,,129.27,,Single-ply,SBD,M
Boys,74.84,1,Alexander Scallion,Castleberry,74.62,242.67,149.69,242.67,635.03,Single-ply,SBD,M
Boys,74.84,2,Kameron Milton,Lake Worth,73.75,188.24,111.13,190.51,489.88,Single-ply,SBD,M
Boys,74.84,3,Darrion Riggs,Chico,70.49,183.7,111.13,176.9,471.74,Single-ply,SBD,M
Boys,74.84,4,Bryan Ortiz,Castleberry,71.76,181.44,102.06,167.83,451.32,Single-ply,SBD,M
Boys,74.84,5,Dennis Ralon,Lake Worth,69.94,161.03,104.33,172.37,437.72,Single-ply,SBD,M
Boys,74.84,6,Griffin Balthrop,Castleberry,74.21,158.76,99.79,172.37,430.91,Single-ply,SBD,M
Boys,74.84,7,Charlie Tongate,Early,69.76,142.88,86.18,188.24,417.3,Single-ply,SBD,M
Boys,74.84,8,Dom Flores,Ranger,71.58,151.95,79.38,176.9,408.23,Single-ply,SBD,M
Boys,74.84,9,Colton Squires,Godley,67.86,142.88,97.52,163.29,403.7,Single-ply,SBD,M
Boys,74.84,10,Logan Thomas,Early,74.12,142.88,97.52,163.29,403.7,Single-ply,SBD,M
Boys,74.84,11,Tim Dorris,Strawn,74.3,158.76,79.38,158.76,396.89,Single-ply,SBD,M
Boys,74.84,12,Matthew Ortiz,Castleberry,70.22,129.27,72.57,149.69,351.53,Single-ply,SBD,M
Boys,74.84,13,Brett Shaw,Early,69.58,133.81,68.04,142.88,344.73,Single-ply,SBD,M
Boys,74.84,14,Nathan Martin #3,Stephenville,68.95,99.79,65.77,115.67,281.23,Single-ply,SBD,M
Boys,74.84,15,Matthew Suarez,Nocona Prairie Valley,74.84,97.52,56.7,113.4,267.62,Single-ply,SBD,M
Boys,74.84,DQ,Brandon Guilkey,Peaster,70.4,,61.23,102.06,,Single-ply,SBD,M
Boys,89.81,1,Luke Bowling,Santo,82.19,226.8,142.88,238.14,607.81,Single-ply,SBD,M
Boys,82.1,2,Chase Mackey,Strawn,81.19,181.44,102.06,192.78,476.27,Single-ply,SBD,M
Boys,89.81,3,Ragan Wood,Stephenville,82.19,188.24,102.06,179.17,469.47,Single-ply,SBD,M
Boys,82.1,4,Andrew Alegria,Lake Worth,78.56,179.17,95.25,192.78,467.2,Single-ply,SBD,M
Boys,82.1,5,Huriel Oviedo,Godley,80.65,172.37,102.06,167.83,442.25,Single-ply,SBD,M
Boys,89.81,6,Lio Garcia,Stephenville,82.19,147.42,111.13,172.37,430.91,Single-ply,SBD,M
Boys,82.1,7,Danny Kettler,Millsap,80.83,147.42,99.79,176.9,424.11,Single-ply,SBD,M
Boys,82.1,8,Cody Armstrong,Chico,81.1,165.56,77.11,151.95,394.63,Single-ply,SBD,M
Boys,82.1,9,Jd Parketon,Chico,76.93,149.69,83.91,156.49,390.09,Single-ply,SBD,M
Boys,82.1,10,Morgan Baker,Mineral Wells,76.11,129.27,115.67,140.61,385.55,Single-ply,SBD,M
Boys,82.1,11,Tyler Martin,Perrin-Whitt,75.75,138.35,72.57,165.56,376.48,Single-ply,SBD,M
Boys,82.1,12,Timothy Landers,Castleberry,80.65,129.27,83.91,163.29,376.48,Single-ply,SBD,M
Boys,82.1,13,Jared Stone,Mineral Wells,79.83,133.81,72.57,161.03,367.41,Single-ply,SBD,M
Boys,82.1,14,Frank Hernandez,Mineral Wells,82.1,131.54,83.91,138.35,353.8,Single-ply,SBD,M
Boys,82.1,15,Adrian Alanis,Chico,76.84,113.4,77.11,156.49,347,Single-ply,SBD,M
Boys,82.1,16,Michael Ivy,Santo,79.83,149.69,65.77,131.54,347,Single-ply,SBD,M
Boys,82.1,17,Javier Canales,Lake Worth,77.34,129.27,70.31,127.01,326.59,Single-ply,SBD,M
Boys,82.1,18,Tyler Carter,Nocona Prairie Valley,79.29,90.72,65.77,113.4,269.89,Single-ply,SBD,M
Boys,82.1,19,John Santillan,Mineral Wells,81.28,61.23,52.16,106.59,219.99,Single-ply,SBD,M
Boys,89.81,1,Eric Maldonado,Castleberry,89.36,215.46,147.42,233.6,596.47,Single-ply,SBD,M
Boys,89.81,2,Cody Morrison,Early,85.37,215.46,90.72,204.12,510.29,Single-ply,SBD,M
Boys,89.81,3,Cameron Starnes,Chico,84.64,190.51,95.25,174.63,460.4,Single-ply,SBD,M
Boys,89.81,4,Dylan Esquivel,Godley,88,158.76,108.86,183.7,451.32,Single-ply,SBD,M
Boys,89.81,5,Albert Elizando,Early,87.82,185.97,104.33,147.42,437.72,Single-ply,SBD,M
Boys,89.81,6,Mason Chapa,Castleberry,84.73,140.61,79.38,161.03,381.02,Single-ply,SBD,M
Boys,99.79,7,Rieken Dougals,Stephenville,89.99,120.2,74.84,161.03,356.07,Single-ply,SBD,M
Boys,89.81,8,Donnie Neal,Chico,86,120.2,65.77,158.76,344.73,Single-ply,SBD,M
Boys,89.81,9,Sebastian Hernandez,Castleberry,87.72,127.01,63.5,136.08,326.59,Single-ply,SBD,M
Boys,89.81,10,Sam Cannon,Stephenville,84.01,113.4,65.77,142.88,322.05,Single-ply,SBD,M
Boys,89.81,DQ,Abraham Espinosa,Chico,82.64,,97.52,151.95,,Single-ply,SBD,M
Boys,89.81,DQ,Michael Robinson,Millsap,88.13,81.65,,108.86,,Single-ply,SBD,M
Boys,89.81,DQ,Kody Wages,Millsap,83.1,149.69,,151.95,,Single-ply,SBD,M
Boys,89.81,DQ,Trenton Thibault,Mineral Wells,84.19,,,,,Single-ply,SBD,M
Boys,99.79,1,Christopher Reyes,Castleberry,98.2,185.97,120.2,185.97,492.15,Single-ply,SBD,M
Boys,99.79,2,Tomas Barrientes,Castleberry,98.2,188.24,108.86,167.83,464.93,Single-ply,SBD,M
Boys,99.79,3,Federico Arvizu,Castleberry,97.43,185.97,90.72,183.7,460.4,Single-ply,SBD,M
Boys,99.79,4,Austin Coker,Santo,95.8,183.7,97.52,158.76,439.98,Single-ply,SBD,M
Boys,99.79,5,Brock McDaniel,Millsap,95.44,156.49,99.79,147.42,403.7,Single-ply,SBD,M
Boys,99.79,6,Marco Arredondo,Chico,96.43,136.08,83.91,131.54,351.53,Single-ply,SBD,M
Boys,99.79,DQ,Anthony Castillo,Castleberry,94.53,145.15,,149.69,,Single-ply,SBD,M
Boys,99.79,DQ,Bubba Bailey,Early,98.2,181.44,,,,Single-ply,SBD,M
Boys,99.79,DQ,David Garcia #11,Mineral Wells,90.99,145.15,,,,Single-ply,SBD,M
Boys,99.79,DQ,Zane Drury,Stephenville,91.81,,,120.2,,Single-ply,SBD,M
Boys,109.77,1,Mitchell Coker,Millsap,101.15,233.6,147.42,242.67,623.69,Single-ply,SBD,M
Boys,109.77,2,Quentin McKinnery,Bangs,101.6,235.87,106.59,176.9,519.36,Single-ply,SBD,M
Boys,109.77,3,Jacob Boyd,Mineral Wells,105.23,188.24,138.35,192.78,519.36,Single-ply,SBD,M
Boys,109.77,4,Victor Hernandez #8,Strawn,101.38,195.04,108.86,192.78,496.68,Single-ply,SBD,M
Boys,109.77,5,Grant Isham,Stephenville,106.5,158.76,102.06,181.44,442.25,Single-ply,SBD,M
Boys,109.77,6,Joseph Lindley,Mineral Wells,109.27,167.83,92.99,142.88,403.7,Single-ply,SBD,M
Boys,109.77,7,Carlos Farias,Lake Worth,106.96,154.22,86.18,136.08,376.48,Single-ply,SBD,M
Boys,109.77,8,Angelo Gomez,Nocona Prairie Valley,100.43,113.4,77.11,113.4,303.91,Single-ply,SBD,M
Boys,124.74,1,Diamond Cardona,Godley,118.84,217.72,151.95,231.33,601.01,Single-ply,SBD,M
Boys,124.74,2,Dylan Driver,Stephenville,115.89,249.48,133.81,204.12,587.4,Single-ply,SBD,M
Boys,124.74,3,Cody Channer,Millsap,110.77,190.51,136.08,195.04,521.63,Single-ply,SBD,M
Boys,124.74,4,Elijah Elizondo,Ranger,117.93,147.42,138.35,208.65,494.42,Single-ply,SBD,M
Boys,124.74,5,Ben Tackett,Stephenville,122.7,181.44,124.74,170.1,476.27,Single-ply,SBD,M
Boys,124.74,6,Trace Boyd,Strawn,117.03,170.1,115.67,172.37,458.13,Single-ply,SBD,M
Boys,124.74,7,Connor Murphy,Early,123.38,142.88,79.38,147.42,369.68,Single-ply,SBD,M
Boys,124.74,8,Caleb Gibbons,Stephenville,115.39,142.88,65.77,138.35,347,Single-ply,SBD,M
Boys,124.74+,1,Weldon Edwards,Early,150.41,226.8,113.4,226.8,566.99,Single-ply,SBD,M
Boys,124.74+,2,Bucky McDaniel,Early,137.26,192.78,124.74,172.37,489.88,Single-ply,SBD,M
Boys,124.74+,DQ,Joe Cruz,Lake Worth,127.55,199.58,,,,Single-ply,SBD,M
