Division,WeightClassKg,Place,Name,Team,BodyweightKg,Best3SquatKg,Best3BenchKg,Best3DeadliftKg,TotalKg,Equipment,Event,Sex,BirthDate
Boys,51.71,DQ,Cory Newkirk,Hardin,51.71,83.91,,,,Single-ply,SBD,M,
Boys,59.87,1,Rock Page,Cleveland Tarkington,57.15,120.2,77.11,124.74,322.05,Single-ply,SBD,M,
Boys,59.87,DQ,Chris McCarty,Hardin,56.7,124.74,,,,Single-ply,SBD,M,
Boys,67.13,1,Scott Jones,Warren,67.13,149.69,104.33,174.63,428.64,Single-ply,SBD,M,
Boys,67.13,2,Trenton Tillman,Warren,67.13,133.81,74.84,158.76,367.41,Single-ply,SBD,M,
Boys,67.13,3,Jarrick Harper,Warren,67.13,142.88,72.57,138.35,353.8,Single-ply,SBD,M,
Boys,67.13,4,Jesse Smith,Warren,64.41,127.01,81.65,136.08,344.73,Single-ply,SBD,M,
Boys,67.13,5,Ethan Millard,Cleveland Tarkington,64.86,111.13,54.43,122.47,288.03,Single-ply,SBD,M,
Boys,67.13,DQ,Clinton Dawson,Hardin,65.32,47.63,,,,Single-ply,SBD,M,
Boys,74.84,1,Dylan Errington,Cleveland Tarkington,71.21,158.76,120.2,181.44,460.4,Single-ply,SBD,M,
Boys,74.84,2,Riley Kubezcka,Hardin,74.84,172.37,90.72,183.7,446.79,Single-ply,SBD,M,
Boys,74.84,3,Landon Ponton,Hardin,74.84,147.42,70.31,165.56,383.29,Single-ply,SBD,M,
Boys,74.84,4,Bryar Stewart,Warren,73.48,138.35,83.91,154.22,376.48,Single-ply,SBD,M,
Boys,74.84,5,Deacon Young,Warren,68.95,124.74,65.77,142.88,333.39,Single-ply,SBD,M,
Boys,74.84,6,Colsen Thompson,Warren,74.84,108.86,68.04,117.93,294.84,Single-ply,SBD,M,
Boys,74.84,7,Quinton Fredrich,Warren,69.85,102.06,63.5,124.74,290.3,Single-ply,SBD,M,
Boys,74.84,DQ,Hunter Templeton,Hardin,67.59,122.47,,,,Single-ply,SBD,M,
Boys,82.1,1,Brandon Pitty,Cleveland Tarkington,78.02,217.72,113.4,213.19,544.31,Single-ply,SBD,M,
Boys,82.1,2,Matthew Hughes,Hardin,77.11,183.7,124.74,188.24,496.68,Single-ply,SBD,M,
Boys,82.1,3,Tatum Clements,Cleveland Tarkington,76.66,165.56,92.99,165.56,424.11,Single-ply,SBD,M,
Boys,82.1,4,Clayton Fountain,Warren,82.1,131.54,90.72,151.95,374.21,Single-ply,SBD,M,
Boys,82.1,5,Marek Christy,Warren,76.2,127.01,74.84,129.27,331.12,Single-ply,SBD,M,
Boys,89.81,1,Blake Parsons,Hardin,83.91,133.81,92.99,151.95,378.75,Single-ply,SBD,M,
Boys,99.79,1,Shane Holst,Hardin,99.79,254.01,158.76,249.48,662.24,Single-ply,SBD,M,
Boys,99.79,2,Justin Scarborough,Cleveland Tarkington,96.16,151.95,108.86,142.88,403.7,Single-ply,SBD,M,
Boys,99.79,3,Jacob Carmack,Warren,99.34,142.88,83.91,145.15,371.95,Single-ply,SBD,M,
Boys,99.79,4,Andrew Guidry,Hardin,93.89,129.27,88.45,142.88,360.61,Single-ply,SBD,M,
Boys,109.77,1,Cody Mendenhall,Hardin,107.05,147.42,117.93,224.53,489.88,Single-ply,SBD,M,
Boys,109.77,2,Dalton Pelts,Warren,107.95,188.24,120.2,154.22,462.66,Single-ply,SBD,M,
Boys,109.77,3,Nick Garrett,Hardin,107.5,156.49,102.06,158.76,417.3,Single-ply,SBD,M,
Boys,109.77,4,Nathan Holst,Hardin,103.42,147.42,111.13,156.49,415.04,Single-ply,SBD,M,
Boys,124.74,1,Gavin Edwards,Cleveland Tarkington,118.84,249.48,174.63,226.8,650.91,Single-ply,SBD,M,
Boys,124.74,2,Zach Davila,Hardin,113.4,131.54,86.18,156.49,374.21,Single-ply,SBD,M,
Boys,139.71,1,Kyler Colbert,Cleveland Tarkington,136.08,192.78,133.81,192.78,519.36,Single-ply,SBD,M,
Boys,139.71,2,Tristan Tousha,Warren,131.54,195.04,142.88,163.29,501.22,Single-ply,SBD,M,
