Division,WeightClassKg,Place,Name,Team,BodyweightKg,Best3SquatKg,Best3BenchKg,Best3DeadliftKg,TotalKg,Equipment,Event,Sex
Boys,51.71,1,Cesar Casas,Hidalgo Early College,51.44,165.56,102.06,174.63,442.25,Single-ply,SBD,M
Boys,55.79,2,Jerry Lopez,Port Isabel,51.94,170.1,92.99,163.29,426.38,Single-ply,SBD,M
Boys,55.79,3,Leo Tanguma,Rio Grande City Grulla,51.8,106.59,65.77,115.67,288.03,Single-ply,SBD,M
Boys,55.79,1,Omar Puente,Los Fresnos,55.61,183.7,117.93,201.85,503.49,Single-ply,SBD,M
Boys,55.79,2,Billy Guerra,La Feria,55.07,106.59,49.9,108.86,265.35,Single-ply,SBD,M
Boys,55.79,3,Juan Ayala,Weslaco,53.98,104.33,,,104.33,Single-ply,S,M
Boys,55.79,4,Hugo Abacara,Lyford,54.34,104.33,,,104.33,Single-ply,S,M
Boys,59.87,1,Joshua Garcia,Weslaco,58.42,140.61,79.38,154.22,374.21,Single-ply,SBD,M
Boys,59.87,2,Christian Gonzalez,Weslaco,59.6,140.61,81.65,138.35,360.61,Single-ply,SBD,M
Boys,67.13,3,Eduardo Jilpas,Weslaco,59.96,136.08,70.31,147.42,353.8,Single-ply,SBD,M
Boys,67.13,1,Tristan Salinas,Santa Rosa,64.86,217.72,136.08,226.8,580.6,Single-ply,SBD,M
Boys,67.13,2,Joe Torres #5,Los Fresnos,65.77,201.85,124.74,195.04,521.63,Single-ply,SBD,M
Boys,67.13,3,Carlos Castillo,Los Fresnos,67.04,204.12,108.86,206.38,519.36,Single-ply,SBD,M
Boys,67.13,4,Julian Morales,Weslaco,66.13,208.65,99.79,208.65,517.1,Single-ply,SBD,M
Boys,67.13,5,Joe Rocafuente,Los Fresnos,65.77,176.9,92.99,183.7,453.59,Single-ply,SBD,M
Boys,67.13,6,Hernan Guerrero,Rio Hondo,63.32,165.56,102.06,151.95,419.57,Single-ply,SBD,M
Boys,67.13,7,Marco Arista,Port Isabel,64.59,156.49,70.31,145.15,371.95,Single-ply,SBD,M
Boys,74.84,8,Oliver Salander,Port Isabel,67.22,133.81,79.38,147.42,360.61,Single-ply,SBD,M
Boys,67.13,9,Guerrero Juan,Weslaco,62.78,99.79,63.5,106.59,269.89,Single-ply,SBD,M
Boys,67.13,DQ,Chris Morales,Edcouch-Elsa,62.78,,,,,Single-ply,SBD,M
Boys,74.84,1,Edward Cantu,La Feria,72.21,210.92,140.61,213.19,564.72,Single-ply,SBD,M
Boys,74.84,2,Ross Torres,La Feria,74.03,206.38,124.74,224.53,555.65,Single-ply,SBD,M
Boys,74.84,3,Edward Palomin,Weslaco,68.67,208.65,115.67,190.51,514.83,Single-ply,SBD,M
Boys,74.84,4,Pedro Gonzalez,Port Isabel,72.48,183.7,106.59,181.44,471.74,Single-ply,SBD,M
Boys,74.84,5,Adan Cantu,Rio Grande City Grulla,73.57,181.44,99.79,138.35,419.57,Single-ply,SBD,M
Boys,74.84,6,Travis Ramos,Lyford,68.49,165.56,97.52,138.35,401.43,Single-ply,SBD,M
Boys,74.84,7,Jonathan Ruiz,Rio Hondo,74.57,133.81,104.33,151.95,390.09,Single-ply,SBD,M
Boys,74.84,8,Robert Camarillo,Rio Grande City Grulla,70.49,129.27,90.72,167.83,387.82,Single-ply,SBD,M
Boys,74.84,9,Eddie Rodriguez,Port Isabel,71.4,124.74,79.38,140.61,344.73,Single-ply,SBD,M
Boys,74.84,10,David Yanes,Port Isabel,68.95,142.88,70.31,124.74,337.93,Single-ply,SBD,M
Boys,74.84,11,Diego Garcia,Edcouch-Elsa,73.66,165.56,,,165.56,Single-ply,S,M
Boys,82.1,1,Luis Munoz #4,Hidalgo Early College,81.74,258.55,131.54,219.99,610.08,Single-ply,SBD,M
Boys,82.1,2,Eduardo Ramirez #1,Los Fresnos,80.65,233.6,131.54,206.38,571.53,Single-ply,SBD,M
Boys,82.1,3,Max Castillo,Rio Hondo,81.28,217.72,133.81,210.92,562.45,Single-ply,SBD,M
Boys,82.1,4,Ramon Sauceda,La Feria,78.2,197.31,111.13,188.24,496.68,Single-ply,SBD,M
Boys,82.1,5,Armando Garza,La Feria,76.57,154.22,108.86,179.17,442.25,Single-ply,SBD,M
Boys,82.1,6,Cristian Hoshino,Port Isabel,79.92,176.9,95.25,163.29,435.45,Single-ply,SBD,M
Boys,82.1,7,Isai Perez,Rio Grande City Grulla,79.56,163.29,97.52,145.15,405.97,Single-ply,SBD,M
Boys,82.1,8,Robert Trevino,Edcouch-Elsa,81.83,229.06,,,229.06,Single-ply,S,M
Boys,82.1,9,Richard Hernandez,Edcouch-Elsa,76.38,170.1,,,170.1,Single-ply,S,M
Boys,82.1,10,Cordero Castro,Lyford,80.83,154.22,,,154.22,Single-ply,S,M
Boys,89.81,1,Juan Sanchez #1,Rio Hondo,88.99,235.87,124.74,204.12,564.72,Single-ply,SBD,M
Boys,89.81,2,Marco Gutierrez,La Feria,83.1,149.69,95.25,158.76,403.7,Single-ply,SBD,M
Boys,89.81,3,Miguel Garcia,Port Isabel,84.91,127.01,90.72,147.42,365.14,Single-ply,SBD,M
Boys,89.81,4,Mark Salinas,Rio Grande City Grulla,85.55,140.61,74.84,136.08,351.53,Single-ply,SBD,M
Boys,89.81,5,Juan Valera,Edcouch-Elsa,86.18,174.63,,,174.63,Single-ply,S,M
Boys,99.79,1,Luis Hernandez,Edcouch-Elsa,98.7,258.55,183.7,247.21,689.46,Single-ply,SBD,M
Boys,99.79,2,Ej Castaneda,Rio Hondo,94.44,217.72,181.44,215.46,614.62,Single-ply,SBD,M
Boys,99.79,3,Fernando Rivera #2,Port Isabel,99.16,247.21,147.42,208.65,603.28,Single-ply,SBD,M
Boys,99.79,4,Javier Arriaga,Rio Hondo,97.98,215.46,170.1,215.46,601.01,Single-ply,SBD,M
Boys,99.79,5,Joe Perez,Los Fresnos,95.44,242.67,138.35,206.38,587.4,Single-ply,SBD,M
Boys,99.79,6,Chris Maples,La Feria,99.7,226.8,149.69,206.38,582.87,Single-ply,SBD,M
Boys,99.79,7,Mario Vera,Edcouch-Elsa,98.25,226.8,124.74,219.99,571.53,Single-ply,SBD,M
Boys,99.79,8,Anthony Rios,Rio Hondo,98.43,183.7,165.56,192.78,542.04,Single-ply,SBD,M
Boys,99.79,9,Jesus Roiz,Rio Grande City Grulla,97.43,181.44,115.67,181.44,478.54,Single-ply,SBD,M
Boys,99.79,10,Alavaro Torres,Weslaco,91.99,192.78,108.86,172.37,474,Single-ply,SBD,M
Boys,109.77,11,Aaron Barrera,Rio Grande City Grulla,99.97,172.37,120.2,181.44,474,Single-ply,SBD,M
Boys,99.79,12,Esteban Reyes,Weslaco,99.43,172.37,97.52,165.56,435.45,Single-ply,SBD,M
Boys,99.79,13,Israel Torres,La Feria,92.62,147.42,79.38,136.08,362.87,Single-ply,SBD,M
Boys,109.77,1,Aureliano Silva,Port Isabel,108.23,294.84,149.69,210.92,655.44,Single-ply,SBD,M
Boys,109.77,2,Juan Garcia,Los Fresnos,109.13,238.14,158.76,217.72,614.62,Single-ply,SBD,M
Boys,109.77,3,Mike Garza,Edcouch-Elsa,105.23,231.33,136.08,213.19,580.6,Single-ply,SBD,M
Boys,109.77,4,Jose Juarez #5,Weslaco,101.15,199.58,108.86,199.58,508.02,Single-ply,SBD,M
Boys,109.77,5,Joe Cruz,Rio Hondo,107.59,183.7,124.74,185.97,494.42,Single-ply,SBD,M
Boys,109.77,6,Michael Cervantes,Lyford,102.15,204.12,97.52,165.56,467.2,Single-ply,SBD,M
Boys,109.77,7,Jesus Anaya,Weslaco,102.15,195.04,97.52,172.37,464.93,Single-ply,SBD,M
Boys,109.77,8,Ramon Garza,Rio Grande City Grulla,109.77,151.95,99.79,149.69,401.43,Single-ply,SBD,M
Boys,124.74,1,John Rodriguez,Edcouch-Elsa,123.01,260.82,176.9,265.35,703.07,Single-ply,SBD,M
Boys,124.74,2,Roy Valdez,Los Fresnos,115.12,283.5,156.49,260.82,700.8,Single-ply,SBD,M
Boys,124.74,3,Juan Gallegos,Rio Hondo,112.04,222.26,147.42,199.58,569.26,Single-ply,SBD,M
Boys,124.74,4,Joe Rodriguez,Los Fresnos,113.67,190.51,111.13,201.85,503.49,Single-ply,SBD,M
Boys,124.74,5,Frank Alvarez,Port Isabel,113.85,179.17,102.06,183.7,464.93,Single-ply,SBD,M
Boys,124.74,6,Ruben Silva,Port Isabel,115.67,158.76,90.72,154.22,403.7,Single-ply,SBD,M
Boys,124.74+,1,Jorge Alvarez,Edcouch-Elsa,126.1,258.55,183.7,219.99,662.24,Single-ply,SBD,M
Boys,124.74+,2,Mark Benavidez,Port Isabel,151.95,285.76,165.56,192.78,644.1,Single-ply,SBD,M
Boys,124.74+,3,Emilio Rivera,Lyford,127.64,249.48,124.74,226.8,601.01,Single-ply,SBD,M
Boys,124.74+,4,Alvin Lofton,Edcouch-Elsa,135.17,240.4,149.69,206.38,596.47,Single-ply,SBD,M
Boys,124.74+,5,Kassper Hernandez,Lyford,129.18,188.24,115.67,181.44,485.34,Single-ply,SBD,M
Boys,124.74+,6,Jose Limon,Los Fresnos,139.43,192.78,83.91,201.85,478.54,Single-ply,SBD,M
Boys,124.74+,7,Adrian Cantu,Rio Grande City Grulla,154.77,276.69,154.22,,430.91,Single-ply,SB,M
Boys,124.74+,8,Abel Cruces,Los Fresnos,127.91,215.46,172.37,,387.82,Single-ply,SB,M
Boys,124.74+,9,Joshua Lopez,Rio Hondo,127.46,174.63,,,174.63,Single-ply,S,M
