Event,Sex,Name,State,BodyweightKg,WeightClassKg,Division,Best3SquatKg,Best3BenchKg,Best3DeadliftKg,TotalKg,Equipment,Place
SBD,M,Kain Lyon,AB,92.7,93,Open,317.5,202.5,300,820,Single-ply,1
SBD,M,Anthony Burden,AB,92.4,93,Open,305,165,260,730,Single-ply,2
SBD,F,Angelina Van Ryswyk,AB,82,84,Open,165,112.5,160,437.5,Single-ply,1
SBD,M,Jordan Kreiser,AB,90.9,93,Juniors,225,127.5,225,577.5,Single-ply,1
SBD,M,Derrick Chuong,AB,83.2,93,Sub-Juniors,197.5,130,227.5,555,Raw,2
SBD,M,Dallas Wipf,AB,91.7,93,Sub-Juniors,212.5,135,265,612.5,Raw,1
SBD,M,Nick Manders,AB,81,83,Sub-Juniors,230,135,272.5,637.5,Raw,1
SBD,M,Justin Ly,AB,81.8,83,Sub-Juniors,175,95,210,480,Raw,3
SBD,M,Josiah Nickel,AB,77,83,Sub-Juniors,150,95,230,475,Raw,4
SBD,M,Carson Schamahorn,AB,82.8,83,Sub-Juniors,185,117.5,230,532.5,Raw,2
SBD,M,Jessie Fisher,AB,69.7,74,Sub-Juniors,132.5,95,162.5,390,Raw,1
SBD,M,Tyler Chalifoux,AB,64.5,66,Sub-Juniors,200,105,185,490,Raw,1
SBD,M,Stanley Guedes,AB,92.7,93,Open,272.5,137.5,305,715,Raw,1
SBD,M,Myles Stetch,AB,86.3,93,Open,205,137.5,217.5,560,Raw,9
SBD,M,Luke McRae,AB,91.5,93,Open,235,170,260,665,Raw,4
SBD,M,Kristers Sauka,AB,92.2,93,Open,255,170,270,695,Raw,2
SBD,M,Khalil Mouallem,AB,90,93,Open,205,157.5,245,607.5,Raw,7
SBD,M,Keto Allen,AB,92.6,93,Open,225,175,262.5,662.5,Raw,5
SBD,M,Jerrett Arndt,AB,87.9,93,Open,220,175,270,665,Raw,3
SBD,M,Jayce Plouffe,AB,89.6,93,Open,237.5,145,255,637.5,Raw,6
SBD,M,Jack Collins,AB,88.9,93,Open,175,145,210,530,Raw,12
SBD,M,Daniel Hoover,AB,87,93,Open,197.5,125,212.5,535,Raw,11
SBD,M,Brian Chuong,AB,83.7,93,Open,222.5,150,212.5,585,Raw,8
SBD,M,Brandon Cote,AB,90.3,93,Open,195,145,220,560,Raw,10
SBD,F,Sara Nestorovich,AB,126.1,84+,Open,115,75,150,340,Raw,6
SBD,F,Kristy Biollo,AB,105,84+,Open,145,75,145,365,Raw,5
SBD,F,Gaïa Willis,AB,97.5,84+,Open,180,72.5,182.5,435,Raw,3
SBD,F,Emilie Belanger,AB,132.7,84+,Open,165,92.5,200.5,458,Raw,1
SBD,F,Alison Ludlow,AB,107.1,84+,Open,147.5,72.5,167.5,387.5,Raw,4
SBD,F,Aileen Bishop,AB,97.5,84+,Open,180,77.5,185,442.5,Raw,2
SBD,F,Tessa Larsen,AB,78.8,84,Open,120,62.5,152.5,335,Raw,3
SBD,F,Krista Petersen,AB,72.8,84,Open,137.5,85,150,372.5,Raw,1
SBD,F,Erin Cooke,AB,83.8,84,Open,130,72.5,142.5,345,Raw,2
SBD,F,Caitlin Gallant,AB,79.4,84,Open,120,55,152.5,327.5,Raw,4
SBD,M,Tyler Wasyluk,AB,82,83,Open,217.5,165,260,642.5,Raw,2
SBD,M,Steve Hayduk,AB,82.9,83,Open,207.5,130,235,572.5,Raw,5
SBD,M,Mike Brennan,AB,77.1,83,Open,205,142.5,255,602.5,Raw,3
SBD,M,Manuel Cadle,AB,77.4,83,Open,230,140,280,650,Raw,1
SBD,M,Joe Baratta,AB,81.2,83,Open,172.5,127.5,200,500,Raw,8
SBD,M,Imran Ahmad,AB,83,83,Open,175,110,212.5,497.5,Raw,9
SBD,M,Grant Watson,AB,82.5,83,Open,187.5,120,212.5,520,Raw,7
SBD,M,Byrin Wylie,AB,80.4,83,Open,192.5,137.5,255,585,Raw,4
SBD,M,Artem Biziaev,AB,78.2,83,Open,170,135,215,520,Raw,6
SBD,M,Aiden Farmer,AB,83,83,Open,167.5,120,200,487.5,Raw,10
SBD,M,Matt Landsman,AB,73.4,74,Open,202.5,117.5,230,550,Raw,2
SBD,M,Kojo Gyennin,AB,72.4,74,Open,242.5,142.5,285,670,Raw,1
SBD,M,Jason Houle,AB,73.5,74,Open,175,110,205,490,Raw,4
SBD,M,Daniel Duran,AB,72,74,Open,190,125,232.5,547.5,Raw,3
SBD,F,Tracy Whatmore,AB,71.6,72,Open,122.5,70,135,327.5,Raw,4
SBD,F,Rosa Trueman,AB,70.2,72,Open,100,65,145,310,Raw,7
SBD,F,Morgan Cahill,AB,71.9,72,Open,140,80,140,360,Raw,2
SBD,F,Katie Sorenson,AB,71.3,72,Open,110,67.5,137.5,315,Raw,6
SBD,F,Domini Zanon,AB,66.7,72,Open,130,75,180,385,Raw,1
SBD,F,Courtney Shaw,AB,71.7,72,Open,117.5,55,120,292.5,Raw,8
SBD,F,Chiara Allen,AB,69.6,72,Open,125,52.5,137.5,315,Raw,5
SBD,F,Alexa Sperske,AB,66,72,Open,135,55,145,335,Raw,3
SBD,M,Benjamin Yu,AB,65.2,66,Open,150,110,165,425,Raw,1
SBD,F,Vanessa Choy,AB,60.1,63,Open,115,67.5,127.5,310,Raw,2
SBD,F,Ryley Kornelsen,AB,62,63,Open,95,60,110,265,Raw,4
SBD,F,Maria Frank,AB,59.8,63,Open,97.5,85,145,327.5,Raw,1
SBD,F,Kenzie Weir,AB,61.1,63,Open,100,70,115,285,Raw,3
SBD,F,Teresa Parsons,AB,55.3,57,Open,147.5,91,182.5,421,Raw,1
SBD,F,Sumalee Salahub,AB,56.1,57,Open,110,60,130,300,Raw,2
SBD,F,Samantha Fung,AB,55.8,57,Open,92.5,47.5,110,250,Raw,6
SBD,F,Rachel Hrudko,AB,55.6,57,Open,87.5,57.5,112.5,257.5,Raw,5
SBD,F,Jessica Sklar,AB,55.9,57,Open,95,62.5,115,272.5,Raw,4
SBD,F,Erin Scott,AB,55.8,57,Open,92.5,55,95,242.5,Raw,7
SBD,F,Ashley McLauchlin,AB,56.8,57,Open,107.5,65,122.5,295,Raw,3
SBD,M,Steve Snell #1,AB,132.5,120+,Open,275,198,287.5,760.5,Raw,2
SBD,M,Nathan Sparks,AB,125.8,120+,Open,252.5,185,275,712.5,Raw,3
SBD,M,Jeff Martens,AB,145.9,120+,Open,262.5,142.5,290,695,Raw,4
SBD,M,Curtis Demelo,AB,148.3,120+,Open,310,165,305,780,Raw,1
SBD,M,Shane Martin,AB,110,120,Open,255,220,265,740,Raw,3
SBD,M,Robby Wang,AB,110.7,120,Open,227.5,132.5,260,620,Raw,5
SBD,M,Jeff Baker,AB,119,120,Open,260,150,275,685,Raw,4
SBD,M,Jason Campbell,AB,116,120,Open,290,165,305,760,Raw,2
SBD,M,Brody Laybolt,AB,119.9,120,Open,277.5,200,305,782.5,Raw,1
SBD,M,Allan Sproule,AB,114.3,120,Open,205,120,240,565,Raw,6
SBD,M,Rory MacIntyre,AB,102.7,105,Open,227.5,145,272.5,645,Raw,6
SBD,M,Nick Gillen,AB,97.3,105,Open,182.5,97.5,232.5,512.5,Raw,11
SBD,M,Mike Crowe,AB,97.1,105,Open,205,160,245,610,Raw,7
SBD,M,Max Gagne,AB,104.6,105,Open,215,170,262.5,647.5,Raw,5
SBD,M,Jesse Silbernagel,AB,96.1,105,Open,195,152.5,252.5,600,Raw,9
SBD,M,Jason Dyck,AB,101.2,105,Open,222.5,165,215,602.5,Raw,8
SBD,M,Ivan Chen,AB,103.7,105,Open,225,155,267.5,647.5,Raw,4
SBD,M,Devin Proulx,AB,94.6,105,Open,245,142.5,280,667.5,Raw,2
SBD,M,Daniel Nikiforuk,AB,95.4,105,Open,237.5,167.5,282.5,687.5,Raw,1
SBD,M,Cameron Kennedy,AB,103.5,105,Open,242.5,157.5,257.5,657.5,Raw,3
SBD,M,Andrew Huynh,AB,104.1,105,Open,220,112.5,262.5,595,Raw,10
SBD,F,Sylvia Gaucher,AB,90.2,84+,Masters 3,97.5,55,130,282.5,Raw,1
SBD,F,Allison Bernard-Mahadeo,AB,60.6,63,Masters 3,90,47.5,115,252.5,Raw,1
SBD,F,Jose Potter,AB,96.5,84+,Masters 2,135,75,155,365,Raw,1
SBD,M,John MacQueen,AB,83,83,Masters 2,145,115,160,420,Raw,1
SBD,M,Leo Miron,AB,71.9,74,Masters 2,110,75,137.5,322.5,Raw,2
SBD,M,Brian Jones,AB,73.2,74,Masters 2,193,105,200,498,Raw,1
SBD,F,Sandy Bellan-Miron,AB,65.8,72,Masters 2,87.5,40,117.5,245,Raw,1
SBD,F,Sandra Drake,AB,60.9,63,Masters 2,82.5,52.5,117.5,252.5,Raw,1
SBD,M,Mark McGowan,AB,101.9,105,Masters 2,182.5,127.5,212.5,522.5,Raw,1
SBD,M,Ryan Thiessen,AB,92.1,93,Masters 1,220,137.5,250,607.5,Raw,1
SBD,M,Kevin Weiss,AB,88.5,93,Masters 1,205,155,235,595,Raw,2
SBD,M,Dave Kimery,AB,89,93,Masters 1,165,107.5,215,487.5,Raw,3
SBD,F,Tess Dehoog,AB,111.7,84+,Masters 1,115,65,165,345,Raw,3
SBD,F,Suzanne Westcott,AB,94.5,84+,Masters 1,130,72.5,142.5,345,Raw,2
SBD,F,Rose Clift,AB,123.1,84+,Masters 1,110,111,147.5,368.5,Raw,1
SBD,F,Nina Leonardis,AB,112,84+,Masters 1,100,57.5,117.5,275,Raw,4
SBD,F,Yvonne Sanche,AB,80.2,84,Masters 1,112.5,70,137.5,320,Raw,3
SBD,F,Sarah Thomsen,AB,76.9,84,Masters 1,105,65,112.5,282.5,Raw,5
SBD,F,Railene Keller,AB,80,84,Masters 1,148,70,147.5,365.5,Raw,2
SBD,F,Kim LaPlante,AB,82,84,Masters 1,152.5,80,205,437.5,Raw,1
SBD,F,Hannah Gray,AB,81.6,84,Masters 1,115,62.5,140,317.5,Raw,4
SBD,M,Lee Reynolds,AB,82.2,83,Masters 1,185,125,212.5,522.5,Raw,1
SBD,F,Renae Witzaney,AB,71.8,72,Masters 1,120,67.5,127.5,315,Raw,1
SBD,F,Cathy McDonald,AB,70.8,72,Masters 1,92.5,42.5,132.5,267.5,Raw,2
SBD,F,Jody McPeak,AB,55.9,57,Masters 1,110.5,60,133,303.5,Raw,1
SBD,M,Tim Nadeau,AB,135.7,120+,Masters 1,230,140,255,625,Raw,1
SBD,M,Christopher Bantle,AB,124.5,120+,Masters 1,225,140,225,590,Raw,2
SBD,M,John Giffen,AB,114.6,120,Masters 1,220,215,227.5,662.5,Raw,1
SBD,M,Joe Reid,AB,115.4,120,Masters 1,205,135,235,575,Raw,2
SBD,M,Ravjot Dhillon,AB,88.3,93,Juniors,187.5,135,215,537.5,Raw,6
SBD,M,Quinton LaBorde,AB,89.7,93,Juniors,247.5,142.5,267.5,657.5,Raw,1
SBD,M,Matt Zukowski,AB,85.9,93,Juniors,180,100,217.5,497.5,Raw,7
SBD,M,Liam Snell,AB,83.6,93,Juniors,205,125,215,545,Raw,4
SBD,M,Leeland Hiebert,AB,88.3,93,Juniors,205,117.5,217.5,540,Raw,5
SBD,M,Bryan van Genne,AB,90.7,93,Juniors,255,145,235,635,Raw,2
SBD,M,Aaron Chan,AB,91.3,93,Juniors,195,132.5,232.5,560,Raw,3
SBD,F,Jasmine Mazouzi,AB,83.8,84,Juniors,137.5,67.5,165,370,Raw,1
SBD,M,Niko Somos,AB,82.3,83,Juniors,215,117.5,250,582.5,Raw,1
SBD,M,David Cao,AB,81.8,83,Juniors,190,130,235,555,Raw,2
SBD,M,Colton Chen,AB,76.8,83,Juniors,185,122.5,205,512.5,Raw,4
SBD,M,Albert Liu,AB,80.8,83,Juniors,185,122.5,220,527.5,Raw,3
SBD,M,Nicolas L'Amarca,AB,72.2,74,Juniors,170,135,190,495,Raw,4
SBD,M,Jordan Hoang,AB,68.9,74,Juniors,182.5,120,202.5,505,Raw,3
SBD,M,Jon Kung,AB,73.4,74,Juniors,175,105,200,480,Raw,5
SBD,M,Eric Wu,AB,71.3,74,Juniors,160,102.5,200,462.5,Raw,7
SBD,M,Brock Pearson,AB,70.3,74,Juniors,165,110,190,465,Raw,6
SBD,M,Badi Haghighi,AB,74,74,Juniors,210,137.5,230,577.5,Raw,1
SBD,M,Alexander Scory,AB,72.3,74,Juniors,190,130,222.5,542.5,Raw,2
SBD,F,Ly Nguyen,AB,70.1,72,Juniors,115,50,142.5,307.5,Raw,3
SBD,F,Kamille Lim,AB,71.7,72,Juniors,125,57.5,140,322.5,Raw,2
SBD,F,Essie Watt,AB,69.4,72,Juniors,95,65,115,275,Raw,5
SBD,F,Abby Hall,AB,65.7,72,Juniors,137.5,88,152.5,378,Raw,1
SBD,F,Abby Fenton,AB,65.1,72,Juniors,100,57.5,145,302.5,Raw,4
SBD,M,Irwin Tang,AB,63,66,Juniors,162.5,95,175,432.5,Raw,3
SBD,M,Arnold Vendiola,AB,63.8,66,Juniors,177.5,92.5,215,485,Raw,1
SBD,M,Alan Chung,AB,64,66,Juniors,160,95,200,455,Raw,2
SBD,F,Tanner Unger,AB,61.3,63,Juniors,110,70,125,305,Raw,1
SBD,F,Meghan Law,AB,60.2,63,Juniors,115,57.5,127.5,300,Raw,2
SBD,M,Chan Woo Youn,AB,58.1,59,Juniors,142.5,100,167.5,410,Raw,1
SBD,F,Skylar Yanke,AB,54.7,57,Juniors,100,70,120,290,Raw,2
SBD,F,Rachel Boyle,AB,54.4,57,Juniors,115,60,137.5,312.5,Raw,1
SBD,F,Natasha Anderson,AB,55.6,57,Juniors,107.5,52.5,112.5,272.5,Raw,3
SBD,F,Rylea Yanke,AB,46.3,47,Juniors,72.5,62.5,97.5,232.5,Raw,1
SBD,F,Danielle Nim,AB,42.4,43,Juniors,62.5,42.5,110,215,Raw,2
SBD,M,Matthew Bannister,AB,115.6,120,Juniors,247.5,157.5,270,675,Raw,3
SBD,M,Johnnel Naron,AB,113.1,120,Juniors,262.5,167.5,260,690,Raw,2
SBD,M,Anton Zmushka,AB,116.1,120,Juniors,247.5,172.5,277.5,697.5,Raw,1
SBD,M,Anthony Sinjeris,AB,118.2,120,Juniors,255,147.5,260,662.5,Raw,4
SBD,M,Zachary Chwok,AB,99.7,105,Juniors,265,170,270,705,Raw,1
SBD,M,Kevin Vuong,AB,102.3,105,Juniors,172.5,120,217.5,510,Raw,3
SBD,M,Ismaeel El-hakim,AB,101.2,105,Juniors,180,142.5,205,527.5,Raw,2
SBD,M,Ben Kovacs #1,AB,99,105,Juniors,180,97.5,202.5,480,Raw,4
B,F,Maria Frank,AB,59.4,63,Open,,100,,100,Single-ply,1
B,M,Matt Parry,AB,118.9,120,Open,,182.5,,182.5,Single-ply,1
B,M,Kris Hynes,AB,102.1,105,Open,,165,,165,Single-ply,1
B,M,Lee Reynolds,AB,81.9,83,Masters 1,,150,,150,Single-ply,1
B,M,Anton Zmushka,AB,115.2,120,Juniors,,202.5,,202.5,Single-ply,1
B,M,Jerrett Arndt,AB,87.6,93,Open,,170,,170,Raw,1
B,M,Jack Collins,AB,88.7,93,Open,,142.5,,142.5,Raw,2
B,M,Darcy Wurban,AB,90.6,93,Open,,137.5,,137.5,Raw,3
B,F,Dana Sandler,AB,82.3,84,Open,,90,,90,Raw,2
B,F,Angelina Van Ryswyk,AB,81.8,84,Open,,90,,90,Raw,1
B,F,Desiree Barr,AB,50.7,52,Open,,47.5,,47.5,Raw,1
B,M,Ben Kozyra,AB,102,105,Open,,190,,190,Raw,1
B,M,Rick Belland,AB,80.1,83,Masters 3,,132.5,,132.5,Raw,1
B,F,Jeannie Jamison,AB,70.6,72,Masters 2,,50,,50,Raw,1
B,M,Eric Gagne,AB,128.3,120+,Masters 2,,170,,170,Raw,1
B,F,Rose Clift,AB,122.8,84+,Masters 1,,110.5,,110.5,Raw,1
B,M,Ryan Lawley,AB,73.9,74,Masters 1,,105,,105,Raw,1
B,F,Deb Ellard,AB,61.9,63,Masters 1,,68,,68,Raw,1
B,F,Krystin Paquette,AB,62.9,63,Juniors,,70,,70,Raw,1
B,F,Skylar Yanke,AB,55.4,57,Juniors,,65,,65,Raw,1
