Division,WeightClassKg,Place,Name,Team,BodyweightKg,Best3SquatKg,Best3BenchKg,Best3DeadliftKg,TotalKg,Equipment,Event,Sex,BirthDate
Boys,51.71,1,Cy Sledge,Henderson,51.44,113.4,79.38,115.67,308.44,Single-ply,SBD,M,
Boys,51.71,2,Juan Ordorica,Winona,51.71,113.4,63.5,113.4,290.3,Single-ply,SBD,M,
Boys,51.71,3,Eric White,Lindale,47.72,72.57,43.09,92.99,208.65,Single-ply,SBD,M,
Boys,51.71,4,Kolby Lynn,Rusk,49.08,63.5,29.48,79.38,172.37,Single-ply,SBD,M,
Boys,51.71,DQ,Johnathan Ortega,Winona,46.54,,,,,Single-ply,SBD,M,
Boys,55.79,1,Luis Ortega,Winona,55.79,147.42,72.57,149.69,369.68,Single-ply,SBD,M,
Boys,55.79,2,Charlie Sawyer,Frankston,55.61,124.74,79.38,138.35,342.46,Single-ply,SBD,M,
Boys,55.79,3,Kyler Snell,Grapeland,55.16,129.27,81.65,124.74,335.66,Single-ply,SBD,M,
Boys,55.79,4,Vicente Ordorica,Winona,55.25,113.4,79.38,120.2,312.98,Single-ply,SBD,M,
Boys,55.79,5,Trent Byers,Rusk,55.79,117.93,65.77,124.74,308.44,Single-ply,SBD,M,
Boys,55.79,DQ,Randall Phillips,Hawkins,55.16,102.06,65.77,,,Single-ply,SBD,M,
Boys,59.87,1,Samuel Shankles,Longview Spring Hill,59.69,158.76,102.06,158.76,419.57,Single-ply,SBD,M,
Boys,59.87,2,John Paul Johnsen,Garrison,56.88,120.2,83.91,138.35,342.46,Single-ply,SBD,M,
Boys,59.87,3,Rafael Chavez,Winona,59.87,122.47,81.65,129.27,333.39,Single-ply,SBD,M,
Boys,59.87,4,Logan Huerta,Lindale,56.34,99.79,68.04,113.4,281.23,Single-ply,SBD,M,
Boys,67.13,1,Jalin Hines,Lindale,63.68,167.83,95.25,185.97,449.06,Single-ply,SBD,M,
Boys,67.13,2,Alan Rojo,Rusk,66.59,176.9,102.06,172.37,451.32,Single-ply,SBD,M,
Boys,67.13,3,Hayden Dyess,Rusk,65.86,165.56,83.91,170.1,419.57,Single-ply,SBD,M,
Boys,67.13,4,Hunter Harkins,Henderson,66.04,154.22,97.52,158.76,410.5,Single-ply,SBD,M,
Boys,67.13,5,Cj Kimble,Winona,67.13,149.69,79.38,151.95,381.02,Single-ply,SBD,M,
Boys,67.13,6,Oscar Castanos,Longview Spring Hill,64.5,133.81,79.38,151.95,365.14,Single-ply,SBD,M,
Boys,67.13,7,Anthony Rodriguez,Winona,62.41,120.2,79.38,120.2,319.78,Single-ply,SBD,M,
Boys,67.13,DQ,Jordan Pullum,Winona,64.68,,,,,Single-ply,SBD,M,
Boys,74.84,1,Carson Levee,Winona,72.85,219.99,117.93,197.31,535.24,Single-ply,SBD,M,
Boys,74.84,2,Cole Seider,Henderson,72.94,185.97,138.35,192.78,517.1,Single-ply,SBD,M,
Boys,74.84,3,Elijah Bergin,Winona,72.39,199.58,92.99,204.12,496.68,Single-ply,SBD,M,
Boys,74.84,4,Josh Mata,Henderson,74.3,188.24,122.47,183.7,494.42,Single-ply,SBD,M,
Boys,74.84,5,Abraham Rosales,Rusk,72.94,172.37,113.4,174.63,460.4,Single-ply,SBD,M,
Boys,74.84,6,Miles Miller,Lindale,74.57,170.1,117.93,165.56,453.59,Single-ply,SBD,M,
Boys,74.84,7,Julius Hawkins,Longview Spring Hill,70.49,161.03,95.25,185.97,442.25,Single-ply,SBD,M,
Boys,74.84,8,Brandt Weisinger,Longview Spring Hill,73.84,165.56,92.99,183.7,442.25,Single-ply,SBD,M,
Boys,74.84,9,Lurbryson Ross,Winona,71.3,158.76,102.06,149.69,410.5,Single-ply,SBD,M,
Boys,74.84,10,Gage White,Longview Spring Hill,70.49,145.15,74.84,167.83,387.82,Single-ply,SBD,M,
Boys,74.84,11,Kyle Hooper,Rusk,70.94,142.88,86.18,142.88,371.95,Single-ply,SBD,M,
Boys,74.84,12,Abraham Flores,Rusk,72.03,102.06,56.7,127.01,285.76,Single-ply,SBD,M,
Boys,82.1,1,Michael Littles,Winona,80.74,195.04,111.13,206.38,512.56,Single-ply,SBD,M,
Boys,82.1,2,Jonathon Peery,Laird Hill Leveretts Chapel,78.2,170.1,120.2,192.78,483.08,Single-ply,SBD,M,
Boys,82.1,3,John Kwak,Rusk,81.92,181.44,115.67,181.44,478.54,Single-ply,SBD,M,
Boys,82.1,4,Nick Rea,Grapeland,80.01,188.24,86.18,188.24,462.66,Single-ply,SBD,M,
Boys,82.1,5,Alex Alvarez,Rusk,79.74,170.1,97.52,181.44,449.06,Single-ply,SBD,M,
Boys,82.1,6,Pedro Alonzo,Rusk,78.02,156.49,97.52,158.76,412.77,Single-ply,SBD,M,
Boys,82.1,DQ,Jayden Nelson,Winona,80.83,,,,,Single-ply,SBD,M,
Boys,89.81,1,Esteban Munoz,Winona,89.81,249.48,147.42,217.72,614.62,Single-ply,SBD,M,
Boys,89.81,2,DeJay Huggins,Hallsville,89.81,238.14,124.74,199.58,562.45,Single-ply,SBD,M,
Boys,89.81,3,Demarquay Ford,Winona,89.63,199.58,133.81,204.12,537.51,Single-ply,SBD,M,
Boys,89.81,4,Joshua Arredondo,Rusk,87.09,210.92,133.81,181.44,526.17,Single-ply,SBD,M,
Boys,89.81,5,Cason Watts,Lindale,83.73,181.44,124.74,199.58,505.76,Single-ply,SBD,M,
Boys,89.81,6,Adam Lindgren,Garrison,82.28,190.51,113.4,170.1,474,Single-ply,SBD,M,
Boys,89.81,7,Joe Herrera,Henderson,88.54,156.49,115.67,167.83,439.98,Single-ply,SBD,M,
Boys,89.81,8,Gian Victoria,Longview Spring Hill,82.55,163.29,81.65,170.1,415.04,Single-ply,SBD,M,
Boys,89.81,DQ,Cameron Hicks,Lindale,88.09,,,,,Single-ply,SBD,M,
Boys,99.79,1,Victor Fernandez,Kilgore,95.25,249.48,138.35,235.87,623.69,Single-ply,SBD,M,
Boys,99.79,2,Luke Short,Petrolia,96.34,199.58,158.76,204.12,562.45,Single-ply,SBD,M,
Boys,99.79,3,Brooks Hill,Longview Spring Hill,90.9,213.19,122.47,215.46,551.11,Single-ply,SBD,M,
Boys,99.79,4,Drew Ragland,Lindale,91.35,210.92,131.54,204.12,546.58,Single-ply,SBD,M,
Boys,99.79,5,Kaden McFaul,Longview Spring Hill,92.9,208.65,104.33,195.04,508.02,Single-ply,SBD,M,
Boys,99.79,6,Sean Voyles,Lindale,93.44,181.44,117.93,195.04,494.42,Single-ply,SBD,M,
Boys,99.79,7,Josh Self,Overton,98.25,133.81,97.52,170.1,401.43,Single-ply,SBD,M,
Boys,99.79,8,Nathan Dyer,Kilgore,97.79,102.06,77.11,124.74,303.91,Single-ply,SBD,M,
Boys,99.79,9,Cason Weatherton,Henderson,92.35,47.63,117.93,81.65,247.21,Single-ply,SBD,M,
Boys,109.77,1,Eujayvion McAlister,Henderson,109.04,317.51,197.31,272.16,786.98,Single-ply,SBD,M,
Boys,109.77,2,Dillon Moralez,Hallsville,103.87,224.53,133.81,210.92,569.26,Single-ply,SBD,M,
Boys,109.77,3,Cory Watts,Lindale,100.88,199.58,156.49,195.04,551.11,Single-ply,SBD,M,
Boys,109.77,4,Devin Whitworth,Petrolia,103.96,201.85,115.67,192.78,510.29,Single-ply,SBD,M,
Boys,109.77,5,Ethan Heller,Lindale,100.52,192.78,131.54,170.1,494.42,Single-ply,SBD,M,
Boys,109.77,6,Cameron Johnson,Hawkins,104.6,188.24,136.08,151.95,476.27,Single-ply,SBD,M,
Boys,109.77,7,Ethan Whyte,Longview Spring Hill,104.51,195.04,97.52,174.63,467.2,Single-ply,SBD,M,
Boys,109.77,8,Connor King,Kilgore,104.42,142.88,108.86,174.63,426.38,Single-ply,SBD,M,
Boys,109.77,9,Trey Rozell,Lindale,108.77,156.49,86.18,158.76,401.43,Single-ply,SBD,M,
Boys,109.77,10,Cole Williams,Lindale,103.78,113.4,86.18,151.95,351.53,Single-ply,SBD,M,
Boys,109.77,11,Matthew Prater,Longview Spring Hill,107.68,115.67,61.23,124.74,301.64,Single-ply,SBD,M,
Boys,109.77,DQ,Alec Vickers,Laird Hill Leveretts Chapel,106.87,,,,,Single-ply,SBD,M,
Boys,124.74,1,De'Braylon McDonald,Overton,120.11,240.4,136.08,263.08,639.57,Single-ply,SBD,M,
Boys,124.74,2,Jake Seal,Hallsville,123.38,242.67,136.08,210.92,589.67,Single-ply,SBD,M,
Boys,124.74,3,Micha Givens,Rusk,115.58,208.65,122.47,181.44,512.56,Single-ply,SBD,M,
Boys,124.74,4,Jabrahlyn Jones,Garrison,124.65,183.7,111.13,201.85,496.68,Single-ply,SBD,M,
Boys,124.74,5,Chris Andrade,Overton,121.11,147.42,74.84,154.22,376.48,Single-ply,SBD,M,
Boys,124.74,DQ,Leo Ortega,Rusk,121.93,192.78,,,,Single-ply,SBD,M,
Boys,139.71,1,Joe Richard,Lindale,129.91,226.8,133.81,226.8,587.4,Single-ply,SBD,M,
Boys,139.71,2,Kadarius Roberson,Hawkins,129.27,204.12,142.88,206.38,553.38,Single-ply,SBD,M,
Boys,139.71,3,Brandon Pettway,Lindale,136.17,199.58,115.67,199.58,514.83,Single-ply,SBD,M,
Boys,139.71,4,Stephen Long,Frankston,127.28,158.76,106.59,165.56,430.91,Single-ply,SBD,M,
Boys,139.71+,1,Kadden Williams,Overton,170.64,272.16,154.22,226.8,653.17,Single-ply,SBD,M,
Boys,139.71+,2,Braden Brawner,Rusk,148.78,219.99,122.47,174.63,517.1,Single-ply,SBD,M,
Boys,139.71+,3,Justin Ellington,Grapeland,149.78,190.51,88.45,188.24,467.2,Single-ply,SBD,M,
Boys,139.71+,DQ,Fernando Rodriguez,Winona,159.3,,,,,Single-ply,SBD,M,
