Division,WeightClassKg,Place,Name,Team,BodyweightKg,Best3SquatKg,Best3BenchKg,Best3DeadliftKg,TotalKg,Equipment,Event,Sex,BirthDate
Boys,51.71,1,Ashton Dunklin,Llano,49.99,106.59,56.7,120.2,283.5,Single-ply,SBD,M,
Boys,51.71,2,Adam Perez,De Leon,50.98,92.99,61.23,122.47,276.69,Single-ply,SBD,M,
Boys,51.71,3,Brady Clinton,Ballinger,51.71,92.99,72.57,106.59,272.16,Single-ply,SBD,M,
Boys,51.71,4,Kalan Caldwell,Rogers,39.92,65.77,43.09,81.65,190.51,Single-ply,SBD,M,
Boys,51.71,DQ,Aiden Baker,Hamilton,51.71,,,,,Single-ply,SBD,M,
Boys,55.79,1,Darson Daniel,Rogers,55.11,136.08,92.99,142.88,371.95,Single-ply,SBD,M,
Boys,55.79,2,Brian Fekri,Brady,55.52,124.74,70.31,124.74,319.78,Single-ply,SBD,M,
Boys,55.79,3,Rj Coplin,Llano,55.79,113.4,61.23,129.27,303.91,Single-ply,SBD,M,
Boys,55.79,4,Lander Callison,De Leon,55.79,111.13,61.23,,172.37,Single-ply,SB,M,
Boys,55.79,DQ,Raiden Spruill,Hico,55.79,,,,,Single-ply,SBD,M,
Boys,55.79,DQ,Cooper Schiller,Rogers,53.07,147.42,70.31,,,Single-ply,SBD,M,
Boys,59.87,1,Mario Pena,De Leon,58.33,165.56,99.79,158.76,424.11,Single-ply,SBD,M,
Boys,59.87,2,Cooper McWilliams,Llano,59.24,138.35,95.25,149.69,383.29,Single-ply,SBD,M,
Boys,59.87,3,Jayden Crouch,Hico,59.87,140.61,79.38,142.88,362.87,Single-ply,SBD,M,
Boys,59.87,4,Adam Spharler,Dublin,59.51,129.27,81.65,147.42,358.34,Single-ply,SBD,M,
Boys,59.87,5,Alvaro Sanchez,De Leon,58.33,138.35,77.11,140.61,356.07,Single-ply,SBD,M,
Boys,59.87,6,Axel Rangel,Comanche,57.42,136.08,70.31,145.15,351.53,Single-ply,SBD,M,
Boys,59.87,7,Lewis Northridge,Comanche,59.06,129.27,83.91,136.08,349.27,Single-ply,SBD,M,
Boys,59.87,8,Titus Latrell,Stephenville,57.15,117.93,72.57,136.08,326.59,Single-ply,SBD,M,
Boys,59.87,DQ,Jayden Gerstenberge,Bangs,57.88,,,,,Single-ply,SBD,M,
Boys,67.13,1,Ben Bruce,Hamilton,67.13,165.56,97.52,188.24,451.32,Single-ply,SBD,M,
Boys,67.13,2,Elijah Gonzales,Dublin,66.68,174.63,95.25,172.37,442.25,Single-ply,SBD,M,
Boys,67.13,3,Cosme Gonzalez,Comanche,67.13,170.1,97.52,165.56,433.18,Single-ply,SBD,M,
Boys,67.13,4,Logan Stein,Tolar,65.05,158.76,111.13,156.49,426.38,Single-ply,SBD,M,
Boys,67.13,5,Price Mullin,Hico,66.95,142.88,90.72,167.83,401.43,Single-ply,SBD,M,
Boys,67.13,6,Wesley Whitaker,Llano,66.59,149.69,92.99,147.42,390.09,Single-ply,SBD,M,
Boys,67.13,7,Dakota Higgins,Rising Star,66.95,140.61,83.91,161.03,385.55,Single-ply,SBD,M,
Boys,67.13,8,Layden Nichols,Jonesboro,65.68,140.61,74.84,154.22,369.68,Single-ply,SBD,M,
Boys,67.13,9,Sergio Reyna,Rogers,61.6,142.88,77.11,142.88,362.87,Single-ply,SBD,M,
Boys,67.13,10,Jaime Alegria,De Leon,62.14,136.08,70.31,156.49,362.87,Single-ply,SBD,M,
Boys,67.13,11,Gage Arms,Llano,66.86,111.13,83.91,158.76,353.8,Single-ply,SBD,M,
Boys,67.13,12,Jason Rainbolt,Hamilton,61.96,124.74,65.77,147.42,337.93,Single-ply,SBD,M,
Boys,67.13,13,Judson Wells,Stephenville,61.78,122.47,77.11,131.54,331.12,Single-ply,SBD,M,
Boys,67.13,14,Brayden Ackers,Godley,65.05,95.25,65.77,156.49,317.51,Single-ply,SBD,M,
Boys,67.13,15,Luke Stephenson,Jonesboro,67.13,113.4,65.77,129.27,308.44,Single-ply,SBD,M,
Boys,67.13,16,Denton Machuga,Llano,67.13,102.06,68.04,113.4,283.5,Single-ply,SBD,M,
Boys,67.13,DQ,Devean Greaves,Bangs,67.13,,,,,Single-ply,SBD,M,
Boys,67.13,DQ,Ryan Dickey,Bangs,67.13,,,,,Single-ply,SBD,M,
Boys,74.84,1,Caleb Vandygrift,Godley,70.94,176.9,129.27,192.78,498.95,Single-ply,SBD,M,
Boys,74.84,2,Alan Garza,Comanche,74.3,185.97,115.67,192.78,494.42,Single-ply,SBD,M,
Boys,74.84,3,Easton Gonzalez,Comanche,73.12,183.7,113.4,188.24,485.34,Single-ply,SBD,M,
Boys,74.84,4,Bryan Thuy,Rogers,71.21,188.24,99.79,190.51,478.54,Single-ply,SBD,M,
Boys,74.84,5,Alex Thiele,Hamilton,74.84,176.9,92.99,192.78,462.66,Single-ply,SBD,M,
Boys,74.84,6,Aaron Anzua,Goldthwaite,71.67,151.95,117.93,181.44,451.32,Single-ply,SBD,M,
Boys,74.84,7,Lane Spencer,De Leon,73.21,172.37,102.06,176.9,451.32,Single-ply,SBD,M,
Boys,74.84,8,Ricky De La Torre,Llano,72.76,163.29,95.25,172.37,430.91,Single-ply,SBD,M,
Boys,74.84,9,Jesse Chandler,Hico,74.48,154.22,97.52,165.56,417.3,Single-ply,SBD,M,
Boys,74.84,10,Jovani Cervantes,Dublin,74.84,163.29,72.57,179.17,415.04,Single-ply,SBD,M,
Boys,74.84,11,Ty McClure,Tolar,71.76,151.95,88.45,170.1,410.5,Single-ply,SBD,M,
Boys,74.84,12,Triston Flinn,Hico,67.81,147.42,88.45,154.22,390.09,Single-ply,SBD,M,
Boys,74.84,13,Kyler Shelton,Goldthwaite,71.67,120.2,86.18,136.08,342.46,Single-ply,SBD,M,
Boys,74.84,14,Logan Van Pelt,Llano,73.75,124.74,72.57,142.88,340.19,Single-ply,SBD,M,
Boys,74.84,15,Mathias Ustergaard,Goldthwaite,73.48,106.59,90.72,136.08,333.39,Single-ply,SBD,M,
Boys,74.84,16,Juan Saucedo,Dublin,68.31,117.93,61.23,136.08,315.25,Single-ply,SBD,M,
Boys,74.84,17,Javin Henson,Valley Mills,74.48,122.47,70.31,113.4,306.17,Single-ply,SBD,M,
Boys,74.84,18,Hunter Crowell,Bangs,72.39,115.67,70.31,111.13,297.1,Single-ply,SBD,M,
Boys,74.84,19,Kason Bunkley,Hico,69.49,142.88,79.38,,222.26,Single-ply,SB,M,
Boys,74.84,DQ,Izzac Wood,Hamilton,74.84,,,,,Single-ply,SBD,M,
Boys,74.84,DQ,Conner Gray,Ballinger,67.95,129.27,,,,Single-ply,SBD,M,
Boys,82.1,1,Ruben Reyes,Stephenville,81.74,217.72,142.88,249.48,610.08,Single-ply,SBD,M,
Boys,82.1,2,Cade Bauman,Comanche,76.48,201.85,129.27,199.58,530.7,Single-ply,SBD,M,
Boys,82.1,3,Justin Stephens,Stephenville,80.2,185.97,117.93,197.31,501.22,Single-ply,SBD,M,
Boys,82.1,4,Ruben McPherson,Stephenville,78.74,174.63,120.2,199.58,494.42,Single-ply,SBD,M,
Boys,82.1,5,Miguel Hernandez,Llano,80.92,192.78,104.33,197.31,494.42,Single-ply,SBD,M,
Boys,82.1,6,Jake Pack,Stephenville,77.29,181.44,115.67,154.22,451.32,Single-ply,SBD,M,
Boys,82.1,7,Miguel Gonzales,Hamilton,81.01,172.37,92.99,170.1,435.45,Single-ply,SBD,M,
Boys,82.1,8,Eric Tatum,Rogers,79.29,170.1,83.91,172.37,426.38,Single-ply,SBD,M,
Boys,82.1,9,Austin Massingill,Jonesboro,78.65,163.29,83.91,172.37,419.57,Single-ply,SBD,M,
Boys,82.1,10,Michael Guinn,Hico,75.57,136.08,81.65,158.76,376.48,Single-ply,SBD,M,
Boys,82.1,11,Kyle Wright,Valley Mills,77.29,131.54,86.18,156.49,374.21,Single-ply,SBD,M,
Boys,82.1,12,Brayden Cook,Rising Star,75.57,129.27,95.25,138.35,362.87,Single-ply,SBD,M,
Boys,82.1,13,Adrean Martinez,Goldthwaite,77.84,102.06,81.65,147.42,331.12,Single-ply,SBD,M,
Boys,82.1,14,Max Getner,Hico,80.01,102.06,65.77,122.47,290.3,Single-ply,SBD,M,
Boys,82.1,DQ,Tate Riley,Ballinger,75.21,,,,,Single-ply,SBD,M,
Boys,89.81,1,John McClure,Tolar,84.1,208.65,156.49,192.78,557.92,Single-ply,SBD,M,
Boys,89.81,2,Jasen Stephens,Tolar,89.36,204.12,138.35,195.04,537.51,Single-ply,SBD,M,
Boys,89.81,3,Jd Ibarra,Brady,88.36,188.24,133.81,204.12,526.17,Single-ply,SBD,M,
Boys,89.81,4,Mitchel Hopper,Goldthwaite,86,174.63,120.2,199.58,494.42,Single-ply,SBD,M,
Boys,89.81,5,Johnathan Wheeler,Ballinger,85,195.04,104.33,192.78,492.15,Single-ply,SBD,M,
Boys,89.81,6,Sam Stewart,Tolar,89.45,181.44,104.33,181.44,467.2,Single-ply,SBD,M,
Boys,89.81,7,Aiden Knight,Ballinger,83.82,167.83,113.4,183.7,464.93,Single-ply,SBD,M,
Boys,89.81,8,Darby Craig,Hamilton,89.45,165.56,90.72,183.7,439.98,Single-ply,SBD,M,
Boys,89.81,9,Caleb Christel,Jonesboro,83.64,142.88,88.45,174.63,405.97,Single-ply,SBD,M,
Boys,89.81,10,Xorian Herbert,Godley,87.36,165.56,81.65,156.49,403.7,Single-ply,SBD,M,
Boys,89.81,11,Lincoln Moore,Hico,85.28,142.88,108.86,147.42,399.16,Single-ply,SBD,M,
Boys,89.81,12,Michael Logan,Llano,88.18,136.08,102.06,138.35,376.48,Single-ply,SBD,M,
Boys,89.81,13,Jaydyn Gonzales,Dublin,87.36,136.08,90.72,136.08,362.87,Single-ply,SBD,M,
Boys,89.81,14,Abel Luna,Ballinger,82.37,124.74,90.72,136.08,351.53,Single-ply,SBD,M,
Boys,89.81,DQ,Jona Powell,Bangs,89.36,,,,,Single-ply,SBD,M,
Boys,89.81,DQ,Alex Duran,Godley,83.64,161.03,106.59,,,Single-ply,SBD,M,
Boys,89.81,DQ,Colton Tuggle,Tolar,89.81,,,,,Single-ply,SBD,M,
Boys,89.81,DQ,Jackson Clark,Valley Mills,88.9,,,,,Single-ply,SBD,M,
Boys,99.79,1,Mason Davis,Rogers,97.16,254.01,158.76,272.16,684.92,Single-ply,SBD,M,
Boys,99.79,2,Dom Rios,Comanche,98.52,229.06,136.08,231.33,596.47,Single-ply,SBD,M,
Boys,99.79,3,Taylor Bennett,Stephenville,92.99,217.72,127.01,238.14,582.87,Single-ply,SBD,M,
Boys,99.79,4,Jaime Reyna,Rogers,99.43,229.06,136.08,213.19,578.33,Single-ply,SBD,M,
Boys,99.79,5,Mason Berry,Tolar,94.71,192.78,120.2,208.65,521.63,Single-ply,SBD,M,
Boys,99.79,6,Christian Teichelman,Valley Mills,96.89,222.26,111.13,188.24,521.63,Single-ply,SBD,M,
Boys,99.79,7,Terrell Haney,Ballinger,91.63,147.42,102.06,188.24,437.72,Single-ply,SBD,M,
Boys,99.79,8,Frank Machuga,Llano,95.16,161.03,102.06,167.83,430.91,Single-ply,SBD,M,
Boys,99.79,9,Richie Morales,Hico,96.43,161.03,92.99,165.56,419.57,Single-ply,SBD,M,
Boys,109.77,1,Jose Najera,Hamilton,109.77,272.16,158.76,217.72,648.64,Single-ply,SBD,M,
Boys,109.77,2,Dakota Webb,Tolar,106.41,231.33,131.54,204.12,566.99,Single-ply,SBD,M,
Boys,109.77,3,Braden Coan,Tolar,109.77,226.8,127.01,190.51,544.31,Single-ply,SBD,M,
Boys,109.77,4,Zane Gillaspia,Brady,103.96,204.12,120.2,215.46,539.77,Single-ply,SBD,M,
Boys,109.77,5,Carson Marquess,Hamilton,105.96,204.12,106.59,226.8,537.51,Single-ply,SBD,M,
Boys,109.77,6,Ron Ramirez,Hamilton,105.69,226.8,113.4,192.78,532.97,Single-ply,SBD,M,
Boys,109.77,7,Diego Munoz,Comanche,105.51,195.04,151.95,174.63,521.63,Single-ply,SBD,M,
Boys,109.77,8,Wes Griffin,Hamilton,108.95,176.9,136.08,190.51,503.49,Single-ply,SBD,M,
Boys,109.77,9,Reegan Brister,Hico,104.69,210.92,124.74,165.56,501.22,Single-ply,SBD,M,
Boys,109.77,10,Hayden Martin,Stephenville,103.15,195.04,111.13,167.83,474,Single-ply,SBD,M,
Boys,109.77,11,Owen Tyson,Hamilton,105.96,174.63,115.67,158.76,449.06,Single-ply,SBD,M,
Boys,109.77,12,Logan Sherrard,De Leon,108.95,147.42,83.91,172.37,403.7,Single-ply,SBD,M,
Boys,109.77,13,Adrian Tepetate,De Leon,103.51,147.42,88.45,154.22,390.09,Single-ply,SBD,M,
Boys,109.77,DQ,Rylie Garcia,Bangs,109.77,,,,,Single-ply,SBD,M,
Boys,109.77,DQ,Camden Howard,Godley,105.51,165.56,,,,Single-ply,SBD,M,
Boys,109.77,DQ,Rafay Ravjani,Stephenville,109.77,,,,,Single-ply,SBD,M,
Boys,109.77,DQ,Paiton Brister,Jonesboro,109.77,,,,,Single-ply,SBD,M,
Boys,124.74,1,Mosiah Lolohea,Dublin,114.76,226.8,158.76,235.87,621.42,Single-ply,SBD,M,
Boys,124.74,2,Rj Dolgener,Rogers,114.4,238.14,145.15,231.33,614.62,Single-ply,SBD,M,
Boys,124.74,3,Mason Butchee,Stephenville,116.21,217.72,174.63,213.19,605.55,Single-ply,SBD,M,
Boys,124.74,4,Salvador Anaya,Comanche,110.68,206.38,111.13,201.85,519.36,Single-ply,SBD,M,
Boys,124.74,5,Nic Adams,Hamilton,114.85,206.38,97.52,192.78,496.68,Single-ply,SBD,M,
Boys,124.74,6,Nestor Solis,Rogers,117.93,204.12,108.86,183.7,496.68,Single-ply,SBD,M,
Boys,124.74,7,Justin Clack,Stephenville,112.58,181.44,124.74,183.7,489.88,Single-ply,SBD,M,
Boys,124.74,8,Ernest Escobar,Ballinger,110.5,172.37,102.06,183.7,458.13,Single-ply,SBD,M,
Boys,124.74,9,Tyler Tucker,Stephenville,116.66,281.23,154.22,,435.45,Single-ply,SB,M,
Boys,124.74,10,Branen Green,Llano,119.11,167.83,92.99,165.56,426.38,Single-ply,SBD,M,
Boys,124.74,11,Wyatt Evans,Hico,111.95,113.4,61.23,147.42,322.05,Single-ply,SBD,M,
Boys,124.74,DQ,Brody Newton,Bangs,124.28,163.29,111.13,,,Single-ply,SBD,M,
Boys,124.74,DQ,Ruben Silva,De Leon,124.74,,,,,Single-ply,SBD,M,
Boys,139.71,1,Joe Leal,De Leon,125.19,213.19,151.95,217.72,582.87,Single-ply,SBD,M,
Boys,139.71,2,Adam McCoy,Goldthwaite,135.81,204.12,142.88,204.12,551.11,Single-ply,SBD,M,
Boys,139.71,3,Ben Wilson,Hico,125.74,217.72,120.2,197.31,535.24,Single-ply,SBD,M,
Boys,139.71,4,Eddy Hernandez,Dublin,139.25,179.17,120.2,181.44,480.81,Single-ply,SBD,M,
Boys,139.71,DQ,Noah Pin,Bangs,136.62,,,,,Single-ply,SBD,M,
Boys,139.71+,1,Logan Davis,Stephenville,152.59,219.99,154.22,276.69,650.91,Single-ply,SBD,M,
Boys,139.71+,2,Michael Jenkins,Rogers,148.32,201.85,102.06,197.31,501.22,Single-ply,SBD,M,
