Division,WeightClassKg,Place,Name,Team,BodyweightKg,Best3SquatKg,Best3BenchKg,Best3DeadliftKg,TotalKg,Equipment,Event,Sex
Boys,51.71,1,Noah Perez,Abilene,49.17,90.72,52.16,106.59,249.48,Single-ply,SBD,M
Boys,51.71,2,Caleb Chacon,Merkel,50.89,86.18,56.7,92.99,235.87,Single-ply,SBD,M
Boys,51.71,3,Jayton Pimentel,Clyde,49.71,77.11,54.43,92.99,224.53,Single-ply,SBD,M
Boys,51.71,4,Christian Martin,Abilene Cooper,49.85,90.72,34.02,90.72,215.46,Single-ply,SBD,M
Boys,51.71,5,Jason Webster,Abilene Cooper,48.08,61.23,43.09,83.91,188.24,Single-ply,SBD,M
Boys,55.79,1,Lleyton Frazier,Tuscola Jim Ned,54.43,136.08,81.65,138.35,356.07,Single-ply,SBD,M
Boys,55.79,2,Daelin Campos,Abilene Cooper,55.29,115.67,61.23,156.49,333.39,Single-ply,SBD,M
Boys,55.79,3,Brody Stanford,Abilene Cooper,53.98,102.06,52.16,113.4,267.62,Single-ply,SBD,M
Boys,55.79,4,Adam Hathaway,Merkel,54.34,90.72,56.7,113.4,260.82,Single-ply,SBD,M
Boys,59.87,1,Johnny Donnelly,Hawley,59.15,181.44,97.52,163.29,442.25,Single-ply,SBD,M
Boys,59.87,2,Alec Arredondo,Abilene,58.06,151.95,90.72,149.69,392.36,Single-ply,SBD,M
Boys,59.87,3,Matthew Gray #3,Tuscola Jim Ned,57.79,136.08,72.57,151.95,360.61,Single-ply,SBD,M
Boys,59.87,4,Christian Rodriguez,Abilene Cooper,59.01,117.93,79.38,161.03,358.34,Single-ply,SBD,M
Boys,59.87,5,Riley Perry,Tuscola Jim Ned,58.97,131.54,83.91,138.35,353.8,Single-ply,SBD,M
Boys,59.87,6,Jackson Heidenheimer,Anson,56.88,111.13,61.23,122.47,294.84,Single-ply,SBD,M
Boys,59.87,7,Kirkland Leverett,Abilene,57.88,113.4,52.16,113.4,278.96,Single-ply,SBD,M
Boys,59.87,8,Blue Reyes,Abilene,59.78,102.06,65.77,111.13,278.96,Single-ply,SBD,M
Boys,67.13,1,Michael Schubert,Abilene Cooper,67.13,142.88,83.91,192.78,419.57,Single-ply,SBD,M
Boys,67.13,2,Jayce Hardee,Hawley,63.78,172.37,86.18,158.76,417.3,Single-ply,SBD,M
Boys,67.13,3,Rj Hoffman,Clyde,63.96,165.56,74.84,142.88,383.29,Single-ply,SBD,M
Boys,67.13,4,Tyler Crawford,Clyde,66.22,151.95,90.72,136.08,378.75,Single-ply,SBD,M
Boys,67.13,5,Bryce Munoz,Anson,62.69,142.88,77.11,156.49,376.48,Single-ply,SBD,M
Boys,67.13,6,Joseph Flores,Abilene Cooper,66.45,124.74,70.31,161.03,356.07,Single-ply,SBD,M
Boys,67.13,7,Kendal Adames,Sweetwater,64.41,106.59,79.38,142.88,328.85,Single-ply,SBD,M
Boys,67.13,8,Braden Sigler,Merkel,67.13,129.27,74.84,124.74,328.85,Single-ply,SBD,M
Boys,67.13,9,Clayton Sparks,Merkel,62.23,99.79,58.97,120.2,278.96,Single-ply,SBD,M
Boys,74.84,1,Tristan Wegener,Hawley,73.66,197.31,120.2,161.03,478.54,Single-ply,SBD,M
Boys,74.84,2,Zach Yost,Clyde,73.21,165.56,90.72,163.29,419.57,Single-ply,SBD,M
Boys,74.84,3,Elijah Moser,Anson,73.75,142.88,83.91,156.49,383.29,Single-ply,SBD,M
Boys,74.84,4,Brandon Gassiot,Tuscola Jim Ned,68.04,145.15,81.65,154.22,381.02,Single-ply,SBD,M
Boys,74.84,5,Dillon McCoy,Tuscola Jim Ned,71.58,129.27,83.91,154.22,367.41,Single-ply,SBD,M
Boys,74.84,6,Trey Starr,Abilene,68.49,133.81,74.84,131.54,340.19,Single-ply,SBD,M
Boys,74.84,7,Jared Rodriguez,Abilene Cooper,72.85,124.74,70.31,142.88,337.93,Single-ply,SBD,M
Boys,74.84,8,Drew Hagler,Anson,69.58,138.35,70.31,124.74,333.39,Single-ply,SBD,M
Boys,74.84,9,George Fassett,Sweetwater,69.58,115.67,70.31,136.08,322.05,Single-ply,SBD,M
Boys,74.84,DQ,Marcus Garner,Abilene Cooper,71.26,151.95,,,,Single-ply,SBD,M
Boys,82.1,1,Ethan Tapia,Clyde,81.92,199.58,138.35,192.78,530.7,Single-ply,SBD,M
Boys,82.1,2,Actavias Lowry,Abilene Cooper,82.1,199.58,113.4,190.51,503.49,Single-ply,SBD,M
Boys,82.1,3,Gabriel Salazar,Sweetwater,76.75,176.9,106.59,208.65,492.15,Single-ply,SBD,M
Boys,82.1,4,Chase Brooks,Abilene Cooper,77.66,158.76,102.06,165.56,426.38,Single-ply,SBD,M
Boys,82.1,5,Nick Powell,Abilene Cooper,77.11,142.88,99.79,174.63,417.3,Single-ply,SBD,M
Boys,82.1,6,Casey Hall,Tuscola Jim Ned,77.02,149.69,95.25,163.29,408.23,Single-ply,SBD,M
Boys,82.1,7,Brian Morales,Cross Plains,76.29,149.69,86.18,163.29,399.16,Single-ply,SBD,M
Boys,82.1,8,John Wheeler,Tuscola Jim Ned,81.01,142.88,86.18,154.22,383.29,Single-ply,SBD,M
Boys,82.1,9,Tavian Bonds,Abilene Cooper,79.29,136.08,63.5,163.29,362.87,Single-ply,SBD,M
Boys,82.1,10,Juan Torres #5,Abilene,77.29,129.27,83.91,145.15,358.34,Single-ply,SBD,M
Boys,82.1,11,Willie Ellis,Abilene,80.2,136.08,79.38,140.61,356.07,Single-ply,SBD,M
Boys,82.1,DQ,Chris Reeves,Merkel,77.29,,,,,Single-ply,SBD,M
Boys,82.1,DQ,Jacob Dearing,Merkel,80.74,136.08,83.91,,,Single-ply,SBD,M
Boys,89.81,1,Matt Holmes,Merkel,87.45,231.33,145.15,224.53,601.01,Single-ply,SBD,M
Boys,89.81,2,Devin Romero,Abilene,84.64,222.26,115.67,231.33,569.26,Single-ply,SBD,M
Boys,89.81,3,Eduardo Marin,Anson,83.1,170.1,102.06,161.03,433.18,Single-ply,SBD,M
Boys,89.81,4,Morgan Porter,Clyde,86,176.9,90.72,165.56,433.18,Single-ply,SBD,M
Boys,89.81,5,Tyrees Whitfield,Abilene Cooper,83.69,154.22,108.86,165.56,428.64,Single-ply,SBD,M
Boys,89.81,6,Xavier Rodriguez,Anson,84.19,145.15,79.38,156.49,381.02,Single-ply,SBD,M
Boys,89.81,7,Evan Andrews,Merkel,88.99,147.42,61.23,158.76,367.41,Single-ply,SBD,M
Boys,89.81,8,Cooper Graham,Anson,89.81,133.81,68.04,149.69,351.53,Single-ply,SBD,M
Boys,89.81,9,Kanen Herd,Merkel,85.64,115.67,79.38,124.74,319.78,Single-ply,SBD,M
Boys,89.81,10,Tyler Phipps,Sweetwater,89.81,102.06,77.11,111.13,290.3,Single-ply,SBD,M
Boys,99.79,1,Tanner Schnoor,Hawley,94.17,244.94,127.01,244.94,616.89,Single-ply,SBD,M
Boys,99.79,2,Braden Kesler,Tuscola Jim Ned,95.25,199.58,111.13,233.6,544.31,Single-ply,SBD,M
Boys,99.79,3,Brandon Romero,Abilene Cooper,91.22,190.51,108.86,174.63,474,Single-ply,SBD,M
Boys,99.79,4,Jacob Collier,Cross Plains,98.79,190.51,90.72,176.9,458.13,Single-ply,SBD,M
Boys,99.79,5,Jacob Turner,Tuscola Jim Ned,91.17,161.03,92.99,199.58,453.59,Single-ply,SBD,M
Boys,99.79,6,Jaxon Smith,Abilene,93.17,183.7,92.99,156.49,433.18,Single-ply,SBD,M
Boys,99.79,7,Mateo Valero,Abilene Cooper,99.02,156.49,95.25,170.1,421.84,Single-ply,SBD,M
Boys,99.79,8,Colby Ernst,Abilene,94.89,158.76,90.72,154.22,403.7,Single-ply,SBD,M
Boys,99.79,9,Griffin Cooke,Abilene,90.45,136.08,90.72,172.37,399.16,Single-ply,SBD,M
Boys,99.79,10,Roy Courtney,Abilene,92.62,154.22,88.45,142.88,385.55,Single-ply,SBD,M
Boys,99.79,11,Kolby Griffin,Anson,94.35,129.27,79.38,161.03,369.68,Single-ply,SBD,M
Boys,99.79,12,Adriel Perez,Merkel,90.54,147.42,79.38,136.08,362.87,Single-ply,SBD,M
Boys,99.79,13,Donnie Brookes,Merkel,94.71,136.08,102.06,106.59,344.73,Single-ply,SBD,M
Boys,99.79,DQ,Richie Drew,Abilene Cooper,98.84,,,,,Single-ply,SBD,M
Boys,99.79,DQ,Dereck Duclos,Sweetwater,97.52,,,,,Single-ply,SBD,M
Boys,109.77,1,Brandon Padilla,Anson,102.15,224.53,131.54,210.92,566.99,Single-ply,SBD,M
Boys,109.77,2,Zack Thompson,Abilene,102.87,199.58,120.2,183.7,503.49,Single-ply,SBD,M
Boys,109.77,3,Austin Schoonmaker,Clyde,102.51,190.51,115.67,183.7,489.88,Single-ply,SBD,M
Boys,109.77,4,Israel DelaCruz,Anson,109.5,183.7,106.59,181.44,471.74,Single-ply,SBD,M
Boys,109.77,5,Brian Palacios,Abilene,104.96,190.51,102.06,163.29,455.86,Single-ply,SBD,M
Boys,109.77,6,Tim Balderas,Abilene Cooper,108.32,158.76,120.2,165.56,444.52,Single-ply,SBD,M
Boys,109.77,7,Taylor Cullum,Merkel,107.59,163.29,111.13,151.95,426.38,Single-ply,SBD,M
Boys,109.77,8,Triston Patterson,Tuscola Jim Ned,102.78,154.22,102.06,154.22,410.5,Single-ply,SBD,M
Boys,109.77,9,Lucio Ramirez,Abilene,103.51,165.56,102.06,142.88,410.5,Single-ply,SBD,M
Boys,109.77,10,Derick Palacios,Sweetwater,104.51,151.95,108.86,142.88,403.7,Single-ply,SBD,M
Boys,109.77,11,Eddie Hernandez,Anson,106.41,145.15,83.91,156.49,385.55,Single-ply,SBD,M
Boys,109.77,12,Gavin Reyes,Sweetwater,106.41,124.74,79.38,136.08,340.19,Single-ply,SBD,M
Boys,109.77,DQ,Raymond Delgado,Sweetwater,102.51,,,,,Single-ply,SBD,M
Boys,109.77,DQ,Tye Landeros,Tuscola Jim Ned,109.77,,,,,Single-ply,SBD,M
Boys,109.77,DQ,Jayton Wells,Anson,108.32,102.06,,,,Single-ply,SBD,M
Boys,124.74,1,Miguel Valdez,Clyde,115.21,181.44,122.47,183.7,487.61,Single-ply,SBD,M
Boys,124.74,2,Josh Elliott,Abilene Cooper,111.63,174.63,124.74,158.76,458.13,Single-ply,SBD,M
Boys,124.74,3,Collin Gardner,Anson,114.85,179.17,111.13,165.56,455.86,Single-ply,SBD,M
Boys,124.74,4,David Schuman,Merkel,111.4,165.56,106.59,163.29,435.45,Single-ply,SBD,M
Boys,124.74,5,CJ Ugalde,Merkel,118.57,158.76,102.06,151.95,412.77,Single-ply,SBD,M
Boys,124.74,6,Javier Santana,Abilene,111.86,142.88,74.84,133.81,351.53,Single-ply,SBD,M
Boys,124.74,DQ,David Galvan,Anson,116.12,,,,,Single-ply,SBD,M
Boys,124.74+,1,Ray Leon,Hawley,129.46,238.14,136.08,190.51,564.72,Single-ply,SBD,M
Boys,124.74+,2,Jackson Sellers,Abilene,134.72,192.78,115.67,181.44,489.88,Single-ply,SBD,M
Boys,124.74+,3,Quadryll Ramirez,Abilene,155.58,172.37,127.01,190.51,489.88,Single-ply,SBD,M
Boys,124.74+,4,Ricardo Rios,Abilene Cooper,131.54,170.1,90.72,170.1,430.91,Single-ply,SBD,M
Boys,124.74+,5,Devon Cosby,Abilene Cooper,134.04,158.76,106.59,158.76,424.11,Single-ply,SBD,M
Boys,124.74+,6,Levi Brooks,Abilene Cooper,138.8,129.27,90.72,117.93,337.93,Single-ply,SBD,M
