Division,WeightClassKg,Place,Name,Team,BodyweightKg,Best3SquatKg,Best3BenchKg,Best3DeadliftKg,TotalKg,Equipment,Event,Sex
Boys,51.71,1,Jeremy Martinez,Robstown,51.07,158.76,72.57,181.44,412.77,Single-ply,SBD,M
Boys,51.71,2,Ivan Rosales,Columbus,50.62,149.69,86.18,156.49,392.36,Single-ply,SBD,M
Boys,51.71,3,Eloy Garza,Corpus Christi West Oso,51.71,154.22,77.11,154.22,385.55,Single-ply,SBD,M
Boys,51.71,4,Joshua Martinez,Hidalgo Early College,51.07,120.2,68.04,140.61,328.85,Single-ply,SBD,M
Boys,51.71,5,Abe Villarreal,Hidalgo Early College,51.62,117.93,72.57,138.35,328.85,Single-ply,SBD,M
Boys,51.71,6,Brandon Fernandez,Poteet,44.18,124.74,63.5,117.93,306.17,Single-ply,SBD,M
Boys,51.71,7,Nicko Perez,Lytle,50.53,120.2,70.31,115.67,306.17,Single-ply,SBD,M
Boys,51.71,8,Chase Rios,Rockport-Fulton,48.72,115.67,54.43,129.27,299.37,Single-ply,SBD,M
Boys,51.71,DQ,Angel Flores #2,Jourdanton,50.62,120.2,61.23,,,Single-ply,SBD,M
Boys,51.71,DQ,Danny Ruiz,Zapata,51.71,140.61,72.57,,,Single-ply,SBD,M
Boys,51.71,DQ,Aaron Fuentes,Zapata,51.07,,,,,Single-ply,SBD,M
Boys,55.79,1,Mike Barajas,Hidalgo Early College,55.61,204.12,108.86,190.51,503.49,Single-ply,SBD,M
Boys,55.79,2,Jesus Trevino,Zapata,55.79,181.44,99.79,192.78,474,Single-ply,SBD,M
Boys,55.79,3,Adrian Garcia,Pearsall,55.16,174.63,99.79,181.44,455.86,Single-ply,SBD,M
Boys,55.79,4,Adrian Herrera #1,Yoakum,54.16,185.97,90.72,154.22,430.91,Single-ply,SBD,M
Boys,55.79,5,Rudy Rios,Devine,55.79,136.08,79.38,163.29,378.75,Single-ply,SBD,M
Boys,55.79,6,Justin Brady,Carrizo Springs,55.07,122.47,83.91,170.1,376.48,Single-ply,SBD,M
Boys,55.79,7,Cody Faust,Yoakum,55.61,131.54,86.18,156.49,374.21,Single-ply,SBD,M
Boys,55.79,8,Chris Anderson #11,Ingleside,55.7,124.74,70.31,158.76,353.8,Single-ply,SBD,M
Boys,55.79,9,Colton Bean,Devine,55.34,133.81,68.04,142.88,344.73,Single-ply,SBD,M
Boys,55.79,10,Demetrios Monreal,Devine,55.25,122.47,81.65,138.35,342.46,Single-ply,SBD,M
Boys,55.79,11,Ruben Castro,Corpus Christi West Oso,53.61,108.86,52.16,127.01,288.03,Single-ply,SBD,M
Boys,55.79,DQ,Juan Alvarez,Orange Grove,53.8,117.93,,,,Single-ply,SBD,M
Boys,59.87,1,Cody Hartman,Corpus Christi West Oso,59.78,226.8,120.2,201.85,548.85,Single-ply,SBD,M
Boys,59.87,2,Marty Capetillo,Raymondville,59.87,215.46,111.13,206.38,532.97,Single-ply,SBD,M
Boys,59.87,3,Mac Gomez,Zapata,58.97,213.19,102.06,208.65,523.9,Single-ply,SBD,M
Boys,59.87,4,Andres Ramos,Ingleside,58.97,199.58,102.06,197.31,498.95,Single-ply,SBD,M
Boys,59.87,5,Ismael Franco,Crystal City,57.79,161.03,106.59,192.78,460.4,Single-ply,SBD,M
Boys,59.87,6,Jaime Rodriguez,Jourdanton,59.42,204.12,74.84,181.44,460.4,Single-ply,SBD,M
Boys,59.87,7,Luke Torres,Devine,58.33,167.83,92.99,181.44,442.25,Single-ply,SBD,M
Boys,59.87,8,Casey Fuentes,Jourdanton,59.06,172.37,97.52,142.88,412.77,Single-ply,SBD,M
Boys,59.87,9,Albert Valle,Hidalgo Early College,59.06,142.88,92.99,158.76,394.63,Single-ply,SBD,M
Boys,59.87,DQ,Raul Guerra,Poteet,59.6,,,,,Single-ply,SBD,M
Boys,59.87,DQ,Alex Zapata,Rio Hondo,58.24,,,,,Single-ply,SBD,M
Boys,67.13,1,Alan Alfaro,Rio Hondo,66.77,217.72,131.54,254.01,603.28,Single-ply,SBD,M
Boys,67.13,2,Heliseo Guerrero,Rio Hondo,64.86,217.72,138.35,235.87,591.94,Single-ply,SBD,M
Boys,67.13,3,Luis Perales,Carrizo Springs,67.13,226.8,129.27,213.19,569.26,Single-ply,SBD,M
Boys,67.13,4,Aaron Realme,Pearsall,65.95,217.72,97.52,213.19,528.44,Single-ply,SBD,M
Boys,67.13,5,Dustin Torres,Beeville Jones,66.95,208.65,115.67,195.04,519.36,Single-ply,SBD,M
Boys,67.13,6,Erick Cruz,Victoria St. Joseph,65.05,204.12,115.67,190.51,510.29,Single-ply,SBD,M
Boys,67.13,7,Johnathon Castillo,Sinton,66.04,185.97,102.06,217.72,505.76,Single-ply,SBD,M
Boys,67.13,8,Justin Clifton,Beeville Jones,66.5,183.7,99.79,215.46,498.95,Single-ply,SBD,M
Boys,67.13,9,Marco Gomez,Crystal City,65.86,183.7,104.33,176.9,464.93,Single-ply,SBD,M
Boys,67.13,10,Steven Adams,Jourdanton,66.59,199.58,104.33,149.69,453.59,Single-ply,SBD,M
Boys,67.13,DQ,Homer Gonzalez,La Feria,65.95,,,,,Single-ply,SBD,M
Boys,67.13,DQ,Daniel Tortu,Corpus Christi West Oso,66.95,206.38,,,,Single-ply,SBD,M
Boys,74.84,1,Abraham Ramirez #2,Cuero,73.39,242.67,167.83,233.6,644.1,Single-ply,SBD,M
Boys,74.84,2,Julian Flores,Rio Hondo,68.67,217.72,138.35,229.06,585.13,Single-ply,SBD,M
Boys,74.84,3,Andy Hernandez #3,Hidalgo Early College,74.03,226.8,117.93,226.8,571.53,Single-ply,SBD,M
Boys,74.84,4,Matthew Fanno,Jourdanton,71.94,235.87,106.59,217.72,560.19,Single-ply,SBD,M
Boys,74.84,5,Calvin Starnes,Bandera,73.84,217.72,124.74,217.72,560.19,Single-ply,SBD,M
Boys,74.84,6,Cristian Perez,Ingleside,71.12,183.7,127.01,231.33,542.04,Single-ply,SBD,M
Boys,74.84,7,John Reyes #1,Pearsall,73.12,190.51,111.13,238.14,539.77,Single-ply,SBD,M
Boys,74.84,8,Tommy Aguilar,Orange Grove,71.21,213.19,106.59,215.46,535.24,Single-ply,SBD,M
Boys,74.84,9,Dominic Ramos,Rio Hondo,69.49,192.78,127.01,190.51,510.29,Single-ply,SBD,M
Boys,74.84,10,Patrick Prieto,Beeville Jones,71.76,190.51,102.06,199.58,492.15,Single-ply,SBD,M
Boys,82.1,1,Nathan Garcia,Jourdanton,79.65,310.71,154.22,283.5,748.43,Single-ply,SBD,M
Boys,82.1,2,Chris Madrigal,Beeville Jones,79.83,235.87,145.15,238.14,619.15,Single-ply,SBD,M
Boys,82.1,3,Zach Vyvlecka,Jourdanton,79.47,258.55,122.47,235.87,616.89,Single-ply,SBD,M
Boys,82.1,4,Robert Adame,San Antonio Holy Cross,81.19,217.72,151.95,242.67,612.35,Single-ply,SBD,M
Boys,82.1,5,Jake Wright,Geronimo Navarro,80.2,201.85,115.67,226.8,544.31,Single-ply,SBD,M
Boys,82.1,6,Jordan Valdez,Jourdanton,81.92,208.65,129.27,197.31,535.24,Single-ply,SBD,M
Boys,82.1,7,David Juarez,Corpus Christi West Oso,76.52,208.65,131.54,192.78,532.97,Single-ply,SBD,M
Boys,82.1,DQ,Peter Quiroz,Hidalgo Early College,81.56,213.19,136.08,,,Single-ply,SBD,M
Boys,82.1,DQ,Daniel Flores,Rio Hondo,81.1,256.28,,,,Single-ply,SBD,M
Boys,89.81,1,Abram Ramirez,Rio Hondo,89.81,294.84,215.46,226.8,737.09,Single-ply,SBD,M
Boys,89.81,2,Jared Leal,Geronimo Navarro,86.09,238.14,127.01,269.89,635.03,Single-ply,SBD,M
Boys,89.81,3,Jason Patterson,Kingsville King,87.36,249.48,140.61,244.94,635.03,Single-ply,SBD,M
Boys,89.81,4,John Ray Martinez,Port Isabel,89.27,254.01,147.42,233.6,635.03,Single-ply,SBD,M
Boys,89.81,5,Rudy Casarez,Beeville Jones,89.72,260.82,145.15,229.06,635.03,Single-ply,SBD,M
Boys,89.81,6,Angel Rodríguez #5,Rio Hondo,87.63,242.67,142.88,213.19,598.74,Single-ply,SBD,M
Boys,89.81,7,Barry Hernandez,Corpus Christi West Oso,88.54,240.4,136.08,219.99,596.47,Single-ply,SBD,M
Boys,89.81,8,Isaac Aleman,Hidalgo Early College,87.54,219.99,138.35,229.06,587.4,Single-ply,SBD,M
Boys,89.81,9,John Engelmann,Jourdanton,87.63,217.72,124.74,219.99,562.45,Single-ply,SBD,M
Boys,89.81,DQ,Esai Camacho,Port Isabel,86.09,224.53,140.61,,,Single-ply,SBD,M
Boys,89.81,DQ,Daron Mancerais,Raymondville,88.99,,,,,Single-ply,SBD,M
Boys,99.79,1,Isaiah Heredia,Rio Hondo,95.71,294.84,176.9,267.62,739.36,Single-ply,SBD,M
Boys,99.79,2,Jonathan Darby,Lytle,94.98,272.16,145.15,285.76,703.07,Single-ply,SBD,M
Boys,99.79,3,Aaron Puga,Beeville Jones,99.16,285.76,142.88,242.67,671.32,Single-ply,SBD,M
Boys,99.79,4,Raymond Casarez,San Antonio Holy Cross,95.62,272.16,142.88,247.21,662.24,Single-ply,SBD,M
Boys,99.79,5,Brian Tran,Rockport-Fulton,97.98,251.74,170.1,240.4,662.24,Single-ply,SBD,M
Boys,99.79,6,Jesus Ramos,Hidalgo Early College,99.79,267.62,174.63,219.99,662.24,Single-ply,SBD,M
Boys,99.79,7,JD Zapata,Rockport-Fulton,98.79,251.74,147.42,229.06,628.23,Single-ply,SBD,M
Boys,99.79,8,Tyler Crisp,Poteet,97.89,283.5,115.67,226.8,625.96,Single-ply,SBD,M
Boys,99.79,9,Roy Trevino,Poteet,92.35,249.48,127.01,238.14,614.62,Single-ply,SBD,M
Boys,99.79,10,Jacob Martinez,Rio Hondo,97.61,238.14,156.49,219.99,614.62,Single-ply,SBD,M
Boys,99.79,11,Eli Rejino,Devine,98.97,226.8,161.03,213.19,601.01,Single-ply,SBD,M
Boys,99.79,DQ,Franco Arce,Zapata,98.79,258.55,113.4,,,Single-ply,SBD,M
Boys,109.77,1,Jeremy Rodriguez #2,Geronimo Navarro,109.77,317.51,199.58,258.55,775.64,Single-ply,SBD,M
Boys,109.77,2,Jose Soliz,Orange Grove,107.41,285.76,199.58,240.4,725.75,Single-ply,SBD,M
Boys,109.77,3,Aaron Jupe,Jourdanton,105.87,317.51,147.42,224.53,689.46,Single-ply,SBD,M
Boys,109.77,4,Lane Springs,Geronimo Navarro,106.78,281.23,163.29,235.87,680.39,Single-ply,SBD,M
Boys,109.77,5,Tristan Caballero,Yoakum,107.68,278.96,181.44,219.99,680.39,Single-ply,SBD,M
Boys,109.77,6,Austen Flores #1,San Antonio Holy Cross,108.5,258.55,149.69,254.01,662.24,Single-ply,SBD,M
Boys,109.77,7,Joey Rodriguez,Corpus Christi West Oso,109.77,276.69,133.81,242.67,653.17,Single-ply,SBD,M
Boys,109.77,8,Matt German,Rockport-Fulton,103.42,249.48,154.22,226.8,630.49,Single-ply,SBD,M
Boys,109.77,9,Steve Covarrubias,Robstown,105.96,247.21,140.61,233.6,621.42,Single-ply,SBD,M
Boys,109.77,10,David Smith,Beeville Jones,103.78,235.87,142.88,226.8,605.55,Single-ply,SBD,M
Boys,109.77,11,Cameron Calvillo,Orange Grove,106.05,249.48,147.42,208.65,605.55,Single-ply,SBD,M
Boys,109.77,12,Emilio Alvarado,Crystal City,102.69,210.92,145.15,188.24,544.31,Single-ply,SBD,M
Boys,124.74,1,Jonathon Ricks,Pleasanton,122.65,328.85,188.24,244.94,762.04,Single-ply,SBD,M
Boys,124.74,2,Austin Soto,Devine,118.93,283.5,213.19,235.87,732.55,Single-ply,SBD,M
Boys,124.74,3,Hugo Martinez,Zapata,123.29,297.1,151.95,274.42,723.48,Single-ply,SBD,M
Boys,124.74,4,Adrian Acevedo,Beeville Jones,122.83,276.69,161.03,265.35,703.07,Single-ply,SBD,M
Boys,124.74,5,Juan Mireles,Port Isabel,120.66,306.17,156.49,222.26,684.92,Single-ply,SBD,M
Boys,124.74,6,Sisto Pacheco,Pleasanton,123.47,272.16,174.63,215.46,662.24,Single-ply,SBD,M
Boys,124.74,7,Erick Chapa,Zapata,117.57,285.76,147.42,226.8,659.98,Single-ply,SBD,M
Boys,124.74,8,Oscar Zepeda,Zapata,119.11,254.01,158.76,226.8,639.57,Single-ply,SBD,M
Boys,124.74,9,Matthew Castro,Carrizo Springs,123.65,272.16,127.01,231.33,630.49,Single-ply,SBD,M
Boys,124.74,10,Oscar Castillo,Pleasanton,118.02,238.14,142.88,217.72,598.74,Single-ply,SBD,M
Boys,124.74,DQ,Josh Sturgeon,Corpus Christi West Oso,120.34,,,,,Single-ply,SBD,M
Boys,124.74,DQ,Hector Garza,Jourdanton,122.38,297.1,,,,Single-ply,SBD,M
Boys,124.74+,1,Joseph Peña #1,San Antonio Holy Cross,152.86,385.55,219.99,272.16,877.7,Single-ply,SBD,M
Boys,124.74+,2,Mike Esparza,Rockport-Fulton,131.54,351.53,192.78,226.8,771.11,Single-ply,SBD,M
Boys,124.74+,3,Joe Rodriguez,Kingsville King,136.53,303.91,163.29,258.55,725.75,Single-ply,SBD,M
Boys,124.74+,4,Diego Hernandez,Cuero,134.54,278.96,149.69,242.67,671.32,Single-ply,SBD,M
Boys,124.74+,5,Chase Herrig,Sinton,129.91,258.55,172.37,238.14,669.05,Single-ply,SBD,M
Boys,124.74+,6,James Castillo,Jourdanton,130.45,258.55,142.88,231.33,632.76,Single-ply,SBD,M
Boys,124.74+,7,Brandon Woltman,Pleasanton,148.05,254.01,147.42,226.8,628.23,Single-ply,SBD,M
Boys,124.74+,8,Nate Serna,Jourdanton,131,283.5,147.42,192.78,623.69,Single-ply,SBD,M
Boys,124.74+,9,Tyler Howard,Geronimo Navarro,126.28,233.6,142.88,226.8,603.28,Single-ply,SBD,M
Boys,124.74+,DQ,Mario Chavez,Carrizo Springs,192.41,,,,,Single-ply,SBD,M
Boys,124.74+,DQ,Tino Torres,Carrizo Springs,128.37,272.16,181.44,,,Single-ply,SBD,M
Boys,124.74+,DQ,Edward Gonzalez,Crystal City,128.28,,,,,Single-ply,SBD,M
Boys,,NS,Rodney Garcia,Carrizo Springs,,,,,,Single-ply,SBD,M
Boys,,NS,Nick Galvan,Beeville Jones,,,,,,Single-ply,SBD,M
Boys,,NS,Derrick Carroll,Beeville Jones,,,,,,Single-ply,SBD,M
Boys,,NS,Rudy Perez,Ingleside,,,,,,Single-ply,SBD,M
Boys,,NS,JK Dobbins,La Grange,,,,,,Single-ply,SBD,M
Boys,,NS,Brendon Batteau,Rockport-Fulton,,,,,,Single-ply,SBD,M
Boys,,NS,Chase Resendez,Rockport-Fulton,,,,,,Single-ply,SBD,M
Boys,,NS,Matthew Vallejo,Victoria St. Joseph,,,,,,Single-ply,SBD,M
