Division,WeightClassKg,Place,Name,Team,BodyweightKg,Best3SquatKg,Best3BenchKg,Best3DeadliftKg,TotalKg,Equipment,Event,Sex,BirthDate
Boys,51.71,1,Kody Tanimoto,Keller Central,47.99,133.81,88.45,124.74,347,Single-ply,SBD,M,
Boys,51.71,2,Amaan Reza,Keller Fossil Ridge,50.8,99.79,47.63,90.72,238.14,Single-ply,SBD,M,
Boys,51.71,3,Brady Henning,Keller Central,49.71,79.38,43.09,90.72,213.19,Single-ply,SBD,M,
Boys,55.79,1,Cason Brazell,Keller,55.25,145.15,68.04,149.69,362.87,Single-ply,SBD,M,
Boys,55.79,2,Chase Abbott,Keller Fossil Ridge,53.25,88.45,52.16,99.79,240.4,Single-ply,SBD,M,
Boys,59.87,1,Gabe Roberts,Keller Central,59.06,172.37,95.25,195.04,462.66,Single-ply,SBD,M,
Boys,59.87,2,Kaiden Pogue,Keller Central,59.78,185.97,106.59,156.49,449.06,Single-ply,SBD,M,
Boys,59.87,3,Dq Johnson,Keller Fossil Ridge,58.6,174.63,95.25,167.83,437.72,Single-ply,SBD,M,
Boys,59.87,4,Jaylee Chanthavee,Keller Fossil Ridge,58.6,151.95,86.18,170.1,408.23,Single-ply,SBD,M,
Boys,59.87,5,Trey Wood,Keller Fossil Ridge,59.78,147.42,86.18,154.22,387.82,Single-ply,SBD,M,
Boys,59.87,6,Guy Gonzalez,Keller,58.56,129.27,79.38,136.08,344.73,Single-ply,SBD,M,
Boys,59.87,7,Vincent Nguyen,Keller Fossil Ridge,59.69,131.54,63.5,145.15,340.19,Single-ply,SBD,M,
Boys,67.13,1,Brody Craft,Keller Central,66.68,176.9,117.93,174.63,469.47,Single-ply,SBD,M,
Boys,67.13,2,Brian Nguyen,Keller Fossil Ridge,64.41,165.56,77.11,170.1,412.77,Single-ply,SBD,M,
Boys,67.13,3,Daniel Reynolds,Keller,66.45,158.76,83.91,154.22,396.89,Single-ply,SBD,M,
Boys,67.13,4,Dustin Ford,Keller Central,66.22,158.76,68.04,151.95,378.75,Single-ply,SBD,M,
Boys,67.13,5,Nikolas Muegge,Keller Central,65.95,129.27,79.38,154.22,362.87,Single-ply,SBD,M,
Boys,67.13,6,Zachary Richards,Keller Fossil Ridge,61.78,158.76,61.23,129.27,349.27,Single-ply,SBD,M,
Boys,67.13,7,Christian Bryant,Keller Fossil Ridge,60.6,124.74,90.72,129.27,344.73,Single-ply,SBD,M,
Boys,67.13,8,Pierce Solodow,Keller,63.05,133.81,65.77,136.08,335.66,Single-ply,SBD,M,
Boys,67.13,9,Jarren Hamilton,Keller Timber Creek,65.14,115.67,77.11,136.08,328.85,Single-ply,SBD,M,
Boys,74.84,1,Jack Estill,Keller Central,74.21,219.99,145.15,197.31,562.45,Single-ply,SBD,M,
Boys,74.84,2,Braden Manners,Keller Central,72.76,208.65,124.74,195.04,528.44,Single-ply,SBD,M,
Boys,74.84,3,Nicolas Krause,Keller Central,68.95,188.24,102.06,147.42,437.72,Single-ply,SBD,M,
Boys,74.84,4,Joseph Richard,Keller Fossil Ridge,74.66,129.27,99.79,172.37,401.43,Single-ply,SBD,M,
Boys,74.84,5,Jaxon Peters,Keller,70.22,138.35,74.84,158.76,371.95,Single-ply,SBD,M,
Boys,74.84,6,Matthew Soria,Keller,70.9,111.13,86.18,149.69,347,Single-ply,SBD,M,
Boys,74.84,DQ,Hunter Darter,Keller,72.57,111.13,74.84,111.13,,Single-ply,SBD,M,
Boys,74.84,DQ,Carson Persyn,Keller,72.89,92.99,61.23,129.27,,Single-ply,SBD,M,
Boys,82.1,1,Ivan Rosas,Keller Fossil Ridge,80.92,208.65,111.13,213.19,532.97,Single-ply,SBD,M,
Boys,82.1,2,Elijah Plinsky,Keller Timber Creek,79.83,208.65,108.86,195.04,512.56,Single-ply,SBD,M,
Boys,82.1,3,Patrick Nguyen,Keller Fossil Ridge,79.83,188.24,113.4,183.7,485.34,Single-ply,SBD,M,
Boys,82.1,4,Garret Martin,Keller,81.42,174.63,106.59,197.31,478.54,Single-ply,SBD,M,
Boys,82.1,5,Liam Mayfield,Keller Central,77.02,185.97,102.06,183.7,471.74,Single-ply,SBD,M,
Boys,82.1,6,Javier Pacheco,Keller Fossil Ridge,77.2,117.93,81.65,140.61,340.19,Single-ply,SBD,M,
Boys,89.81,1,Camden Boyd,Keller,88.31,192.78,113.4,204.12,510.29,Single-ply,SBD,M,
Boys,89.81,2,Adrianher Aponte,Keller Fossil Ridge,83.1,158.76,77.11,167.83,403.7,Single-ply,SBD,M,
Boys,99.79,1,Tyler Balsarick,Keller Central,98.88,233.6,151.95,204.12,589.67,Single-ply,SBD,M,
Boys,99.79,2,Gideon Milam,Keller,95.44,140.61,106.59,147.42,394.63,Single-ply,SBD,M,
Boys,99.79,DQ,Ethan Starr,Keller,91.4,195.04,102.06,174.63,,Single-ply,SBD,M,
Boys,99.79,DQ,Will Scalf,Keller,91.53,145.15,102.06,167.83,,Single-ply,SBD,M,
Boys,109.77,1,Jett Lund,Keller Timber Creek,106.41,242.67,145.15,210.92,598.74,Single-ply,SBD,M,
Boys,109.77,2,Tanner Chorens,Keller,101.79,142.88,92.99,142.88,378.75,Single-ply,SBD,M,
Boys,109.77,DQ,Nate Gamble,Keller,101.88,201.85,113.4,167.83,,Single-ply,SBD,M,
Boys,124.74,1,Matthew Garita,Keller,121.74,199.58,102.06,217.72,519.36,Single-ply,SBD,M,
Boys,124.74,2,Joshua Sanchez,Keller Timber Creek,116.94,210.92,102.06,183.7,496.68,Single-ply,SBD,M,
Boys,124.74,3,Edwin Martinez,Keller Timber Creek,121.02,226.8,106.59,147.42,480.81,Single-ply,SBD,M,
Boys,124.74,4,Christian Bokutu,Keller Fossil Ridge,115.48,174.63,95.25,199.58,469.47,Single-ply,SBD,M,
Boys,124.74,5,Aaron Escobar,Keller Timber Creek,121.02,174.63,129.27,136.08,439.98,Single-ply,SBD,M,
Boys,124.74,6,Nathan Bradley,Keller Fossil Ridge,113.49,149.69,86.18,181.44,417.3,Single-ply,SBD,M,
Boys,124.74,DQ,Barrett Smith,Keller Timber Creek,117.39,,,,,Single-ply,SBD,M,
Boys,139.71,1,Keshaun Johnson,Keller Fossil Ridge,137.26,276.69,147.42,206.38,630.49,Single-ply,SBD,M,
Boys,139.71,DQ,Parker McElwee,Keller,134.49,1.36,111.13,217.72,,Single-ply,SBD,M,
Boys,139.71+,1,Jacob Gearhart,Keller Fossil Ridge,141.97,79.38,56.7,106.59,242.67,Single-ply,SBD,M,
