Division,WeightClassKg,Place,Name,Team,BodyweightKg,Best3SquatKg,Best3BenchKg,Best3DeadliftKg,TotalKg,Equipment,Event,Sex
Boys,55.79,1,Gabriel Hancock,Bovina,51.8,145.15,92.99,156.49,394.63,Single-ply,SBD,M
Boys,51.71,2,Matt Cordova,Amarillo Highland Park,51.62,129.27,79.38,136.08,344.73,Single-ply,SBD,M
Boys,51.71,3,Dang Nguyen,Amarillo Highland Park,51.35,129.27,56.7,140.61,326.59,Single-ply,SBD,M
Boys,51.71,4,Anthony Washington,Plainview,50.98,117.93,61.23,138.35,317.51,Single-ply,SBD,M
Boys,51.71,5,Brian Tran,Amarillo Highland Park,46.99,97.52,54.43,104.33,256.28,Single-ply,SBD,M
Boys,51.71,6,Favian Castellanos,Sunray,44.86,95.25,45.36,102.06,242.67,Single-ply,SBD,M
Boys,55.79,7,Juan Moreno,Amarillo Highland Park,51.8,77.11,56.7,99.79,233.6,Single-ply,SBD,M
Boys,51.71,8,Ronnie Doty,Panhandle,48.35,90.72,38.56,102.06,231.33,Single-ply,SBD,M
Boys,51.71,9,Kordell Lawrence,Dalhart,41.82,65.77,38.56,83.91,188.24,Single-ply,SBD,M
Boys,51.71,10,Ivan Tobias,Canyon Randall,50.89,61.23,45.36,81.65,188.24,Single-ply,SBD,M
Boys,55.79,1,Zane Ponder,Plainview,55.79,138.35,54.43,149.69,342.46,Single-ply,SBD,M
Boys,55.79,2,Hector Bustillos,Sunray,52.25,127.01,54.43,136.08,317.51,Single-ply,SBD,M
Boys,55.79,3,Fernando Corpus,Amarillo Highland Park,53.52,122.47,58.97,129.27,310.71,Single-ply,SBD,M
Boys,55.79,4,Jason Lee,Amarillo Highland Park,55.43,113.4,61.23,129.27,303.91,Single-ply,SBD,M
Boys,55.79,5,Colten Brown,Stinnett West Texas,54.34,111.13,61.23,129.27,301.64,Single-ply,SBD,M
Boys,55.79,6,Blas Gonzales,Bovina,54.79,74.84,45.36,113.4,233.6,Single-ply,SBD,M
Boys,55.79,DQ,Joshua Mathis,Canyon Randall,53.07,90.72,,,,Single-ply,SBD,M
Boys,59.87,1,Dominic Pham,Amarillo Highland Park,56.06,129.27,83.91,149.69,362.87,Single-ply,SBD,M
Boys,59.87,2,Ryan Shemwell,Panhandle,58.69,136.08,83.91,136.08,356.07,Single-ply,SBD,M
Boys,59.87,3,Miguel Espino,Perryton,58.88,115.67,77.11,147.42,340.19,Single-ply,SBD,M
Boys,59.87,4,Ramiro Carmona,Bovina,59.87,113.4,65.77,154.22,333.39,Single-ply,SBD,M
Boys,59.87,5,Bernie Da La Cruz,Bovina,58.97,106.59,49.9,127.01,283.5,Single-ply,SBD,M
Boys,59.87,DQ,Trent Morgan,Amarillo Highland Park,59.87,,,,,Single-ply,SBD,M
Boys,59.87,DQ,Garrett Ely,Sunray,59.6,124.74,,,,Single-ply,SBD,M
Boys,67.13,1,Corey Barker,Clarendon,64.41,170.1,106.59,188.24,464.93,Single-ply,SBD,M
Boys,74.84,2,Franky Medina,Dalhart,67.31,179.17,97.52,158.76,435.45,Single-ply,SBD,M
Boys,67.13,3,Joseph Tran,Amarillo Highland Park,65.77,158.76,83.91,181.44,424.11,Single-ply,SBD,M
Boys,67.13,4,Dominic Baca,Dalhart,66.95,142.88,97.52,174.63,415.04,Single-ply,SBD,M
Boys,67.13,5,Esdras Rodriguez,Friona,62.41,154.22,79.38,154.22,387.82,Single-ply,SBD,M
Boys,67.13,6,Eddie Garcia,Friona,65.77,129.27,83.91,154.22,367.41,Single-ply,SBD,M
Boys,67.13,7,Fabian Bencomo,Dalhart,61.78,136.08,74.84,147.42,358.34,Single-ply,SBD,M
Boys,67.13,8,Alex Davis,Panhandle,65.05,124.74,70.31,142.88,337.93,Single-ply,SBD,M
Boys,74.84,9,Dylan Davidson,Childress,67.31,117.93,72.57,142.88,333.39,Single-ply,SBD,M
Boys,67.13,10,Julio Sanchez #3,Perryton,66.5,117.93,70.31,140.61,328.85,Single-ply,SBD,M
Boys,67.13,11,Zane Clark,Canyon,64.14,111.13,83.91,131.54,326.59,Single-ply,SBD,M
Boys,67.13,12,Rene Cantu,Memphis,60.96,104.33,61.23,154.22,319.78,Single-ply,SBD,M
Boys,67.13,13,Aaron James,Childress,64.59,113.4,77.11,127.01,317.51,Single-ply,SBD,M
Boys,67.13,14,Chuck Durham,Stinnett West Texas,64.86,113.4,61.23,142.88,317.51,Single-ply,SBD,M
Boys,67.13,15,Sammy Sanchez,Amarillo Highland Park,61.69,120.2,65.77,129.27,315.25,Single-ply,SBD,M
Boys,67.13,16,Zavier Rosas,Plainview,64.05,113.4,63.5,131.54,308.44,Single-ply,SBD,M
Boys,67.13,17,Sergio Zapata,Sunray,64.59,124.74,61.23,113.4,299.37,Single-ply,SBD,M
Boys,67.13,18,Ryan Cole,Canyon,60.69,106.59,72.57,115.67,294.84,Single-ply,SBD,M
Boys,67.13,19,Collin Backus,Canyon,63.32,90.72,79.38,124.74,294.84,Single-ply,SBD,M
Boys,67.13,20,Matt Curtis,Vega,61.51,108.86,61.23,117.93,288.03,Single-ply,SBD,M
Boys,82.1,1,Guillermo Davila,Dalhart,75.02,204.12,104.33,195.04,503.49,Single-ply,SBD,M
Boys,74.84,2,Zack Ponder,Plainview,73.12,195.04,99.79,192.78,487.61,Single-ply,SBD,M
Boys,74.84,3,Dalten Lumen,Panhandle,71.58,167.83,92.99,176.9,437.72,Single-ply,SBD,M
Boys,74.84,4,Aldo Ramirez,Perryton,70.94,154.22,83.91,151.95,390.09,Single-ply,SBD,M
Boys,74.84,5,Orlando Hidalgo,Perryton,72.12,151.95,77.11,161.03,390.09,Single-ply,SBD,M
Boys,74.84,6,Austin Bullock,Bushland,74.12,142.88,83.91,163.29,390.09,Single-ply,SBD,M
Boys,74.84,7,Logan Lamberson,Panhandle,72.57,136.08,83.91,161.03,381.02,Single-ply,SBD,M
Boys,82.1,8,Jonathon Anderson,Sunray,74.93,142.88,83.91,151.95,378.75,Single-ply,SBD,M
Boys,74.84,9,Logan Kilpatrick,Bovina,69.58,145.15,81.65,145.15,371.95,Single-ply,SBD,M
Boys,74.84,10,Dustin Baumgardner,Panhandle,69.85,131.54,79.38,156.49,367.41,Single-ply,SBD,M
Boys,74.84,11,Samuel Mandujano,Perryton,71.76,133.81,90.72,138.35,362.87,Single-ply,SBD,M
Boys,74.84,12,Emmanuel Castillo,Sunray,67.77,142.88,65.77,151.95,360.61,Single-ply,SBD,M
Boys,74.84,13,Dominique de la Rosa #1,Sunray,73.12,136.08,68.04,136.08,340.19,Single-ply,SBD,M
Boys,74.84,14,Jace Taylor,Stinnett West Texas,70.94,127.01,74.84,136.08,337.93,Single-ply,SBD,M
Boys,74.84,15,Chanz Garcia,Perryton,70.76,136.08,77.11,115.67,328.85,Single-ply,SBD,M
Boys,74.84,16,Efrain Martinez,Bovina,73.57,108.86,83.91,136.08,328.85,Single-ply,SBD,M
Boys,74.84,17,Lamarcus Yannis,Memphis,67.77,104.33,61.23,136.08,301.64,Single-ply,SBD,M
Boys,74.84,18,Issac Summerlin,Friona,67.4,102.06,49.9,136.08,288.03,Single-ply,SBD,M
Boys,74.84,19,Gage Alexander,Panhandle,73.84,90.72,68.04,113.4,272.16,Single-ply,SBD,M
Boys,74.84,20,Stephen Carter,Panhandle,69.85,90.72,58.97,113.4,263.08,Single-ply,SBD,M
Boys,74.84,21,Adrian Chavez,Panhandle,68.58,61.23,52.16,83.91,197.31,Single-ply,SBD,M
Boys,82.1,1,Domingo Saucedo,Plainview,82.1,219.99,136.08,206.38,562.45,Single-ply,SBD,M
Boys,82.1,2,Phong Nguyen,Amarillo Highland Park,77.84,181.44,102.06,199.58,483.08,Single-ply,SBD,M
Boys,82.1,3,Cade McCallie,Canyon,81.28,185.97,102.06,185.97,474,Single-ply,SBD,M
Boys,82.1,4,Alexis Mendoza,Sunray,78.65,181.44,102.06,185.97,469.47,Single-ply,SBD,M
Boys,82.1,5,Lamonte Dickson,Memphis,79.38,165.56,97.52,188.24,451.32,Single-ply,SBD,M
Boys,82.1,6,Justin Goodwin,Childress,80.92,163.29,99.79,158.76,421.84,Single-ply,SBD,M
Boys,89.81,7,Brant Brister,Canyon Randall,82.19,154.22,97.52,149.69,401.43,Single-ply,SBD,M
Boys,82.1,8,Jake Hembree,Dalhart,80.1,136.08,97.52,149.69,383.29,Single-ply,SBD,M
Boys,82.1,9,Courtney Gravely,Amarillo Highland Park,77.2,140.61,83.91,149.69,374.21,Single-ply,SBD,M
Boys,82.1,10,Hunter Reece,Canyon,78.74,120.2,92.99,158.76,371.95,Single-ply,SBD,M
Boys,82.1,11,Jt Bennett,Stinnett West Texas,76.75,102.06,72.57,102.06,276.69,Single-ply,SBD,M
Boys,82.1,DQ,Michael Garcia #9,Friona,76.02,,,,,Single-ply,SBD,M
Boys,89.81,1,Federico Castro,Plainview,89.36,215.46,124.74,210.92,551.11,Single-ply,SBD,M
Boys,89.81,2,Ethan Barnes,Plainview,88.9,181.44,113.4,217.72,512.56,Single-ply,SBD,M
Boys,89.81,3,Gabe Marquez,Dalhart,88.45,192.78,108.86,181.44,483.08,Single-ply,SBD,M
Boys,89.81,4,Daniel Soltero,Friona,88.81,179.17,108.86,192.78,480.81,Single-ply,SBD,M
Boys,89.81,5,Patrick Lee,Canyon Randall,88.99,165.56,115.67,190.51,471.74,Single-ply,SBD,M
Boys,89.81,6,Cody Duran,Memphis,85,201.85,83.91,156.49,442.25,Single-ply,SBD,M
Boys,89.81,7,Trey Leighton,Childress,88.54,170.1,90.72,170.1,430.91,Single-ply,SBD,M
Boys,89.81,8,Travis Sullivan,Sunray,83.19,165.56,88.45,167.83,421.84,Single-ply,SBD,M
Boys,89.81,9,Loenel Carillo,Bovina,86.36,142.88,104.33,172.37,419.57,Single-ply,SBD,M
Boys,89.81,10,Adam Jones #6,Panhandle,86.82,151.95,86.18,170.1,408.23,Single-ply,SBD,M
Boys,89.81,11,Hector Lopez,Bovina,87.36,138.35,92.99,154.22,385.55,Single-ply,SBD,M
Boys,89.81,12,Cesar Calderon,Sunray,86.45,147.42,83.91,149.69,381.02,Single-ply,SBD,M
Boys,89.81,13,Obed Lujan,Dalhart,86.64,113.4,79.38,142.88,335.66,Single-ply,SBD,M
Boys,89.81,14,Troy Collins,Memphis,87.63,133.81,63.5,136.08,333.39,Single-ply,SBD,M
Boys,89.81,DQ,Kevin Olvera,Perryton,86.18,190.51,,,,Single-ply,SBD,M
Boys,89.81,DQ,Kendall Anders,Amarillo Highland Park,86.45,131.54,,,,Single-ply,SBD,M
Boys,99.79,1,Octavius Ledbetter,Memphis,98.97,217.72,133.81,201.85,553.38,Single-ply,SBD,M
Boys,99.79,2,Eric Mendez,Plainview,98.79,210.92,106.59,222.26,539.77,Single-ply,SBD,M
Boys,99.79,3,Javier Torres,Dalhart,95.44,185.97,108.86,192.78,487.61,Single-ply,SBD,M
Boys,99.79,4,Dillon Alford,Canyon Randall,92.9,147.42,129.27,179.17,455.86,Single-ply,SBD,M
Boys,99.79,5,Kalob Brumley,Canyon,93.62,170.1,97.52,185.97,453.59,Single-ply,SBD,M
Boys,99.79,6,Anthony Anzuldua,Dalhart,98.88,170.1,90.72,192.78,453.59,Single-ply,SBD,M
Boys,99.79,7,Sergio Orozco,Dalhart,97.79,170.1,90.72,181.44,442.25,Single-ply,SBD,M
Boys,99.79,8,Matthew Graham,Bushland,98.25,161.03,104.33,167.83,433.18,Single-ply,SBD,M
Boys,99.79,9,Cory Throgmorton,Panhandle,91.44,154.22,111.13,165.56,430.91,Single-ply,SBD,M
Boys,99.79,10,Tyler Brewer,Dalhart,98.61,156.49,92.99,181.44,430.91,Single-ply,SBD,M
Boys,99.79,11,Rance Hargrove,Memphis,97.79,161.03,86.18,163.29,410.5,Single-ply,SBD,M
Boys,99.79,12,Ethan Embry,Plainview,92.99,163.29,81.65,161.03,405.97,Single-ply,SBD,M
Boys,99.79,13,Andrew Smith #13,Panhandle,99.7,124.74,79.38,142.88,347,Single-ply,SBD,M
Boys,99.79,14,John Miller #5,Memphis,93.8,108.86,56.7,138.35,303.91,Single-ply,SBD,M
Boys,99.79,DQ,Spencer Parton,Canyon Randall,95.53,151.95,,,,Single-ply,SBD,M
Boys,109.77,1,Marcus Trujillo,Dalhart,100.88,249.48,120.2,204.12,573.79,Single-ply,SBD,M
Boys,109.77,2,Mark Munoz,Childress,104.42,204.12,129.27,208.65,542.04,Single-ply,SBD,M
Boys,109.77,3,Moises Garcia,Plainview,103.42,210.92,108.86,208.65,528.44,Single-ply,SBD,M
Boys,109.77,4,Bradley Vincent,Canyon Randall,107.68,195.04,136.08,190.51,521.63,Single-ply,SBD,M
Boys,109.77,5,JR Rodriguez,Bushland,108.41,163.29,111.13,179.17,453.59,Single-ply,SBD,M
Boys,109.77,6,Eric Perez,Canyon Randall,104.24,163.29,106.59,174.63,444.52,Single-ply,SBD,M
Boys,109.77,7,Ryan Lambert,Childress,100.61,167.83,97.52,170.1,435.45,Single-ply,SBD,M
Boys,109.77,8,Julian Martinez,Bovina,105.87,158.76,79.38,172.37,410.5,Single-ply,SBD,M
Boys,109.77,9,Chandler Sepulveda,Stinnett West Texas,105.23,142.88,97.52,149.69,390.09,Single-ply,SBD,M
Boys,109.77,10,Casey Boyd,Bushland,100.52,131.54,86.18,142.88,360.61,Single-ply,SBD,M
Boys,109.77,11,Dakota McWhorter,Panhandle,100.24,115.67,90.72,136.08,342.46,Single-ply,SBD,M
Boys,109.77,12,Daniel Ray,Vega,106.32,113.4,74.84,124.74,312.98,Single-ply,SBD,M
Boys,109.77,DQ,Aaron Williams,Sunray,104.33,147.42,,,,Single-ply,SBD,M
Boys,124.74,1,O'Scotty Castro,Dalhart,118.21,308.44,145.15,249.48,703.07,Single-ply,SBD,M
Boys,124.74,2,Abayomi Salinas,Friona,117.93,233.6,129.27,219.99,582.87,Single-ply,SBD,M
Boys,124.74,3,Jobe Allen,Stinnett West Texas,124.1,226.8,129.27,215.46,571.53,Single-ply,SBD,M
Boys,124.74,4,Michael Skyles,Childress,121.02,181.44,104.33,167.83,453.59,Single-ply,SBD,M
Boys,124.74,5,Hunter Pool,Panhandle,117.57,151.95,74.84,147.42,374.21,Single-ply,SBD,M
Boys,124.74,6,Stephen Mosier,Memphis,111.77,131.54,92.99,145.15,369.68,Single-ply,SBD,M
Boys,124.74,7,Camilo de la Rosa,Bovina,111.86,136.08,68.04,165.56,369.68,Single-ply,SBD,M
Boys,124.74,8,Eli Tompkins,Panhandle,122.65,113.4,83.91,131.54,328.85,Single-ply,SBD,M
Boys,124.74,9,Tucker Wise,Panhandle,122.2,102.06,70.31,147.42,319.78,Single-ply,SBD,M
Boys,124.74+,1,Edgar Guerrero,Friona,134.63,285.76,161.03,274.42,721.21,Single-ply,SBD,M
Boys,124.74+,2,Dallam Read,Dalhart,129.64,238.14,133.81,265.35,637.3,Single-ply,SBD,M
Boys,124.74+,3,Kyle Weiss #1,Panhandle,135.71,249.48,161.03,226.8,637.3,Single-ply,SBD,M
Boys,124.74+,4,Austen McNelly,Clarendon,169.19,249.48,129.27,208.65,587.4,Single-ply,SBD,M
Boys,124.74+,5,Justin Barrera,Dalhart,125.74,201.85,90.72,170.1,462.66,Single-ply,SBD,M
Boys,124.74+,6,Wesley Escamilla,Amarillo Highland Park,161.12,165.56,108.86,183.7,458.13,Single-ply,SBD,M
Boys,124.74+,7,Colby Roach,Panhandle,130.45,181.44,92.99,181.44,455.86,Single-ply,SBD,M
Boys,124.74+,8,Jose Duran,Memphis,138.16,136.08,61.23,147.42,344.73,Single-ply,SBD,M
