Division,WeightClassKg,Place,Name,Team,BodyweightKg,Best3SquatKg,Best3BenchKg,Best3DeadliftKg,TotalKg,Equipment,Event,Sex,BirthDate
Boys,55.79,1,Hayden Sechelski,Anderson-Shiro,53.25,102.06,74.84,136.08,312.98,Single-ply,SBD,M,
Boys,59.87,1,Zach Baker,Anderson-Shiro,59.69,133.81,61.23,156.49,351.53,Single-ply,SBD,M,
Boys,59.87,2,Ethan Theriot,Anderson-Shiro,59.87,129.27,63.5,151.95,344.73,Single-ply,SBD,M,
Boys,59.87,3,Ivan Jordan,Centerville,59.51,113.4,83.91,117.93,315.25,Single-ply,SBD,M,
Boys,59.87,4,Colton Pearson,Centerville,57.24,124.74,68.04,117.93,310.71,Single-ply,SBD,M,
Boys,67.13,1,Josh Robinson,Centerville,62.23,142.88,88.45,149.69,381.02,Single-ply,SBD,M,
Boys,67.13,2,Mark Walker,Centerville,64.68,133.81,74.84,138.35,347,Single-ply,SBD,M,
Boys,74.84,1,Haden Theriot,Anderson-Shiro,74.3,161.03,72.57,170.1,403.7,Single-ply,SBD,M,
Boys,74.84,2,Thomas Watson,Franklin,70.03,140.61,92.99,136.08,369.68,Single-ply,SBD,M,
Boys,74.84,3,Kaden Adams,Franklin,70.03,140.61,81.65,147.42,369.68,Single-ply,SBD,M,
Boys,82.1,1,Travis Anderson,Anderson-Shiro,79.92,195.04,102.06,213.19,510.29,Single-ply,SBD,M,
Boys,82.1,2,Dd Starnes,Centerville,77.02,190.51,113.4,188.24,492.15,Single-ply,SBD,M,
Boys,82.1,3,James Webb,Centerville,78.74,174.63,124.74,192.78,492.15,Single-ply,SBD,M,
Boys,82.1,4,Andre Nguyen,Anderson-Shiro,78.2,199.58,97.52,188.24,485.34,Single-ply,SBD,M,
Boys,82.1,5,Dude West,Centerville,81.1,188.24,106.59,183.7,478.54,Single-ply,SBD,M,
Boys,82.1,6,Zach Taylor,Centerville,78.38,174.63,124.74,170.1,469.47,Single-ply,SBD,M,
Boys,82.1,7,Noah Daniel,Anderson-Shiro,79.74,172.37,97.52,185.97,455.86,Single-ply,SBD,M,
Boys,82.1,8,Major Kimbrough,Franklin,78.11,151.95,106.59,170.1,428.64,Single-ply,SBD,M,
Boys,82.1,DQ,Jarvis Haynes,Anderson-Shiro,81.19,260.82,133.81,,,Single-ply,SBD,M,
Boys,89.81,1,Duncan Benton,Anderson-Shiro,88.9,244.94,129.27,201.85,576.06,Single-ply,SBD,M,
Boys,89.81,2,Brayden Youree,Franklin,84.73,231.33,138.35,197.31,566.99,Single-ply,SBD,M,
Boys,89.81,3,Cameron Pate,Centerville,87.63,204.12,113.4,174.63,492.15,Single-ply,SBD,M,
Boys,89.81,4,Conner Seigle,Anderson-Shiro,84.28,165.56,74.84,158.76,399.16,Single-ply,SBD,M,
Boys,89.81,5,William Bagley,Anderson-Shiro,86,154.22,90.72,154.22,399.16,Single-ply,SBD,M,
Boys,99.79,1,Levodrick Phillips,Centerville,93.26,229.06,147.42,204.12,580.6,Single-ply,SBD,M,
Boys,99.79,2,Levi Jones,Anderson-Shiro,95.35,185.97,140.61,199.58,526.17,Single-ply,SBD,M,
Boys,99.79,3,Cemion Smith,Franklin,90.9,204.12,99.79,195.04,498.95,Single-ply,SBD,M,
Boys,99.79,4,Caden Hooter,Anderson-Shiro,94.71,188.24,102.06,204.12,494.42,Single-ply,SBD,M,
Boys,109.77,1,Nathan Villegas,Anderson-Shiro,101.51,183.7,90.72,176.9,451.32,Single-ply,SBD,M,
Boys,109.77,2,Nate Frank,Franklin,104.05,170.1,104.33,161.03,435.45,Single-ply,SBD,M,
Boys,109.77,3,Ethan Curtsinger,Franklin,101.33,154.22,108.86,140.61,403.7,Single-ply,SBD,M,
Boys,124.74,1,Andrew Narro,Franklin,115.12,258.55,142.88,208.65,610.08,Single-ply,SBD,M,
Boys,124.74,2,Cyrus Fuchs,Franklin,118.02,204.12,113.4,183.7,501.22,Single-ply,SBD,M,
Boys,124.74,3,Trent Ellison,Franklin,112.85,156.49,92.99,154.22,403.7,Single-ply,SBD,M,
Boys,124.74,DQ,Keith Bohannon,Centerville,120.56,133.81,102.06,,,Single-ply,SBD,M,
Boys,139.71,1,Keaton Crowley,Centerville,126.28,192.78,147.42,188.24,528.44,Single-ply,SBD,M,
Boys,139.71,2,Arturo Hernandez,Anderson-Shiro,135.26,142.88,83.91,170.1,396.89,Single-ply,SBD,M,
