Name,Count
A. Black,3
A. Costa,2
A. Gordon,3
A. Gutierrez,3
A. Hayes,5
A. Jones,16
A. King,6
A. Kirby,2
A. Li,3
A. Miller,8
A. Morris,3
A. Myers,4
A. Reed,4
A. Robinson,5
A. Smith,34
A. Watts,3
A. Wilson,8
Aaron Adams,2
Aaron Allen,2
Aaron Baxter,2
Aaron Bishop,2
Aaron Byrne,3
Aaron Cooper,2
Aaron Flores,3
Aaron Harden,2
Aaron Hopkins,2
Aaron Johnson,18
Aaron Leon,2
Aaron Phillips,2
Aaron Stroud,2
Aaron Tate,2
Aaron Thomas,7
Aaron Thompson,2
Aaron Todd,2
Abigail Bush,2
Abby Esquivel,3
Abby Smith,3
Abraham Ramirez,3
Adam Anderson,4
Adam Baird,3
Adam Beebe,2
Adam Bell,2
Adam Bentley,2
Adam Berry,2
Adam Browne,3
Adam Burke,3
Adam Campbell,3
Adam Carroll,2
Adam Contreras,2
Adam Cooper,2
Adam Davies,3
Adam Day,3
Adam Drover,2
Adam Elkins,3
Adam Garcia,2
Adam Guerrero,2
Adam Hawkins,3
Adam Henson,2
Adam Holmes,3
Adam Howell,3
Adam Jackson,5
Adam James,4
Adam Jones,11
Adam Kennedy,2
Adam Mack,2
Adam Miller,10
Adam Murray,2
Adam Reed,2
Adam Roberts,2
Adam Saunders,2
Adam Scott,3
Adam Shaw,2
Adam Thomas,5
Adam Ward,4
Adam Williams,6
Adam Wright,3
Aditya Sharma,2
Adrian Cooper,2
Adrian Cruz,2
Adrian Hernandez,5
Adrian Herrera,3
Adrian Lopez,9
Adrian Martinez,16
Adrian Olsen,2
Aidan Villanueva,2
AJ Jones,2
Aj Valdez,2
Al Brown,2
Alan Chan,2
Alan Hernandez,8
Alan Howard,2
Alan Lewis,2
Alan Sanchez,2
Alan Zhou,2
Alasdair MacLeod,2
Albert Mata,3
Albina Epshteyn,2
Alejandra Reyes,3
Alejandro Maldonado,3
Alejandro Perez,2
Aleksandr Aleksandrov,12
Aleksandr Berezin,7
Aleksandr Dementev,2
Aleksandr Eremin,5
Aleksandr Eskin,2
Aleksandr Fomichev,4
Aleksandr Kondratyev,5
Aleksandr Koshelev,4
Aleksandr Kuznetsov,47
Aleksandr Lednev,2
Aleksandr Malkov,5
Aleksandr Marchenko,4
Aleksandr Miroshnichenko,2
Aleksandr Pirogov,2
Aleksandr Plotnikov,3
Aleksandr Popov,37
Aleksandr Sergeev,19
Aleksandr Shevchenko,9
Aleksandr Smolkin,2
Aleksandr Starodubov,2
Aleksandr Tretyakov,3
Aleksandr Trusov,3
Aleksey Alekseenko,3
Aleksey Grachev,3
Aleksey Kolenko,2
Aleksey Kozlov,11
Aleksey Kuzmenko,2
Aleksey Malyshev,4
Aleksey Nikulin,7
Aleksey Pavlovskiy,2
Aleksey Petukhov,7
Aleksey Popov,22
Aleksey Sitnikov,4
Aleksey Solovyev,11
Aleksey Tischenko,2
Aleksey Vasilev,13
Alena Podelko,2
Alena Vasileva,3
Alex Acuna,3
Alex Adams,2
Alex Aguilar,5
Alex Alaniz,2
Alex Allen,3
Alex Alvarez,4
Alex Anderson,3
Alex Avalos,2
Alex Barron,2
Alex Bates,2
Alex Bazan,3
Alex Buck,2
Alex Bustamante,3
Alex Butler,3
Alex Campbell,6
Alex Chen,3
Alex Clayton,2
Alex Cook,4
Alex Cuevas,4
Alex Davies,3
Alex Dean,2
Alex Diaz,3
Alex Edwards,3
Alex Ellis,2
Alex Estrada,3
Alex Forrest,2
Alex Franco,2
Alex Garcia,22
Alex Georgeou,2
Alex Gonzales,8
Alex Gonzalez,8
Alex Guerrero,4
Alex Hall,4
Alex Hernandez,25
Alex Hicks,2
Alex Howe,2
Alex Ingram,3
Alex Jackson,4
Alex Jensen,2
Alex Jimenez,3
Alex Johnson,13
Alex Lau,2
Alex Lawson,2
Alex Lopez,9
Alex Low,2
Alex Lowe,2
Alex Martin,10
Alex Martinez,15
Alex McNeil,2
Alex Mendoza,5
Alex Michael,2
Alex Miller,4
Alex Mitchell,3
Alex Montez,2
Alex Morrison,2
Alex Munoz,2
Alex Nelson,3
Alex Ochoa,2
Alex Ortiz,4
Alex Palmer,3
Alex Phillips,2
Alex Quintero,3
Alex Ramos,6
Alex Rivera,5
Alex Roberson,2
Alex Robertson,3
Alex Robinson,2
Alex Rodriguez,16
Alex Saenz,2
Alex Salazar,2
Alex Schmidt,2
Alex Schutz,2
Alex Smith,14
Alex Soto,3
Alex Torres,6
Alex Trinidad,2
Alex Turner,3
Alex Villanueva,2
Alex White,4
Alex Wiley,2
Alex Williams,10
Alex Willis,2
Alex Wilson,5
Alex Wright,5
Alex Young,4
Alexander Gonzalez,4
Alexander Gutierrez,3
Alexander Hickman,2
Alexander Jackson,2
Alexander Nguyen,5
Alexandra Foster,2
Alexis Alfaro,2
Alexis Ayala,2
Alexis Delgado,4
Alexis Flores,5
Alexis Garcia,9
ALexis Gomez,3
Alexis Gonzalez,6
Alexis Guajardo,2
Alexis Gutierrez,3
Alexis Guzmán,3
Alexis Iglesias,2
Alexis Lara,2
Alexis Lopez,2
Alexis Martinez,16
Alexis Ortiz,2
Alexis Perez,2
Alexis Rangel,2
Alexis Rodriguez,9
Alexis Sanchez,2
Alicia Bell,2
Alicia Carter,2
Alik Alifkhanov,2
Alina Gordeeva,2
Alina Kostina,2
Alina Yakovleva,2
Alison Wright,2
Allen Clark,4
Allen Davis,6
Allen Fisher,2
Allen Smith,4
Allison Kelly,2
Allison Wilson,2
Alondra Martinez,5
Alondra Salinas,2
Alyssa Brown,5
Alyssa Canales,2
Alyssa Peterson,2
Alyssa Smith,3
Amanda Cole,2
Amanda Kelly,3
Amanda Lawrence,2
Amanda Long,2
Amanda Martin,4
Amanda O'Connor,2
Amanda Olivarez,2
Amanda Perez,3
Amanda Reilly,2
Amanda Rodriguez,5
Amanda Smith,8
Amanda Thompson,4
Amanda Torres,3
Amanda Trevino,2
Amanda Walker,3
Amardeep Singh,2
Amber House,2
Amber Lopez,2
Amit Rai,2
Amy Brown,2
Amy Evans,4
Amy Hudson,2
Amy Hughes,3
Amy Moran,3
Amy O'Neill,2
Amy Sanders,2
Amy Smith,5
Amy Wilson,2
Ana Perez,3
Anastasiya Bondarenko,3
Anastasiya Danilova,3
Anastasiya Derevyanko,3
Anastasiya Kalashnikova,2
Anastasiya Kalinina,5
Anastasiya Kozlova,4
Anastasiya Kravchenko,2
Anastasiya Kulishova,2
Anastasiya Makarova,3
Anastasiya Mankevich,2
Anastasiya Melnikova,3
Anastasiya Nekrasova,2
Anastasiya Pasichnik,2
Anastasiya Polyakova,4
Anastasiya Romanova,2
Anastasiya Savchenko,2
Anastasiya Semenova,7
Anastasiya Zakharchenko,2
Anatoliy Baranov,2
Anatoliy Cherepanov,2
Anatoliy Fedchenko,2
Anatoliy Gorbunov,2
Anatoliy Klimenko,2
Anatoliy Koval',2
Anatoliy Panchenko,3
Anatoliy Pankov,2
Anatoliy Pavlov,4
Anatoliy Volkov,3
Anatoliy Yankovskiy,2
André Garcia,4
Andrea Neumann,2
Andrea Russo,2
Andrea Ventura,2
Andrea Vila,2
Andreas Nilsson,2
Andrew Adams,4
Andrew Baker,2
Andrew Barber,3
Andrew Bennett,3
Andrew Billings,3
Andrew Bonner,2
Andrew Brown,16
Andrew Cargill,2
Andrew Cooper,3
Andrew Davis,8
Andrew Dixon,2
Andrew French,3
Andrew Gregory,2
Andrew Hamel,3
Andrew Hawkins,2
Andrew Johnson,13
Andrew Kelleher,2
Andrew Lamb,3
Andrew Lewis,5
Andrew Lynch,2
Andrew Marsh,2
Andrew Miller,14
Andrew Murphy,4
Andrew Ngo,2
Andrew Nguyen,12
Andrew Nicholson,2
Andrew O'Connor,3
Andrew Peters,3
Andrew Platt,2
Andrew Roberts,5
Andrew Rose,3
Andrew Ross,2
Andrew Ryan,3
Andrew Shaw,2
Andrew Smith,26
Andrew Stewart,4
Andrew Tang,3
Andrew Thompson,7
Andrew Tucker,3
Andrew Ward,5
Andrew Watt,2
Andrew Williams,9
Andrew Wolfe,2
Andrew Wright,4
Andrew Young,6
Andrews,7
Andrey Aksenov,4
Andrey Belyaev,5
Andrey Chesnokov,4
Andrey Elkin,2
Andrey Kim,4
Andrey Konovalov,5
Andrey Kuzmichev,3
Andrey Lavrentyev,2
Andrey Morozov,11
Andrey Pankov,4
Andrey Pavlov,16
Andrey Timofeev,2
Andrey Velchev,2
Andrey Vorobyev,2
Andrey Voronkov,2
Andrey Zubarev,2
Andriy Glebov,2
Andriy Koval',3
Andriy Litvin,2
Andy Davies,2
Andy Gomez,4
Andy Hernandez,4
Andy Huang,3
Andy Jackson,4
Andy Miller,3
Andy Murray,2
Andy Parker,3
Andy Tran,5
Angel Ceja,2
Angel Chavez,2
Angel Esquivel,2
Angel Flores,2
Angel Garcia,10
Angel Gonzales,4
Angel Gonzalez,6
Angel Hernandez,14
Angel Jimenez,2
Angel Longoria,4
Angel Lopez,3
Angel Martinez,10
Angel Mendez,2
Angel Posadas,2
Angel Ramos,3
Angel Rodríguez,13
Angel Romero,2
Angel Sanchez,6
Angel Tamayo,2
Angel Torres,5
Angela Garcia,2
Angela Taylor,2
Anh Phan,2
Ann Morgan,2
Anna Bailey,2
Anna Ignatyuk,2
Anna Ilina,2
Anna Ivanova,17
Anna Lee,2
Anna Nikitina,5
Anna Nikolaeva,2
Anna Trofimova,3
Anni Rasanen,2
Anoop Singh,2
Anthony Bui,3
Anthony Clark,6
Anthony Collins,3
Anthony Cooper,6
Anthony Davis,4
Anthony Finn,3
Anthony Green,3
Anthony Hambric,2
Anthony Harris,3
Anthony Lee,5
Anthony LoPresti,2
Anthony Martinez,25
Anthony Morales,2
Anthony Nguyen,5
Anthony Oliveira,2
Anthony Perry,2
Anthony Powell,2
Anthony Salas,3
Anthony Smith,14
Anthony Tassin,2
Anthony Thompson,4
Anthony Tran,4
Anthony Truong,2
Anthony White,5
Anthony Young,4
Anton Alekseev,3
Anton Ermolov,2
Anton Kolesnikov,3
Anton Lysenko,3
Anton Ovchinnikov,3
Anton Petukhov,3
Anton Terentyev,3
Antonio Rivera,2
April Garcia,2
April Smith,2
Ariana Perez,5
Ariel Garcia,2
Ariel Hernandez,3
Ariel Lopez,4
Ariel Martinez,3
Ariel Munoz,2
Artem Afanasyev,2
Artem Ivankov,2
Artem Ivanov,13
Artem Kim,2
Artem Kornev,2
Artem Kovalchuk,2
Artem Mikheev,2
Artem Mirzoyan,3
Artem Novikov,5
Artem Petrov,13
Artem Safonov,4
Artem Trofimov,2
Artem Zaytsev,9
Artur Ogly,2
Artur Sarkisyan,2
Arturo Gonzales,2
Asa Wallin,2
Ash Roberts,2
Ashley Armstrong,2
Ashley Brown,7
Ashley Butler,2
Ashley Evans,2
Ashley Fuller,2
Ashley Garcia,8
Ashley Gibson,3
Ashley Gonzalez,5
Ashley Gray,2
Ashley Horner,2
Ashley Larson,3
Ashley Lewis,3
Ashley Orth,2
Ashley Parker,2
Ashley Ramirez,4
Ashley Sanders,2
Ashley Schultz,2
Ashley Taylor,5
Ashley Walsh,2
Ashley Watson,2
Ashley Williams,2
Ashley Wilson,3
Ashton Brown,2
Ashton Glenn,2
Ashton Marquez,2
Ashton Strange,3
Atkinson,4
Aubrey Barnes,2
Aubrey Williamson,2
Austen Flores,2
Austin Cooper,4
Austin Dodd,2
Austin Hill,3
Austin Martin,5
Austin Miller,9
Austin Oliver,3
Austin Taylor,9
Austin Turner,4
Austin Walker,6
Avary Davis,2
Avery Brown,4
Avery Clark,3
Avery Davis,2
Avery Jackson,2
Avery Miller,3
Avery Rodriguez,4
Avtar Singh,5
Axel Hernandez,4
B. Beasley,3
B. Burton,6
B. Crow,3
B. Dunn,5
B. Hall,10
B. Haskins,2
B. Laney,2
B. Leach,3
B. Lynch,2
B. Miller,25
B. Moore,13
B. Oden,4
B. Owen,3
B. Owens,6
B. Ray,5
B. Riggs,6
B. Rush,4
B. Simpson,4
B. Stewart,6
B. Walsh,2
B. Wood,2
Bailey Allen,3
Bailey Barrett,2
Bailey DeViney,2
Bailey Hughes,2
Bailey Jones,4
Bailey Robinson,2
Bailey Smith,3
Bailey White,2
Baljit Singh,6
Barbara Lee,2
Barry Evans,3
Barry Smith,3
Barry Wright,2
Beau Moore,3
Ben Burgess,2
Ben Burton,2
Ben Carter,2
Ben Coleman,2
Ben Crawford,2
Ben Davis,5
Ben Gibbs,3
Ben Holmes,2
Ben Jackson,3
Ben Johnson,9
Ben Jones,8
Ben Kovacs,2
Ben Larson,4
Ben McDonald,3
Ben Miller,4
Ben Mills,2
Ben Nelson,3
Ben Parkinson,2
Ben Phillips,2
Ben Scott,5
Ben Smith,13
Ben Taylor,6
Ben Thomson,2
Ben Wallace,2
Ben White,4
Ben Williams,5
Ben Wright,4
Benedikt Magnússon,2
Benjamin Moore,2
Benjamin Smith,7
Benjamin Wilson,3
Berry,6
Beth Taylor,3
Beth Thomas,2
Bill Allen,2
Bill Bradford,6
Bill Brown,7
Bill Dunn,3
Bill Grant,2
Bill Griffin,2
Bill Henderson,2
Bill Jones,2
Bill Kelly,3
Bill Miller,3
Bill Porter,2
Bill Taylor,5
Bill West,3
Bill Winter,2
Billy Watson,3
Blair Bennett,2
Blake Newman,2
Blake Richards,2
Blake Rogers,3
Blake Taylor,2
Blake Walters,2
Bob Evans,4
Bob Gilmore,2
Bob Nelson,2
Bob Seymour,2
Bob Sullivan,2
Bob Zaworski,2
Bobby Adams,3
Bobby Moore,3
Bobby Morgan,2
Bogdan Ivanov,2
Boris Tsvetkov,2
Brad Baker,2
Brad Curtis,2
Brad Evans,2
Brad Johnson,7
Brad Lewis,3
Brad Olson,4
Brad Smith,6
Brad Wagner,2
Brad Webster,2
Brad Williams,4
Bradley Horne,2
Brady Stewart,2
Braeden Smith,2
Brandon Allen,6
Brandon Barber,2
Brandon Boyd,3
Brandon Byrd,3
Brandon Erickson,2
Brandon Farrow,2
Brandon Gardner,4
Brandon Greene,3
Brandon Hernandez,11
Brandon Huang,2
Brandon Jones,15
Brandon Lee,11
Brandon Maddox,2
Brandon Martin,3
Brandon Matthews,3
Brandon McIntyre,2
Brandon Morgan,2
Brandon Parker,2
Brandon Perdue,2
Brandon Perez,7
Brandon Peters,2
Brandon Pierce,4
Brandon Price,2
Brandon Ramirez,5
Brandon Rios,2
Brandon Rodriguez,9
Brandon Russell,2
Brandon Scott,4
Brandon Simpson,5
Brandon Stephens,2
Brandon Stevens,3
Brandon Turner,7
Brandon White,3
Brandon Williams,15
Brandon Wright,5
Brayden Walker,3
Bree Smith,2
Brendan Graham,2
Brendan King,2
Brendan Murphy,3
Brendon Davis,3
Brent Drake,2
Brent Jones,3
Bret King,2
Brett Johns,3
Brett Scott,2
Brian Bates,3
Brian Bell,2
Brian Bishop,3
Brian Bland,2
Brian Boyer,2
Brian Chen,3
Brian Clark,4
Brian Connelly,2
Brian Crow,3
Brian Curtis,2
Brian Goldstein,2
Brian Gonzales,2
Brian Grant,2
Brian Hall,3
Brian Hill,3
Brian Le,4
Brian Marquez,2
Brian Reynolds,7
Brian Silk,2
Brian Sullivan,5
Brian Tejada,2
Brian White,5
Brianna Garcia,6
Brianna King,2
Brianna Paredes,2
Brianna Rodriguez,4
Brianne Chavez,2
Bridget Smith,3
Britt Lewis,2
Brittany Rodriguez,4
Brittany Rosales,2
Brittany Smith,5
Brittany Wilson,2
Brock Allen,2
Brooke Stewart,2
Brooks,9
Bruce Koch,2
Bruce Miller,3
Bruce Wilson,3
Bryan Barrett,2
Bryan Hill,2
Bryan Simms,2
Bryan Smith,11
Bryan Williams,2
Bryan Wong,2
Bryanna Perez,2
Bryce Hale,2
Bryce Johnson,8
Bryden Wilson,2
Byron Johnson,3
Byron White,2
C Armstrong,2
C. Able,2
C. Alitz,2
C. Brown,35
C. Braun,2
C. Bryant,8
C. Campbell,4
C. Crawford,4
C. Fernandez,3
C. Hess,2
C. Madden,3
C. Magee,2
C. Mitchell,7
C. Morris,5
C. Olson,4
C. Palmer,4
C. Ray,3
C. Rowe,3
C. Simmons,3
C. Tucker,2
C. Walker,12
C. Wong,3
C. Yates,2
Cade Johnson,6
Caitlin Berry,3
Caitlin Hayes,2
Caitlin Martinez,2
Caleb Brown,9
Caleb MacLeod,2
Caleb Moore,4
Caleb Smith,22
Caleb Watson,2
Caleb Williams,10
Callum Ashton,2
Callum Waters,2
Calvin Smith,3
Cam Smith,2
Cameron Baker,4
Cameron Brown,5
Cameron Cantrell,2
Cameron Collier,2
Cameron Collins,3
Cameron Cook,3
Cameron Cunningham,2
Cameron Davidson,2
Cameron Davis,6
Cameron Gray,5
Cameron Hall,2
Cameron King,2
Cameron McLean,2
Cameron Moore,4
Cameron Morris,2
Cameron Reynolds,2
Cameron Smith,11
Cameron Stepp,2
Cameron Taylor,4
Cameron Watson,2
Cameron Wells,2
Cameron Williams,11
Carl Berg,2
Carl Johnson,4
Carl Jones,2
Carl Rogers,2
Carl Thompson,2
Carla Perez,2
Carlos Acosta,4
Carlos Hernandez,18
Carlos Huerta,3
Carlos Martinez,32
Carlos Moreno,2
Carlos Olmedo,2
Carlos Ortiz,7
Carlos Perez,9
Carlos Ramirez,7
Carlos Ramos,2
Carlos Reyes,5
Carlos Rodriguez,12
Carlos Romero,4
Carmen Rodriguez,2
Carol Taylor,2
Carolina Ramos,3
Carolyn Tran,2
Carson Roberts,2
Carson Ward,3
Casey Castillo,2
Casey Clark,3
Casey Dunn,2
Casey Gamble,2
Casey Jensen,2
Casey Smith,3
Casey Walker,2
Casey Webb,2
Casey Williams,3
Cassidy Smith,2
Catherine Hall,2
Catherine White,2
Celeste Sanchez,2
Cesar Jimenez,2
Chad Cruse,2
Chad Davis,4
Chad Fleming,2
Chad Holmes,2
Chad Mitchell,3
Chad Walker,2
Chad Ward,3
Chance Cummings,3
Chandler Holland,2
Chandler Rogers,2
Chandler Spivey,2
Charles Anderson,2
Charles Gonzales,2
Charles Harris,2
Charles Lambert,2
Charles Lee,3
Charles Montalbano,2
Charles Richards,2
Charlie Anderson,2
Charlie Connor,2
Charlie Evans,2
Charlie Harris,2
Charlie Jones,3
Charlie Lee,2
Charlie Mitchell,2
Charlie Nichols,2
Charlie Stevens,2
Charlie Thomas,3
Charlie Williams,3
Charlie Wilson,2
Charlotte Anderson,2
Charlotte Clarke,2
Charnie Tucker,2
Chase Martin,2
Chase Patterson,3
Chelsea Moore,2
Chen,3
Cheryl Williams,3
Cheyenne Gilbert,2
Chloe Brown,3
Chloe Mitchell,2
Chloe Thomas,2
Chris Acosta,2
Chris Anderson,12
Chris Arnold,7
Chris Baker,8
Chris Bartley,2
Chris Blair,2
Chris Boyd,3
Chris Bright,2
Chris Brown,17
Chris Budd,3
Chris Butler,5
Chris Campbell,3
Chris Carpenter,3
Chris Carroll,2
Chris Carter,8
Chris Collins,8
Chris Cox,3
Chris Cummings,2
Chris Davey,2
Chris Dean,3
Chris Francis,2
Chris Galvan,4
Chris Garcia,18
Chris Garza,4
Chris Gonzales,5
Chris Graham,7
Chris Grant,4
Chris Green,5
Chris Hamilton,2
Chris Hartman,2
Chris Henderson,5
Chris Hensley,2
Chris Hughes,6
Chris Jackson,18
Chris Janssen,2
Chris Jenkins,10
Chris Johnson,26
Chris Johnston,3
Chris Jones,29
Chris Kennedy,6
Chris King,3
Chris Knight,3
Chris Lane,3
Chris Larson,2
Chris Lentini,2
Chris Lim,2
Chris Lindsay,2
Chris Marshall,4
Chris Mason,3
Chris Mitchell,4
Chris Moody,2
Chris Moore,10
Chris Morgan,4
Chris Morris,9
Chris Mott,2
Chris Murray,11
Chris Nelson,7
Chris Newman,4
Chris Nicholson,2
Chris Parker,7
Chris Pike,2
Chris Porter,2
Chris Pugh,2
Chris Robinson,14
Chris Ross,3
Chris Scott,11
Chris Sheppard,2
Chris Simpson,2
Chris Smith,36
Chris Stark,2
Chris Stevens,3
Chris Street,2
Chris Sumner,3
Chris Taylor,17
Chris Turner,4
Chris Watson,2
Chris Webber,4
Chris Wells,3
Chris Williams,17
Chris Wilson,10
Chris Wood,9
Chris Woods,2
Christian Alvarez,5
Christian Aquino,2
Christian Contreras,3
Christian Everett,2
Christian Fite,2
Christian Green,2
Christian Lopez,10
Christian Moore,2
Christian Navarro,6
Christian Ramirez,7
Christian Stevenson,2
Christian Williams,9
Christina Hall,2
Christina Ryan,2
Christina Sanchez,2
Christine Miller,3
Christine Wilson,2
Christopher Anderson,7
Christopher Austin,3
Christopher Bell,2
Christopher Chavez,3
Christopher Glover,2
Christopher Johnson,8
Christopher Marshall,2
Christopher Parker,4
Christopher Robinson,2
Christopher Roth,2
Christopher Ryan,3
Christopher Tran,5
Christopher Watson,2
Christopher Wheeler,4
Christopher Whittaker,2
Christopher Wilson,3
Christopher Young,3
CJ Mendoza,2
CJ Smith,2
Claire Taylor,2
Clarissa Rivera,2
Claudia Avila,2
Claudia Silva,2
Clay Patterson,2
Clayton Wilson,2
Clint Smith,3
Clinton Anderson,2
Clinton Lee,2
Cody Banks,3
Cody Brown,8
Cody Hanson,3
Cody Harvey,2
Cody Miller,4
Cody Morris,3
Cody Prather,3
Cody Thornton,2
Cody Wilson,6
Colby Henry,3
Colby Wilson,3
Cole Barton,4
Cole Davis,2
Cole Edwards,4
Cole Gallant,2
Cole Smith,5
Colin Miller,3
Colin Robinson,2
Colin Wright,2
Collin Grant,2
Collin Rhodes,2
Colton Smith,10
Colton Stewart,2
Conner Young,3
Connor Evans,3
Connor Long,2
Connor Lynch,3
Connor Moore,4
Connor Smith,7
Connor Young,2
Corey Anderson,3
Corey Brooks,3
Corey Clark,2
Corey Grisham,2
Corey Jones,6
Corey Walker,2
Cornelius Smith,2
Cortney Athey,2
Cortney Young,2
Cory Fisher,2
Cory Harris,3
Courtney Anderson,2
Courtney Brown,2
Courtney Davis,2
Courtney Lee,3
Courtney Lynch,2
Courtney Myers,2
Courtney Smith,4
Courtney Thompson,2
Courtney Ward,2
Craig,2
Craig Brown,4
Craig Smith,3
Craig Taylor,4
Cristian Garcia,5
Cristian Gonzalez,3
Cristian Hernandez,3
Cross,4
Cruz Garza,2
Curtis Miller,3
Curtis Wright,2
Cyle Johnson,2
D. Angelo,3
D. Arrington,2
D. Avid,3
D. Barnes,4
D. Bellamo,2
D. Campbell,11
D. Carter,9
D. Collins,7
D. Davidson,3
D. Del Toro,2
D. Evans,12
D. Hopkins,4
D. Jones,15
D. Kay,3
D. Lee,15
D. Lewis,10
D. Lloyd,3
D. Martin,14
D. Nye,2
D. O'Brien,3
D. Ollar,2
D. Orr,6
D. Raymond,2
D. Reeves,3
D. Ross,8
D. Summers,5
D. Taylor,20
D. Wilson,39
Dakota Duffy,2
Dakota Jones,4
Dakota Kellett,2
Dakota Williams,2
Dale Murray,3
Dale Smith,3
Dallas Green,3
Dallas Smith,3
Dalton Creech,2
Dalton Davis,4
Dan Brown,7
Dan Cohen,2
Dan Collins,3
Dan Crowe,2
Dan Gay,2
Dan Howard,3
Dan Jackson,2
Dan Martinez,3
Dan Mason,5
Dan O'Brien,4
Dan Ortiz,2
Dan Thompson,2
Dan Watkins,2
Dan Williams,7
Dan Young,3
Dana Sands,2
Dana Smith,2
Dana Walker,3
Dana Williamson,2
Daniel Acuna,2
Daniel Austin,2
Daniel Ball,2
Daniel Bedford,2
Daniel Bell,4
Daniel Bolton,2
Daniel Brown,7
Daniel Burns,3
Daniel Byrd,2
Daniel Clarke,3
Daniel Collins,4
Daniel Cook,3
Daniel Dale,3
Daniel Fisher,7
Daniel Foley,3
Daniel Freeman,2
Daniel Gallagher,2
Daniel Goodwin,2
Daniel Hall,5
Daniel Heller,2
Daniel Jackson,4
Daniel James,4
Daniel Jay,2
Daniel Johnson,6
Daniel Jones,6
Daniel Keil,2
Daniel Kotov,2
Daniel Lee,14
Daniel Lewis,5
Daniel Lockhart,2
Daniel Lopez,12
Daniel Mann,2
Daniel Martin,11
Daniel Martinez,27
Daniel Mason,2
Daniel Moreno,3
Daniel Morris,3
Daniel Nguyễn,4
Daniel O'Neill,2
Daniel Patterson,2
Daniel Pearson,3
Daniel Rodriguez,19
Daniel Russell,5
Daniel Ryan,2
Daniel Scott,3
Daniel Shaver,2
Daniel Shaw,3
Daniel Stafford,2
Daniel Thomas,3
Daniel Tinajero,2
Daniel Vo,2
Daniel Wade,4
Daniel Watson,4
Daniel Young,4
Daniela Gonzalez,3
Danielle Byrne,2
Danielle DeWitt,2
Danielle Johnson,4
Daniil Fomin,3
Daniil Kovalenko,4
Danil Lebedev,2
Danila Sokolov,2
Danny Brown,3
Danny Jones,2
Danny Lee,4
Danny Li,3
Danny O'Brien,3
Danny Rodriguez,2
Danny Smith,4
Danny Stone,3
Danny Torres,2
Darian Torres,2
Darius Jones,4
Darrell White,2
Darren Burns,2
Darren Smith,5
Darren Stewart,2
Darryl Thomas,3
Darya Frolova,2
Darya Grigoryeva,2
Darya Ivanova,9
Darya Litvinova,2
Darya Mikhaylova,2
Dave Allen,2
Dave Brown,7
Dave Crawford,4
Dave Foster,2
Dave Gilbert,2
Dave Harris,2
Dave Hewlen,2
Dave Marino,2
Dave Murphy,2
Dave Richardson,5
Dave Scott,2
Dave Smith,18
Dave Wheeler,2
David Alexander,5
David Allen,12
David Anderson,13
David Andrews,4
David Baker,5
David Balsdon,2
David Bell,10
David Bennett,6
David Berg,2
David Birch,2
David Brown,25
David Butler,8
David Carroll,3
David Carter,8
David Clarke,3
David Cooper,4
David Courtney,2
David David,2
David Decanini,2
David Deleon,2
David Farkas,2
David Fitzgerald,3
David Garcia,22
David Gibson,3
David Goldstein,2
David Green,4
David Hanson,4
David Henderson,2
David Herrera,6
David Hickey,2
David Hudson,3
David Hughes,7
David Hurst,2
David Johnston,5
David Jones,16
David Kemp,2
David Kim,6
David Koch,3
David Lee,11
David Lester,2
David Lewis,5
David Long,4
David Low,2
David Lu,3
David Mannering,2
David Martin,10
David Martinez,18
David Mason,3
David May,5
David McKenzie,2
David Miller,13
David Moore,15
David Morris,4
David Murray,3
David Neil,3
David Nilsson,2
David O'Sullivan,2
David Oakley,2
David Ortiz,5
David Osborn,2
David Parr,2
David Patterson,4
David Pye,2
David Ramsey,2
David Ritter,3
David Roberts,6
David Rogers,4
David Samuel,2
David Sanchez,13
David Shepherd,4
David Simpson,4
David Sloan,3
David Son,10
David Susa,3
David Thomas,20
David Todd,2
David Torres,7
David Van,2
David Vaughan,2
David Wagner,3
David Watkins,2
David Watson,4
David Webb,7
David White,6
David Wiley,3
David Williams,17
David Williamson,2
David Wilson,16
David Yates,2
Dawn Bates,2
Dawson Windham,2
Dean Wright,2
Deborah Wilson,2
Denim Fields,2
Denis Afanasev,5
Denis Arkhipov,4
Denis Bragin,4
Denis Chernov,8
Denis Dmitriev,3
Denis Ilyushechkin,2
Denis Kornienko,3
Denis Makeev,5
Denis Mishin,3
Denis Nikonov,3
Denis Ostrovskiy,2
Denis Ponomarev,3
Denis Vorobyov,2
Denis Voronin,4
Dennis,2
Dennis Arnold,2
Dennis Kim,2
Dennis Smith,7
Dennis Wright,2
Dennis Young,2
Derek Barker,2
Derek Miller,4
Derek Ward,2
Derek Williams,3
Destiny Cox,3
Destiny Lopez,3
Destiny Perez,4
Devin Cantu,2
Devin Davis,2
Devin Gonzalez,2
Devin Jordan,2
Devin Murray,2
Devin Turner,2
Devin Williams,2
Devon Miles,2
Diego Perez,6
Diego Valdez,3
Dillon Anderson,2
Dillon Davis,5
Dillon Peterson,2
Dmitriy Demin,4
Dmitriy Dmitriev,12
Dmitriy Frolov,11
Dmitriy Grigoryev,9
Dmitriy Ivanov,56
Dmitriy Kovalenko,7
Dmitriy Kozlov,16
Dmitriy Lavrentev,2
Dmitriy Romanov,7
Dmitriy Sedov,5
Dmitriy Shabalin,3
Dmitriy Solovyev,11
Dmitriy Ubeykon,2
Dmitriy Verbitskiy,2
Dmitro Alekseev,2
Dmitro Bondarev,2
Dmitro Grigorev,2
Dmitro Kozak,2
Dmitro Kulikov,2
Dmitro Levashov,2
Dominic Hill,2
Dominique de la Rosa,3
Dominique Fisher,2
Dominique Harris,2
Dominique Hill,2
Dominique Smith,2
Don Johnson,5
Don Jones,4
Don Young,2
Donna Mears,2
Donnie Thompson,2
Donovan Carter,3
Doug Allen,2
Doug Arnold,2
Doug Ferguson,2
Doug Mitchell,2
Doug Moore,2
Doug Williams,4
Douglas Taylor,2
Drake Stephens,2
Drew Anderson,2
Drew Coffey,2
Drew Davis,2
Drew Simpson,2
Duane Green,2
Dustin Brooks,2
Dustin Gamblin,2
Dusty Young,2
Duy,2
Duy Tran,4
Dwayne Green,2
Dwayne Taylor,2
Dylan Cook,2
Dylan Crawford,3
Dylan Evans,4
Dylan Finley,2
Dylan Hall,4
Dylan Johnson,6
Dylan Jones,7
Dylan McDonald,4
Dylan Nelson,3
Dylan Parker,2
Dylan Reeves,3
Dylan Reid,2
Dylan Roach,2
Dylan Smith,17
Dylan Wilson,3
Dzhobu Zakhidov,2
E. Ellis,2
E. Godfrey,5
Ed Jackson,2
Ed Riley,3
Ed Smith,5
Eddie Jones,2
Eddie Morgan,2
Eddie Thorpe,2
Eddie Torres,2
Edgar Martinez,8
Edgar Mkrtchyan,2
Eduard Dolgov,2
Eduardo Garcia,8
Eduardo Ramirez,2
Eduardo Velasquez,2
Edward Alexander,2
Edward Black,2
Edward Owen,2
Edward Taylor,4
Edward Wilson,3
Egor Ivanov,9
Egor Pirogov,2
Egor Vasilev,2
Ekaterina Vorobeva,3
Elaine Jackson,2
Elchin Mamedov,2
Eldar Agaev,2
Eleanor Mawson,2
Elena Dyachenko,2
Elena Litvinova,2
Eli Thomas,2
Elias George,2
Elias Vargas,2
Elijah Williams,4
Elizabeth Barnard,2
Elizabeth Chavez,2
Elizabeth Davies,2
Elizabeth Gray,3
Elizabeth Hughes,2
Elizabeth Turner,3
Elliott Stone,2
Elmira Sobko,2
Eloy Martinez,2
Emelie Forsberg,2
Emily Bailey,2
Emily Brewster,2
Emily Gardner,3
Emily Hu,2
Emily Nelson,2
Emily Peterson,2
Emily Powell,2
Emily Rodriguez,7
Emily Schneider,3
Emily Smith,5
Emily Taylor,2
Emily Thompson,4
Emily Walker,2
Emily Wall,2
Emily Wilcox,2
Emily Williams,3
Emily Wright,3
Emma Brown,5
Emma Fox,3
Emma Jones,2
Emma Sullivan,2
Emma Taylor,3
Emma Williams,3
Emma Wilson,4
Emma Wright,3
Emmanuel Hernandez,3
Enrique Rodriguez,4
Eric Adams,5
Eric Anderson,7
Eric Andrews,3
Eric Arnold,2
Eric Banks,2
Eric Butler,2
Eric Campbell,3
Eric Gardner,2
Eric Gilbert,2
Eric Gonzales,4
Eric Gonzalez,8
Eric Gray,2
Eric Hall,5
Eric Kratz,2
Eric LeBlanc,3
Eric Nelson,3
Eric Pierce,2
Eric Prescott,2
Eric Richardson,2
Eric Sirois,2
Eric Smith,14
Eric Stone,2
Eric Taylor,5
Eric Torres,3
Erica Gomez,2
Erick Baker,2
Erick Garcia,6
Erickson,3
Erik Anderson,3
Erik Gonzalez,7
Erik Karlsson,2
Erika Johnson,2
Erika Young,2
Erin Boyle,2
Erin Kelly,4
Erin Williams,6
Estrella Rodriguez,2
Ethan Clark,3
Ethan Fowler,2
Ethan Fudge,2
Ethan Gonzalez,5
Ethan Johnson,6
Ethan Markley,2
Evan Anderson,3
Evan Hall,3
Evan Hill,2
Evan Hoffman,2
Evan Johnson,4
Evan Kelly,4
Evan Miller,6
Evan Perez,2
Evan Schultz,2
Everett,3
Evgeniy Ageev,4
Evgeniy Borisenko,2
Evgeniy Dontsov,2
Evgeniy Eliseev,5
Evgeniy Glushchenko,2
Evgeniy Goncharenko,4
Evgeniy Grebenyuk,2
Evgeniy Ivanov,29
Evgeniy Kamenev,2
Evgeniy Klimchuk,2
Evgeniy Lukyanov,4
Evgeniy Maksimov,4
Evgeniy Mayster,2
Evgeniy Nikolaev,4
Evgeniy Palkin,2
Evgeniy Pavlov,11
Evgeniy Popov,13
Evgeniy Stepanov,3
Evgeniy Tkachenko,3
Evgeniy Tokarev,4
Evgeniy Vlasov,6
Evgeniy Yakovlev,10
Evgeniy Zakharov,9
Evgeniy Zenkov,3
Evgeniy Zinkov,3
Evgeniya Poznyak,2
F. Oster,12
Fedor Rodionov,2
Felipe Hernandez,5
Felix Flores,2
Fernando Martinez,7
Fernando Rios,2
Fernando Rivera,3
Fisher,8
Fleming,2
Francis Barrett,2
Francis Smith,2
Francis Wilson,2
Francisco Moreno,4
Frank Allen,2
Frank Jones,2
Frank Luna,2
Frank O'Donnell,3
Frank Phillips,3
Frank Rodriguez,5
Frank Sanchez,2
Frank Sanders,2
Frank Smith,3
Frank Ybarra,3
Frankie Rodriguez,2
Frankie Torres,2
Fred Hatfield,2
Freddy Gonzalez,2
Freddy Hernandez,2
Fredrik Svensson,2
Frode Gundersen,2
G. Alloway,2
G. Arner,2
G. Gardner,3
G. Jones,19
G. McClure,3
G. Mills,3
G. Norton,2
G. Ross,4
Gabor Kiss,2
Gabriel Acosta,2
Gabriel Gomez,7
Gabriel Moreno,3
Gabrielle Lopez,2
Gage Brown,3
Gareth Edwards,2
Gareth Walsh,2
Garret Jacobsen,2
Garrett Gonzales,2
Garrett Griffin,3
Garry Frank,2
Gary Chapman,2
Gary Davis,3
Gary Evans,2
Gary Fletcher,2
Gary Hunter,2
Gary Jones,3
Gary McLean,2
Gary Miller,8
Gary Pratt,2
Gary Stewart,2
Gary Young,2
Gavin Dennis,2
Gavin Smith,3
Gemma Moore,2
Gene Miller,2
Gennadiy Danilov,3
Gennadiy Semenov,4
Gennadiy Volkov,2
George,5
George Anderson,3
George Clark,3
George Cole,7
George Herring,2
George Jones,2
George Smith,10
George Taylor,4
George Wise,2
Gerald Smith,2
Gerard McNamara,2
Gerardo Calderon,2
Gilbert,3
Giovanni Alvarez,3
Giovanni Rodriguez,3
Glen Smith,5
Gonzales,9
Gonzalo Fernandez,2
Gordon Smith,3
Grace Hall,3
Grace Thomas,2
Graham Price,2
Grant Brown,4
Grant Connors,2
Grant Garner,2
Gray,9
Greg Bennett,2
Greg Campbell,3
Greg Carter,2
Greg Evans,2
Greg Fields,4
Greg Jones,7
Greg Lewis,3
Greg Simmons,3
Greg Smith,6
Greg Steele,2
Greg Watkins,2
Greg Watson,2
Greg White,3
Greg Wilson,2
Greg Young,4
Gregory Barnes,2
Guadalupe Garcia,4
Guillermo Estrada,2
Gustavo Gonzalez,4
H. Campbell,2
H. Druiff,2
H. Mitchell,2
H. Thompson,4
H. Walters,2
Ha Pham,2
Hadley Jones,2
Haley Hunter,2
Hamilton,4
Hammond,4
Hannah Alexander,2
Hannah Bennett,2
Hannah Holmes,3
Hannah Howell,2
Hannah Jackson,2
Hannah Johnson,3
Hannah McDonald,2
Harley Anderson,2
Harley Davis,3
Harley Hall,2
Harry Cooper,4
Harry Glass,2
Harry Owen,2
Harry Young,2
Hassan Raza,2
Hayden Murphy,2
Hayden Taylor,4
Hayden Thompson,2
Hayden Willis,2
Haynes,2
Heather Webster,2
Hector Granados,3
Heidi Brown,2
Heikki Laakso,2
Helen Hughes,2
Helen Williams,3
Helena Nixon,2
Helgi Jónsson,2
Hendrik Wobst,2
Hennis Washington,2
Henry Garcia,2
Henry Hernandez,2
Hieu Le,3
Hill,12
Hitoshi Nakamura,2
Hoang Nguyễn,3
Holly Clarke,3
Hope Jones,2
Hudson,3
Humberto Medina,3
Hung,2
Hunter Casey,2
Hunter Gibson,3
Hunter Green,3
Hunter Henderson,2
Hunter Hernandez,4
Hunter Hicks,3
Hunter Johnson,9
Hunter Jones,3
Hunter Martin,4
Hunter Smith,14
Hunter Wallace,3
Hunter Wilson,5
Hunter Young,2
I. Atkinson,2
I. Evans,2
Ian Cox,3
Ian Marshall,2
Ian McKay,2
Ian Mitchell,2
Ian Sanchez,2
Ian Taylor,2
Ian Walker,4
Ian White,3
Ian Williams,4
Ibrahim,2
Igor Alekseenko,2
Igor Aliev,2
Igor Andreev,3
Igor Belyaev,5
Igor Chernenko,3
Igor Chernyaev,2
Igor Chistyakov,4
Igor Danilov,2
Igor Dolzhenko,3
Igor Ermakov,3
Igor Golovko,2
Igor Golubev,2
Igor Goncharenko,2
Igor Ivanov,19
Igor Kalinichenko,2
Igor Kharchenko,2
Igor Khokhlov,2
Igor Klimov,3
Igor Koval,4
Igor Kovalenko,2
Igor Kovalev,3
Igor Kozlov,5
Igor Kushnir,4
Igor Kuzmenko,2
Igor Kuzminskiy,2
Igor Kuznetsov,10
Igor Lutsenko,2
Igor Malanchuk,2
Igor Maltsev,3
Igor Markin,3
Igor Martens,2
Igor Matveenko,2
Igor Melnik,6
Igor Mikhaylenko,2
Igor Morozov,6
Igor Obukhov,2
Igor Orlov,4
Igor Pak,4
Igor Parshin,3
Igor Pavlov,2
Igor Petrenko,2
Igor Plotnikov,2
Igor Ponomarenko,2
Igor Prikhodko,3
Igor Rudenko,2
Igor Rybakov,2
Igor Savin,5
Igor Sokolovskiy,3
Igor Tarasov,3
Igor Terentev,2
Igor Volkov,6
Igor Zhuk,2
Igor Zhuravko,2
Igor Zubarev,2
Ilgar Rzaev,2
Ilya Fedorov,3
Ilya Golub,2
Ilya Kapustin,2
Ilya Nikolaev,4
Ilya Romanov,4
Inna Filimonova,2
Inna Grishchenko,2
Inna Smirnova,2
Iraida Garcia,2
Irina Fedotova,2
Irina Ivanova,9
Irina Kolesnikova,2
Irina Kovalenko,2
Irina Kozlova,2
Irina Melnik,2
Irina Verbitskaya,2
Isa Vasquez,2
Isaac Lee,3
Isaac Robles,3
Isaac Salinas,2
Isaac Smith,3
Isabel Martinez,3
Isaiah Marquez,2
Itzel Garcia,2
Ivan Andryushchenko,2
Ivan Baranov,8
Ivan Barinov,2
Ivan Belyaev,2
Ivan Bondarenko,5
Ivan Boyko,2
Ivan Brushnevskiy,3
Ivan Cherednichenko,2
Ivan Demchenko,3
Ivan Dolchanin,2
Ivan Dovgal,2
Ivan Feshchenko,2
Ivan Garcia,6
Ivan Ivanov,37
Ivan Komissarov,2
Ivan Kondrashov,2
Ivan Konev,5
Ivan Kopytin,2
Ivan Kovalskiy,2
Ivan Lutsenko,2
Ivan Makarov,7
Ivan Marin,3
Ivan Martinovic,2
Ivan Medvedev,5
Ivan Moiseev,4
Ivan Naumov,4
Ivan Ovcharenko,2
Ivan Petrenko,2
Ivan Polyakov,9
Ivan Protsenko,3
Ivan Rudenko,3
Ivan Rusin,2
Ivan Shakhov,2
Ivan Shevchenko,6
Ivan Soroka,2
Ivan Tretyakov,2
Ivan Yarmolyuk,2
Ivan Yudin,2
Ivan Yurev,2
Izzy Gutierrez,2
J. Acevedo,2
J. Arthur,2
J. Bernal,2
J. Bridges,4
J. Coleman,4
J. Cooper,11
J. Craig,5
J. Cross,3
J. Davis,50
J. Donahue,2
J. Doyle,9
J. Duffield,2
J. Fuller,2
J. Gray,8
J. Green,19
J. Greene,8
J. Griffin,11
J. Haley,2
J. Heath,2
J. Hill,13
J. Horn,3
J. Johnston,11
J. Keenan,3
J. Malone,2
J. Marshall,5
J. McGrath,5
J. McIntosh,2
J. Miller,46
J. O'Brien,8
J. Orr,4
J. Parrish,6
J. Power,2
J. Preston,5
J. Rodgers,7
J. Short,3
J. Smith,81
J. Stevenson,5
J. Thompson,20
J. Tillman,2
J. Walker,14
J. Wheeler,6
J. Winter,2
J. Zehr,2
Jace Phillips,2
Jack Anderson,2
Jack Barrett,2
Jack Bartlett,2
Jack Brennan,2
Jack Cooper,3
Jack Coyne,2
Jack Davis,4
Jack Freeman,2
Jack Harvey,2
Jack Henderson,3
Jack Hughes,3
Jack Jones,4
Jack Lynch,2
Jack May,3
Jack Morgan,2
Jack Nguyen,2
Jack Smith,7
Jack Taylor,7
Jack Williams,4
Jack Wolff,2
Jack Young,5
Jackie Morgan,2
Jackie Salazar,2
Jackson Bailey,2
Jackson Watkins,2
Jacob Adkins,2
Jacob Atkinson,2
Jacob Baker,3
Jacob Black,2
Jacob Byrd,4
Jacob Hudson,4
Jacob Hughes,5
Jacob Hurley,2
Jacob Jenkins,4
Jacob Lucas,2
Jacob Manley,2
Jacob McBride,2
Jacob Nilsson,2
Jacob Noble,3
Jacob Perez,11
Jacob Peterson,2
Jacob Ramos,2
Jacob Rodriguez,16
Jacob Stephens,3
Jacob Stone,2
Jacob Vasquez,9
Jacob Wallace,5
Jacob Walton,2
Jacob Winstead,2
Jacob Woosley,2
Jacob Young,7
Jaden Brown,4
Jaden Buchanan,2
Jaden Perez,2
Jaden Smith,2
Jaden Wilson,3
Jaeden Ward,2
Jaiden Turner,3
Jaime Barrera,2
Jaime Castillo,2
Jaime Garcia,5
Jaime Hernandez,7
Jaime Rios,3
Jake Allen,8
Jake Allison,2
Jake Carter,5
Jake Clarke,3
Jake Dunn,2
Jake Garner,2
Jake Henderson,3
Jake Hutchinson,2
Jake Johnson,13
Jake Marshall,2
Jake Mitchell,4
Jake Roberts,4
Jake Sainsbury,3
Jake Simpson,3
Jake Smith,9
Jake Williams,7
Jalen Brown,2
James,6
James Alston,2
James Anderson,5
James Baldwin,2
James Brennan,2
James Butler,4
James Carr,4
James Carroll,3
James Chapman,5
James Christian,2
James Clarke,3
James Cole,2
James Cooper,5
James Cox,4
James Daly,4
James Dunn,4
James Edwards,4
James Ellis,4
James Fernandez,2
James Fowler,2
James Freeman,4
James Gilbert,3
James Glass,2
James Gordon,3
James Grant,3
James Gregory,3
James Hayden,2
James Henderson,5
James Hetherington,2
James Hood,2
James Howell,3
James Hughes,6
James Jackson,4
James Jacobs,4
James Kelly,5
James Knight,3
James Lee,11
James Lin,3
James MacDonald,3
James Martin,10
James Martinez,6
James McCarthy,2
James McGregor,3
James Miller,8
James Monk,2
James Mooney,2
James Moore,14
James Morris,4
James Norman,2
James Parker,4
James Perry,7
James Phillips,8
James Ray,3
James Riley,7
James Roberts,7
James Robertson,5
James Rogers,5
James Simmons,2
James Stein,2
James Stevens,2
James Strickland,2
James Taylor,12
James Thompson,11
James Thomson,3
James Townsend,3
James Walker,7
James Waller,2
James Warren,3
James West,7
James Williams,26
James Williamson,3
James Wilson,20
James Wright,8
James Young,8
Jamie Bailey,2
Jamie Brown,2
Jamie Davis,2
Jamie Dunn,2
Jamie Farmer,2
Jamie Gordon,3
Jamie Green,3
Jamie Harris,3
Jamie Hernandez,3
Jamie Hooper,2
Jamie Jackson,2
Jamie Johnson,4
Jamie Jones,3
Jamie King,5
Jamie Lake,2
Jamie Larsen,2
Jamie Lee,4
Jamie Lewis,4
Jamie Miller,5
Jamie Reeves,2
Jamie Sanford,2
Jamie Smith,10
Jamie Taylor,2
Jamie Ward,3
Jamie Williams,3
Jamie Winter,2
Jamie Wood,2
Jamie Young,2
Jan Martin,2
Janet Smith,2
Jared Brown,3
Jared Holmes,2
Jared Martin,8
Jared Scott,2
Jared White,2
Jared Wood,3
Jari Leino,2
Jari Nieminen,2
Jasmine Davis,3
Jason Burnell,2
Jason Byrne,3
Jason Chan,3
Jason Clarke,4
Jason Cook,4
Jason Harrison,5
Jason Holmes,2
Jason Jackson,8
Jason Jones,8
Jason Lopez,6
Jason Pearson,2
Jason Peters,2
Jason Pritchard,2
Jason Roberts,5
Jason Schmidt,3
Jason Tran,5
Jason Watson,3
Jason Weaver,2
Jason Williams,7
Javier de la Torre,2
Javier Garcia,13
Javier Ortiz,2
Jay Smith,5
Jay Ward,2
Jay Watson,2
Jay Wright,2
Jayden Gray,2
Jayden Hunter,2
Jayden Miller,4
Jayden Perez,2
Jayden Smith,5
Jaylen Brown,3
Jaylen Davis,2
Jazmin Trevino,2
JD Clark,2
Jean-François Caron,3
Jeff Bailey,2
Jeff Bradley,3
Jeff Carr,3
Jeff Cohen,2
Jeff Douglas,2
Jeff Griffin,2
Jeff Howard,2
Jeff Johnston,3
Jeff Krause,2
Jeff Lawson,4
Jeff Lewis,2
Jeff Phillips,2
Jeff Stevens,2
Jeff Wright,5
Jeffrey Allen,2
Jeffrey Chen,3
Jeffrey Guo,2
Jeffrey Johnson,5
Jeffrey Lin,2
Jeffrey Thompson,3
Jen Smith,2
Jenna Hoffman,2
Jenni Sherwood,2
Jennifer De Leon,2
Jennifer Foster,2
Jennifer Harris,4
Jennifer Hobbs,2
Jennifer Martinez,12
Jennifer Miller,2
Jennifer Mitchell,4
Jennifer Perry,2
Jennifer Scott,2
Jennifer Smith,12
Jennifer Thompson,2
Jenny Wilson,2
Jeremiah Johnson,8
Jeremy Adams,3
Jeremy Green,2
Jeremy Hines,2
Jeremy Rodriguez,4
Jeremy Sanchez,2
Jeremy Smith,10
Jeremy Stevens,3
Jeremy Willis,2
Jeremy Wilson,5
Jeremy Wright,3
Jerry Bell,2
Jerry Smith,3
Jerry Wells,2
Jess Reid,2
Jesse Berry,2
Jesse Coffey,2
Jesse Hudson,2
Jesse Jackson,2
Jesse James,5
Jesse Johnson,6
Jesse Jones,4
Jesse Lawrence,2
Jesse Nelson,2
Jesse Peterson,2
Jesse Ramirez,8
Jesse Richardson,3
Jesse Salinas,3
Jesse Woods,3
Jessi Stewart,2
Jessica Ayala,2
Jessica Bishop,2
Jessica Brown,8
Jessica Edwards,2
Jessica Evans,3
Jessica Ford,2
Jessica Garcia,5
Jessica Green,2
Jessica Hill,5
Jessica Hobbs,2
Jessica Hopkins,2
Jessica Jackson,4
Jessica Jones,3
Jessica Lane,2
Jessica Lewis,3
Jessica May,2
Jessica Price,2
Jessica Ramirez,2
Jessica Robinson,2
Jessica Taylor,5
Jessica Thompson,3
Jessica Watson,3
Jessica Williams,8
Jessie Adams,2
Jessie Ramirez,3
Jessie Smith,2
Jesus Garcia,16
Jesus Hernandez,9
Jesus Morales,5
Jia Hui Wang,2
Jillian Clark,2
Jim Bennett,4
Jim Benson,2
Jim Brewer,2
Jim Gallagher,2
Jim Morgan,3
Jim Sheffield,2
Jim Smith,9
Jim Taylor,4
Jim Warner,2
Jim White,3
Jim Williams,4
Jim Wilson,4
Jimmy Bishop,2
Jimmy Chen,2
Jimmy Tran,5
Jo Kane,2
Jo Wood,4
Joanne Henry,2
Jodie Cook,2
Jodie Smith,2
Jody Lewis,2
Joe Bell,2
Joe Brown,5
Joe Castillo,7
Joe Cunningham,3
Joe Francisco,2
Joe Holland,2
Joe Jackson,2
Joe Jimenez,2
Joe Johnson,5
Joe Lewis,3
Joe Lucas,2
Joe Lyons,2
Joe Martin,8
Joe Mass,2
Joe Mata,2
Joe McCarthy,2
Joe Moore,3
Joe Reeves,3
Joe Robinson,7
Joe Torres,8
Joe Valdez,3
Joe Vega,7
Joe Williams,7
Joe Wills,2
Joel Bell,4
Joel Chavez,2
Joel Hernandez,4
Joel Reed,2
Joel Sanchez,7
Joel Scott,4
Joel Whitmore,2
Joey Lee,3
Joey Reid,2
Joey Salinas,2
Joey Smith,3
Johanna Reichel,2
John Adkins,2
John Ball,4
John Black,3
John Brennan,3
John Brown,16
John Brunner,2
John Caputo,2
John Carney,2
John Clay,4
John Consoli,2
John Corcoran,2
John Cross,2
John Crowley,4
John Cuevas,2
John Curtis,3
John Davis,18
John Dean,2
John Dignan,2
John Dolan,2
John DuMont,3
John Florio,2
John Ford,3
John Forsythe,2
John Gabriel,2
John Gallacher,2
John Gallagher,3
John Haley,2
John Hart,2
John Hayes,4
John Horn,2
John Howard,4
John Jackson,12
John Jones,10
John Lake,2
John Lane,2
John Leonard,3
John MacDonald,3
John Magee,2
John Marsden,2
John Martin,14
John McDonald,3
John McDowell,2
John McIntyre,2
John Miller,21
John Mitchell,9
John Morris,7
John Nelson,6
John Nolan,2
John O'Brien,2
John O'Hara,3
John Pappas,2
John Patterson,4
John Perez,5
John Pollock,2
John Powers,4
John Quinn,3
John Reyes,3
John Roberts,4
John Rooney,2
John Ryan,4
John Sanchez,7
John Santos,3
John Scott,5
John Simpson,2
John Smith,17
John Son,2
John Taylor,17
John Tucker,2
John Tyler,3
John Vincent,2
John Walker,6
John Walsh,2
John Ware,2
John Welch,4
John Wells,4
John White,8
John Wilkerson,2
John Wright,10
John Young,12
Johnny Walker,2
Johnpaul Hayes,2
Jon Brown,3
Jon Clark,4
Jon Cole,2
Jon Green,4
Jon Gregory,2
Jon Howard,2
Jon Jones,2
Jon Martin,4
Jon Smith,3
Jon Stewart,4
Jon Wong,2
Jonathan Clark,5
Jonathan Clarke,2
Jonathan Cooper,2
Jonathan Cruz,2
Jonathan Davis,3
Jonathan Garcia,13
Jonathan Gomez,5
Jonathan Herrera,2
Jonathan Hill,3
Jonathan Hinojosa,2
Jonathan Law,2
Jonathan Lewis,3
Jonathan Mills,3
Jonathan Murphy,2
Jonathan Parker,4
Jonathan Rodgers,3
Jonathan Rodriguez,16
Jonathan Seymour,2
Jonathan Stewart,4
Jonathan Urrutia,2
Jonathan Wilson,2
Jonathan Wong,3
Jonathan Woods,2
Jonathon Nelson,3
Jonathon Taylor,4
Jones,12
Jonny Gardner,2
Jonny Parker,2
Jordan,5
Jordan Alexander,3
Jordan Anderson,6
Jordan Barnes,2
Jordan Beasley,2
Jordan Buchanan,2
Jordan Burt,2
Jordan Campbell,2
Jordan Chadwick,2
Jordan Cook,2
Jordan Craig,2
Jordan Davis,7
Jordan Davison,2
Jordan DeAguero,2
Jordan Dunn,4
Jordan Evans,6
Jordan Fernandez,2
Jordan Foley,2
Jordan Fox,2
Jordan Garcia,7
Jordan Gibson,5
Jordan Green,7
Jordan Gregory,2
Jordan Hall,5
Jordan Harris,6
Jordan Hayes,2
Jordan Hester,2
Jordan Holley,2
Jordan Jackson,4
Jordan Johnson,14
Jordan Jones,11
Jordan Kelly,2
Jordan Lam,3
Jordan Lewis,4
Jordan Lopez,2
Jordan Lyons,2
Jordan Mann,2
Jordan Martin,8
Jordan McKenzie,5
Jordan Meyer,3
Jordan Miller,5
Jordan Moore,4
Jordan Moorhead,2
Jordan Myers,2
Jordan Nguyen,5
Jordan Patterson,3
Jordan Ramirez,4
Jordan Reed,2
Jordan Reynolds,2
Jordan Rodriguez,6
Jordan Ross,2
Jordan Salinas,2
Jordan Simpson,2
Jordan Smith,13
Jordan Stephens,2
Jordan Taylor,4
Jordan Thomas,6
Jordan Thompson,3
Jordan Watson,3
Jordan Weaver,3
Jordan West,2
Jordan Wilkins,2
Jordan Williams,7
Jordan Wilson,6
Jorge Gonzalez,9
Jorge Maldonado,2
Jose Alvarado,4
Jose Bautista,2
Jose Camacho,2
José Castillo,10
Jose Conceicao,2
Jose de Leon,3
Jose Delacruz,2
Jose Diaz,11
Jose Flores,12
Jose Garcia,28
Jose Gonzalez,22
Jose Hernandez,37
Jose Jimenez,12
Jose Jiminez,2
Jose Juarez,5
Jose Mendoza,7
Jose Miranda,5
Jose Molina,9
Jose Ojeda,2
Jose Pena,4
Jose Perez,24
Jose Ramirez,21
Jose Rivas,2
Jose Rodriguez,39
José Rosario,3
Joseph,3
Joseph Bell,4
Joseph Brown,4
Joseph Coogan,4
Joseph Herrera,4
Joseph Jackson,2
Joseph Jordan,2
Joseph Lopez,10
Joseph Nelson,4
Joseph Peña,3
Joseph Rodriguez,12
Joseph Rogers,2
Joseph Saucedo,2
Joseph Thomas,4
Joseph Walton,2
Joseph Watts,2
Joseph White,2
Joseph Young,3
Josh Banks,3
Josh Black,3
Josh Brown,15
Josh Bryant,2
Josh Bush,3
Josh Day,2
Josh Duncan,3
Josh Edwards,4
Josh Ellis,3
Josh Flores,4
Josh Garcia,12
Josh Gonzales,3
Josh Hardin,2
Josh Hill,2
Josh Hudson,3
Josh Hunt,2
Josh Ingram,2
Josh Jacobs,2
Josh Jones,9
Josh Kelly,3
Josh King,10
Josh Lambert,5
Josh Martin,7
Josh Morris,3
Josh Nichols,2
Josh Nicklin,2
Josh Richardson,2
Josh Roberts,3
Josh Smith,36
Josh Wagner,2
Josh Walker,9
Josh Wallace,3
Josh Walton,2
Josh Wells,3
Josh Wright,5
Joshua Black,3
Joshua Espinosa,3
Joshua Farrar,2
Joshua Fischer,2
Joshua Guy,2
Joshua Harris,2
Joshua Howell,2
Joshua King,7
Joshua Lilly,3
Joshua Newman,3
Joshua Park,3
Joshua Powell,3
Joshua Schwartz,3
Joshua Webber,2
Joshua Wright,3
Joshua Yu,3
Josie Thomas,3
Juan Aguilar,3
Juan Duran,2
Juan Hernandez,24
Juan Laija,3
Juan Mendoza,7
Juan Pereyra,4
Juan Perez,19
Juan Salinas,5
Juan Sanchez,12
Juan Torres,11
Juan Vasquez,3
Juan Villarreal,7
Julia Courtney,2
Julia Hamilton,3
Julia Moller,2
Julia Williams,2
Julian Diaz,4
Julian Lee,2
Julian Phan,2
Julie Davis,2
Julie Green,2
Julie Marshall,2
Julie Nguyen,3
Julie White,2
Julien Mercier,2
Julio Chavez,3
Julio Medina,2
Julio Sanchez,4
Jussi Mustonen,2
Justin Clark,4
Justin Fowler,2
Justin Gill,2
Justin Harris,7
Justin Horn,2
Justin Hurley,3
Justin Jackson,6
Justin McManus,2
Justin Myers,3
Justin Oliver,2
Justin Roberts,4
Justin Rogers,2
Justin Smith,31
Justin Sorenson,2
Justin Swanson,2
Justin Thacker,3
Justin Turner,2
Justin Watson,3
Justin Williams,15
Justin Wilson,11
K. Bond,2
K. Eller,4
K. Green,4
K. Haden,2
K. Jackson,5
K. Lewis,4
K. Ramsey,2
K. Robertson,4
K. Stewart,4
K. Thomas,14
Kaden Adams,2
Kameron Turner,2
Karel Rada,2
Karen Avetisyan,3
Karen Kalinski,2
Karen Kazaryan,2
Karen Sutherland,2
Karina Martinez,8
Karl Francis,2
Karla Esquivel,2
Kasey Sanders,2
Kate Quinn,2
Katerina Kolesnik,2
Katharine Davis,2
Kathryn Holley,2
Kathryn MacTaggart,2
Kathryn Russell,2
Katie Adams,3
Katie Edwards,3
Katie Miller,5
Katie Smith,8
Kayla Anderson,3
Kayleigh Russell,2
Keelan Smith,2
Keith Baker,3
Keith Clark,3
Keith Evans,2
Keith Phillips,3
Keith Thompson,5
Kelly Baker,3
Kelly Brown,3
Kelly Clark,3
Kelly Donahue,2
Kelly Harris,3
Kelly Henry,3
Kelly Hughes,2
Kelly Johnson,3
Kelly Kennedy,2
Kelly Lee,3
Kelly Miller,4
Kelly Morgan,2
Kelly Norton,2
Kelly Parker,2
Kelly Pierce,2
Kelly Smith,7
Kelly Tran,2
Kelly Williams,3
Kelly Wilson,5
Kelly Young,2
Kelsey Brown,2
Kelsey Smith,2
Kelsey White,3
Kelton Johnson,2
Ken Conner,2
Ken Johnson,2
Ken Jones,7
Ken Nguyen,2
Ken Smith,11
Ken Williams,4
Kendall Tanner,2
Kendra Carter,2
Kendra Miller,2
Kenneth Cook,2
Kenneth Jones,4
Kenneth Mitchell,4
Kenneth Smith,2
Kenneth Williams,5
Kenny Ramirez,2
Kerry Smith,2
Kevin Butler,3
Kevin Cash,2
Kevin Chu,3
Kevin Davis,5
Kevin Diaz,3
Kevin Ferguson,2
Kevin Gray,2
Kevin Hu,2
Kevin Jager,2
Kevin James,3
Kevin Johnson,11
Kevin Jones,14
Kevin Koch,2
Kevin Nguyen,21
Kevin Parker,2
Kevin Paul,2
Kevin Payne,3
Kevin Phillips,3
Kevin Sampson,2
Kevin Sanders,10
Kevin Serrano,2
Kevin Smith,29
Kevin Stewart,4
Kevin Turner,3
Kevin Woods,4
Kevin Wu,2
Kieran Scott,2
Kim Jones,4
Kim Moore,2
Kim Moser,2
Kim Tran,3
Kimberly Butler,3
Kimberly Einstein,2
Kolby Williams,2
Konstantin Lukyanov,3
Konstantin Morozov,4
Kris Henderson,2
Kris Johnson,2
Kris Lewis,2
Kristen Jones,2
Kristen Robbins,2
Kristen Scott,3
Kristian Martinez,3
Kristin Fisher,2
Kristin Wilson,3
Kristina Guseva,2
Kristina Taylor,2
Kseniya Prokhorova,2
Kye Brown,2
Kyle Alexander,3
Kyle Brown,12
Kyle Chapman,2
Kyle Clark,2
Kyle Coffey,3
Kyle Davidson,2
Kyle Evans,4
Kyle Franke,2
Kyle Garcia,2
Kyle Haynes,2
Kyle Johnson,11
Kyle Kirby,3
Kyle Miller,12
Kyle Nowak,2
Kyle Olsen,2
Kyle Sheridan,2
Kyle Smith,17
Kyle Thompson,5
Kyle Weiss,2
Kyle White,3
Kyle Young,4
Kylie Jones,2
Kylie Parker,2
L. Asher,2
L. Bray,2
L. Collins,2
L. Gee,2
L. Loyd,2
L. Perez,3
L. Sutton,3
Lance Collins,3
Lance Walker,2
Landon Harris,2
Landon Williams,2
Lane,5
Lane Thomas,2
Larry Bryant,2
Larry Johnson,7
Larry Reed,3
Larry Williams,4
Larysa Soloviova,2
Laura Carter,2
Laura Dodd,2
Laura Simkins,2
Laura Smith,4
Laura Williams,4
Lauren Brown,6
Lauren Davis,3
Lauren Green,2
Laurence Scott,3
Leah Davis,2
Leandro Fernandez,2
Leanne Brown,2
Lee Austin,2
Lee Brown,3
Lee Harris,2
Lee Jacobs,2
Lee Johnson,5
Lee Kelly,2
Lee Moran,2
Lee Smith,9
Lee Thomas,2
Leo Garza,2
Leo Hernandez,3
Leo Sanchez,4
Leslie Griffin,2
Leslie Harris,4
Leslie Phillips,2
Leslie Williams,2
Lewis,27
Lewis Bennett,2
Lewis Hughes,4
Lewis Johnson,3
Li-Ming Lin,2
Liam Collins,2
Liam Davidson,2
Liam Gleeson,2
Liam Hughes,2
Liam Turner,2
Linda Miller,2
Lindsay Maguire,2
Lindsay McGuire,5
Lindsey Johnson,2
Linh Nguyen,5
Linus Nilsson,2
Lisa Baker,3
Lisa Grant,2
Lisa Johnston,2
Lisa Long,2
Lisa Marie,2
Lisa Miller,4
Lisa Perry,2
Lisa Tran,2
Lisa West,2
Lisa Wilson,4
Lisandro Ortega,2
Logan Baker,3
Logan Eden,2
Logan Garcia,2
Logan Green,3
Logan Reed,2
Logan Smith,7
Logan Williams,7
Long Tran,2
Lottie Hall,3
Louie Warren,2
Louis Brown,2
Louise Edwards,2
Louise Jones,3
Lu Wang,2
Luc Leblanc,2
Lucas Ordonez,2
Lucas Reynolds,2
Lucas Silva,2
Lucy Hawkins,2
Lucy Robinson,2
Luis Gamez,2
Luis Garcia,15
Luis Lopez,13
Luis Munoz,7
Luis Otero,2
Luis Pacheco,2
Luis Ramos,6
Luis Soto,4
Luka Spasic,2
Luke Ashton,2
Luke Bland,2
Luke Dolan,2
Luke Evans,3
Luke George,2
Luke Jordan,2
Luke MacDonald,2
Luke Miller,6
Luke Mitchell,3
Luke Richardson,2
Luke Rogers,3
Luke Ross,2
Luke Thompson,4
Luke Wilson,5
Lupe Gonzalez,3
Lupe Hernandez,3
Lupe Martinez,2
Lupe Rodriguez,2
Lynn Smith,3
Lyubov Kuzmina,2
Lyudmila Egorova,2
M. Anderson,19
M. Ayers,2
M. Berry,3
M. Clark,10
M. Davies,5
M. Dean,3
M. Ferguson,6
M. Galante,2
M. Gonzales,5
M. Hart,7
M. Hartman,2
M. Horton,6
M. Johnson,38
M. Jordan,6
M. Kelly,10
M. LeBed,2
M. Malone,6
M. Marlin,2
M. Moore,18
M. Quigley,2
M. Roberts,5
M. Robertson,4
M. Scott,13
M. Smith,63
M. Suzuki,4
M. Thomas,20
M. Walker,13
M. White,12
M. Williamson,4
M. Zarefoss,2
Maciej Markowski,2
Mackenzie Baker,2
MacKenzie Bates,2
MacKenzie Brown,2
Mackenzie Lewis,2
Madison Garcia,2
Madison Hall,2
Madison Minter,2
Madison Smith,7
Madison Taylor,4
Magerram Magerramov,2
Makayla Brown,3
Makayla Smith,3
Maksim Alekseev,7
Maksim Andreev,4
Maksim Boyarskiy,2
Maksim Ermakov,7
Maksim Ivanov,26
Maksim Korotkov,3
Maksim Miroshnichenko,5
Maksim Pankov,2
Maksim Popov,20
Maksim Shaposhnikov,2
Maksim Stepanov,7
Maksim Yakimov,2
Maksim Zubarev,2
Malcolm Richards,2
Manny DeLaRosa,2
Manuel Rodriguez,6
Marco Reyes,4
Marcus Collins,3
Marcus Hernandez,4
Marcus Jones,6
Marcus Morris,3
Marcus Williams,3
Marcus Wong,2
Maria Gutierrez,3
Maria Ramos,4
Maria Sanchez,5
Mariah Martinez,2
Mariam Mahmoud,2
Marian Gibson,2
Marie Green,2
Marie Lawrence,2
Marina Somova,2
Mario Morales,4
Mario Rodriguez,5
Marion Smith,2
Marissa Mendoza,2
Marissa Ramirez,4
Mariya Belousova,2
Mariya Chirkova,4
Mariya Kononova,2
Mariya Kosolapova,2
Mariya Kulikova,2
Mariya Markovich,2
Mariya Nikitina,2
Mariya Yakubovich,3
Mark Atkinson,2
Mark Baker,2
Mark Boone,2
Mark Castillo,4
Mark Collins,3
Mark Daniels,3
Mark Dawson,2
Mark Dotson,2
Mark Dowling,2
Mark Evans,6
Mark Garrison,3
Mark Green,2
Mark Hammond,2
Mark Harrison,2
Mark Hartman,2
Mark Harvey,4
Mark Hennessey,2
Mark Henry,3
Mark Hernandez,5
Mark Jackson,7
Mark Johnson,20
Mark Jones,12
Mark Jordan,2
Mark Knight,3
Mark Lewis,3
Mark Lockwood,2
Mark McCoy,2
Mark Miller,12
Mark Northcutt,2
Mark Palmer,3
Mark Plummer,2
Mark Roberts,2
Mark Schwartz,2
Mark Skinner,2
Mark Snyder,2
Mark Stewart,4
Mark Taylor,6
Mark Thompson,7
Mark Turner,5
Mark Walker,2
Mark Williams,13
Marque Johnson,3
Marsh,3
Marshall,8
Martin Brown,2
Martin Gonzalez,3
Martin Green,2
Martin Hernandez,5
Martin Munoz,3
Martin Nguyen,3
Martin Roberts,2
Martin Rodriguez,7
Martin Smith,4
Martin Wilson,2
Marty Taylor,2
Marvin Smith,3
Mary Cannon,2
Mason Evans,3
Mason Garcia,2
Mathew Pearce,2
Matt Adams,2
Matt Brooks,2
Matt Brown,10
Matt Chapman,4
Matt Collins,4
Matt Cooper,3
Matt Gibson,5
Matt Golden,2
Matt Harding,3
Matt Harris,4
Matt Hartman,3
Matt Houser,2
Matt James,3
Matt Jones,11
Matt Knight,4
Matt Miles,2
Matt Mitchell,7
Matt Moran,2
Matt Morgan,3
Matt Parker,3
Matt Richards,5
Matt Robertson,4
Matt Robinson,4
Matt Smith,40
Matt Sweeney,2
Matt Ward,3
Matt Watson,3
Matt Wilson,8
Matthew Bauer,3
Matthew Becker,2
Matthew Brown,15
Matthew Buck,2
Matthew Burke,3
Matthew Campbell,3
Matthew Chapman,4
Matthew Coleman,2
Matthew Collins,7
Matthew Cross,2
Matthew Cruz,3
Matthew Davis,17
Matthew Fleming,3
Matthew Fulton,2
Matthew Gill,2
Matthew Gray,3
Matthew Hardy,2
Matthew Henderson,2
Matthew Henry,2
Matthew Hoffman,2
Matthew Hughes,4
Matthew Jackson,4
Matthew Jacobs,3
Matthew Johnson,18
Matthew Jones,24
Matthew Jordan,3
Matthew King,3
Matthew Knight,5
Matthew Livingston,2
Matthew Lopez,3
Matthew Lynch,6
Matthew Martino,3
Matthew Middleton,2
Matthew Moss,2
Matthew Newton,2
Matthew Nicholson,2
Matthew Powell,2
Matthew Ramos,3
Matthew Richards,3
Matthew Slater,2
Matthew Smith,35
Matthew Sullivan,4
Matthew Thompson,13
Matthew Turner,6
Matthew Wagner,2
Matthew Webb,4
Matthew White,4
Matthew Williams,7
Matthew Yeung,2
Matti Lahti,2
Matty Clark,2
Mauricio Rodriguez,5
Max Brown,2
Max Cooper,2
Max Dooley,2
Max Jones,4
Max Peek,2
Maximilian Tischler,2
Mayra Yanez,2
Megan Clark,2
Megan Evans,2
Megan Marshall,3
Megan Martin,3
Megan Moore,3
Megan Reilly,3
Megan Robertson,2
Megan Smith,9
Megan Walton,2
Megan White,5
Mel Smith,2
Melanie Martin,2
Melanie Stewart,3
Melissa Castillo,3
Melissa Clarke,3
Melissa Garza,2
Melissa Smith,5
Melissa Watkins,2
Micah Hughes,3
Micah Moore,3
Michael Adams,10
Michael Baca,3
Michael Barbuto,2
Michael Barker,2
Michael Bland,2
Michael Bond,3
Michael Booker,2
Michael Brooks,2
Michael Brown,29
Michael Burns,3
Michael Caputo,2
Michael Carroll,5
Michael Coleman,9
Michael Collins,11
Michael Cook,7
Michael Cruz,4
Michael Davis,13
Michael Dean,4
Michael DeStefano,2
Michael Edwards,6
Michael Egan,2
Michael Farrell,3
Michael Ferguson,7
Michael Fernández,4
Michael Fisher,2
Michael Flores,11
Michael Floyd,2
Michael Flynn,4
Michael Franklin,3
Michael Gallagher,4
Michael Garcia,16
Michael Garza,6
Michael Gibson,3
Michael Gomez,4
Michael Gray,4
Michael Hafner,4
Michael Hawkins,4
Michael Jacob,3
Michael Jones,19
Michael King,6
Michael Kohl,2
Michael Kruger,4
Michael Longoria,2
Michael Lucas,2
Michael McHugh,4
Michael Medina,2
Michael Miller,11
Michael Moore,15
Michael Morris,5
Michael Morrissey,2
Michael Murray,8
Michael Newton,2
Michael Nichols,3
Michael Norwood,4
Michael Pennington,2
Michael Pham,2
Michael Pinto,2
Michael Porter,4
Michael Ray,4
Michael Riordan,2
Michael Rodriguez,19
Michael Rossi,4
Michael Ruiz,2
Michael Ryan,2
Michael Samson,2
Michael Scott,14
Michael Shaw,2
Michael Sinclair,3
Michael Smith,26
Michael Stanley,5
Michael Taylor,14
Michael Tyler,3
Michael Vecchio,2
Michael Wagner,3
Michael Walker,7
Michael Yu,2
Michaela Smith,2
Michel Taylor,2
Michele Robinson,2
Michelle Brand,2
Michelle Buchanan,2
Michelle de Jong,2
Michelle Knight,2
Michelle Lewis,2
Michelle Parkinson,2
Michelle Perez,2
Michelle Smith,10
Michelle Wan,2
Michelle Watson,2
Michelle Williams,2
Miguel Castro,2
Miguel Flores,3
Miguel López,8
Miguel Perez,6
Mike Adams,4
Mike Bailey,6
Mike Baker,2
Mike Barnett,2
Mike Boyer,2
Mike Brown,33
Mike Cannon,3
Mike Conley,3
Mike Cross,2
Mike Davies,3
Mike DeMartino,2
Mike Dixon,2
Mike Dodson,2
Mike Ellis,2
Mike Gibson,5
Mike Hall,3
Mike Harris,3
Mike Jenkins,4
Mike Johnson,14
Mike Jones,23
Mike King,7
Mike L,2
Mike Lamb,2
Mike Lanier,2
Mike Lawrence,5
Mike Lopez,3
Mike MacDonald,2
Mike Maloney,2
Mike Martin,7
Mike Miller,7
Mike Moore,6
Mike Morris,5
Mike Nichols,3
Mike Novak,2
Mike Raymond,2
Mike Roberts,5
Mike Rose,3
Mike Sanchez,4
Mike Scott,6
Mike Smith,16
Mike Stokes,2
Mike Stone,3
Mike Taylor,12
Mike Thompson,9
Mike Walsh,2
Mike Ward,2
Mike Wolfe,3
Mike Womack,4
Mikhail Levchenko,2
Mikhail Shadrin,2
Mikhail Titov,5
Minh Nguyen,9
Miranda Lopez,2
Mitch Lee,2
Mitchell Jones,2
Mohamad Arnaout,2
Mohammed Ali,2
Mohammed Rahman,2
Molly Gill,2
Mona Smith,2
Monica Benavides,2
Monica Flores,2
Montel Moore,2
Morgan,8
Morgan Brown,3
Morgan Clark,4
Morgan Fitzgerald,2
Morgan Foster,2
Morgan Garcia,2
Morgan Hicks,2
Morgan Hughes,2
Morgan Johnson,4
Morgan Kelley,2
Morgan Long,2
Morgan Lynch,2
Morgan Marshall,2
Morgan McIntosh,2
Morgan Miller,2
Morgan Smith,9
Morgan Taylor,3
Morgan Thomas,2
Morgan Thompson,4
Morgan Turner,4
Morgan Williams,3
Mukesh Singh,2
Murray,5
N. Evans,4
N. Miller,3
N. Thomas,6
Nadia Vasquez,2
Naomi Smith,2
Natalie Carr,2
Natalie Hill,3
Natalie Lira,2
Natalie Lopez,3
Natalie Richards,2
Natalie Weber,2
Nataliya Ivanova,3
Nataliya Kustova,2
Natalya Kirilova,2
Natalya Kolesnikova,3
Natalya Kozak,2
Natalya Kuzmina,4
Natalya Lukyanova,2
Natalya Makarova,3
Natalya Orekhova,2
Natalya Osipova,3
Natalya Rudenko,3
Natalya Shevchuk,2
Natalya Starikova,2
Natalya Usova,2
Natalya Zakharova,2
Natasha Clarke,3
Nate Davis,2
Nate Henderson,3
Nate Martinez,4
Nate Perry,2
Nathan Alexander,4
Nathan Atkinson,2
Nathan Carlin,3
Nathan Fletcher,3
Nathan Harris,4
Nathan Henderson,4
Nathan Jackson,4
Nathan Jones,6
Nathan King,3
Nathan Martin,4
Nathan Miller,7
Nathan Peterson,2
Nathan Pogue,2
Nathan Sanchez,4
Nathan Scott,5
Nathan Smith,16
Nathan Thompson,2
Nathan Walker,3
Nathan Wells,2
Nathan Wilson,4
Nathaniel Baker,2
Neil Cameron,2
Neil Cook,2
Neil Jones,3
Neil Matthews,2
Nestor Gonzales,2
Nestor Gonzalez,2
Nicholas Anderson,5
Nicholas Bennett,2
Nicholas Brooks,2
Nicholas Collins,2
Nicholas Dileo,2
Nicholas Ellis,2
Nicholas Evans,4
Nicholas Hall,2
Nicholas Hansen,4
Nicholas Hill,2
Nicholas Johnson,4
Nicholas Larson,3
Nicholas Martin,4
Nicholas Murphy,2
Nicholas Perez,6
Nick Baker,3
Nick Brooks,2
Nick Clark,5
Nick Collins,4
Nick Duarte,2
Nick Dunn,5
Nick Fisher,2
Nick Garcia,7
Nick Hill,3
Nick Miller,3
Nick Moore,5
Nick Murray,3
Nick Richardson,4
Nick Rodriguez,8
Nick Rouse,2
Nick Rowe,2
Nick Simpson,5
Nick Thomas,5
Nick Thompson,4
Nick Trevino,4
Nick Wright,3
Nickolas Johnson,2
Nicola Payne,2
Nicolas Briere,2
Nicolas Martin,2
Nicolas Perez,2
Nicole Brown,2
Nicole Craig,2
Nicole Hunter,2
Nicole Johnson,4
Nicole Mason,2
Nicole Nelson,2
Nicole O'Brien,2
Nicole Payne,2
Nicole Thompson,3
Nikita Dyakov,5
Nikita Efimov,5
Nikita Fatkin,2
Nikita Kuzmichev,2
Nikita Smirnov,8
Nikita Vorobev,3
Nikolay Emelyanov,4
Nikolay Sokolov,7
Noah Anderson,3
Noah Hardy,2
Noah Jones,6
Noah Martinez,8
Noah Phillips,3
Noah Young,2
Noe Garcia,2
Noel Lee,2
Norma Hernandez,2
O. Campo,2
O'Hara,2
Oksana Guseva,3
Oleg Afanasyev,4
Oleg Avdeev,2
Oleg Chernyavskiy,3
Oleg Gerasimov,4
Oleg Ivanov,12
Oleg Kaminskiy,2
Oleg Lebedev,4
Oleg Mikhaylov,2
Oleg Nikulin,3
Oleg Plotnikov,2
Oleg Sergienko,3
Oleg Smirnov,8
Oleg Stepanov,5
Oleg Timchenko,2
Oleg Vasilyev,2
Oleksandr Belov,2
Oleksandr Denisov,2
Oleksandr Klimenko,3
Oleksandr Lisovskiy,2
Oleksandr Lukyanenko,2
Oleksandr Medvedev,2
Oleksandr Miroshnichenko,5
Oleksandr Onischenko,3
Oleksandr Samus,2
Oleksandr Shevchenko,6
Oleksandr Yakovlev,3
Oleksiy Alekseenko,2
Oleksiy Miroshnichenko,2
Oleksiy Orlov,2
Olga Egorova,4
Olga Kovaleva,2
Olga Lapina,2
Olivia Adams,2
Olivia Wilson,3
Ollie Roberts,3
Ollie Walker,2
Omar Hernandez,4
Omar Martinez,4
Omar Villegas,2
Oscar Sandoval,2
Oscar Vasquez,3
Owen Smith,6
P. Bradley,2
P. Cannon,2
P. Collins,4
P. Davies,2
P. Evans,3
P. Hull,2
P. Rice,4
P. Roberts,5
P. Saindon,2
P. Stone,3
P. White,7
P. Young,6
Pablo Gutierrez,3
Pat Brooks,2
Pat Hall,3
Pat Kennedy,3
Pat Roberts,2
Pat Sullivan,4
Pat Wagner,3
Patricia Morgan,3
Patrick Craig,2
Patrick Dickson,2
Patrick Flynn,2
Patrick Griffin,3
Patrick Mackey,3
Patrick Maguire,2
Patrick McCloskey,2
Patrick McMahon,2
Patrick McNamara,3
Patrick Moore,5
Patrick Morrison,3
Patrick O'Neill,2
Patrick Thomas,2
Patrick Wells,2
Patrick Williams,5
Paul Abbott,2
Paul Barnes,2
Paul Bennett,2
Paul Bryant,2
Paul Campbell,3
Paul Childress,2
Paul Edwards,3
Paul Fleming,4
Paul Gigliotti,2
Paul Green,4
Paul Hammond,2
Paul Hickman,3
Paul Holland,2
Paul Jackson,2
Paul Johnson,6
Paul Jordan,2
Paul MacDonald,2
Paul Marsh,2
Paul Mears,2
Paul Muller,2
Paul Murphy,2
Paul Newman,3
Paul Nguyen,5
Paul Nicholson,2
Paul Parker,2
Paul Perez,4
Paul Smith,14
Paul Steinman,2
Paul Todd,2
Paul Walker,3
Paul Williams,5
Paul Wood,4
Paul Wray,2
Paul Wright,2
Paul Yoder,2
Paulo Santos,2
Pavel Melnik,2
Pavel Svoboda,2
Pavel Zakharov,3
Payton Cox,2
Payton Price,2
Payton Roberts,2
Peck,3
Pedro Vazquez,2
Peen Coles,2
Perez,8
Pete Aaron,2
Pete Bush,2
Pete Smith,3
Peter Barrett,3
Peter Davis,2
Peter Hubbard,2
Peter Jones,4
Peter King,3
Peter Nguyen,13
Peter Sutton,2
Peter Thielen,2
Peter Weiss,2
Peter White,2
Petri Leinonen,2
Peyton Cox,2
Peyton Davis,2
Peyton Smith,3
Peyton White,3
Phạm Anh Tú,2
Phil Harrington,2
Phillip Brewer,2
Phillip Kerr,2
Pieter De Waal,2
Piotr Sadowski,2
Preston Turner,3
R. Ando,3
R. Bates,5
R. Brown,39
R. Caldwell,2
R. Clark,23
R. Gillen,2
R. Ivers,3
R. Jordan,9
R. Lara,4
R. McDonald,4
R. Oliver,3
R. Phelps,2
R. Preston,3
R. Ramirez,5
R. Ramos,5
R. Rowe,3
R. Simon,2
R. Thomas,20
Rachael Johnson,2
Rachel Brown,2
Rachel Hughes,3
Rachel Jones,3
Rachel Knight,2
Rachel Smith,6
Rachel Thomas,2
Rachel Williams,2
Rachel Wilson,6
Rafael De Jesus,2
Rakesh Kumar,3
Ramil Gasanov,2
Ramon Figueroa,2
Randy Scott,2
Ray Allison,2
Ray Cross,2
Ray Harris,3
Ray Perez,3
Ray Pierce,2
Ray Wade,2
Ray Williams,2
Raymond Bell,3
Raymond Gonzales,3
Raymond Harris,2
Reagan Chapman,3
Reagan Smith,2
Rebecca Brown,3
Rebecca Cooper,2
Rebecca Jones,4
Rebecca Phillips,3
Rebecca Roberts,3
Rebecca Smith,2
Rebecca Williams,3
Reece Roberts,2
Reece Williams,2
Reese Roberts,2
Rene Juarez,3
Rhys Bennett,2
Rhys Jones,3
Ricardo Martinez,8
Ricardo Ortíz,3
Ricardo Pena,2
Rich Woods,2
Richard,2
Richard Adams,2
Richard Baker,3
Richard Brown,6
Richard Čech,2
Richard Clarke,3
Richard Crouch,2
Richard Daniel,2
Richard Flores,6
Richard Green,2
Richard Jones,6
Richard Landry,2
Richard Lewis,4
Richard Maher,2
Richard Martin,2
Richard Murphy,2
Richard Roberts,4
Richard Ruiz,2
Richard Salazar,3
Richard Turner,2
Richard Williams,5
Richard Wright,2
Rick Clark,2
Rick Marshall,2
Rick Perez,2
Rick Reed,2
Rick Smith,4
Rick Thomas,4
Ricky Gomez,2
Ricky May,2
Ricky Ortiz,3
Ricky Thompson,2
Riley Brooks,2
Riley Carter,2
Riley Clark,2
Riley Davis,2
Riley Miller,4
Riley Smith,6
Riley Wilson,4
Rob Maguire,2
Rob Ryan,2
Rob Smith,5
Rob Thomas,2
Rob Ward,3
Rob Williams,3
Robbie Fox,2
Robbie Rees,2
Robbie Scott,2
Robbie Smith,2
Robert Adams,10
Robert Allen,3
Robert Avery,2
Robert Barr,3
Robert Bennett,2
Robert Campbell,6
Robert Crawford,4
Robert Dempsey,2
Robert Doll,3
Robert Evans,8
Robert Garcia,12
Robert Godinez,2
Robert Graham,2
Robert Hayes,2
Robert Hill,6
Robert Hughes,5
Robert Johnston,3
Robert Jordan,2
Robert Keller,3
Robert Khun,2
Robert Ludwig,2
Robert McClure,2
Robert McMaster,2
Robert Miller,13
Robert Morrison,4
Robert Newcomb,2
Robert Palmer,3
Robert Peters,5
Robert Price,3
Robert Ramsey,4
Robert Sanchez,7
Robert Saunders,3
Robert Schmidt,5
Robert Scott,4
Robert Simmons,3
Robert Tate,2
Robert Torres,5
Robert Tucker,2
Robert Young,5
Roberta Carlson,2
Roberto Rodriguez,8
Robin Black,3
Robin Riley,2
Robin Smith,2
Robin Weber,2
Rod Hall,2
Rodion Golovko,2
Roger Davis,4
Roger Eriksson,2
Roger Gorumba,2
Roger Powell,2
Rogers,12
Roman Avdeev,2
Roman Bernatskiy,2
Roman Chebotarev,5
Roman Dyachenko,2
Roman Garcia,4
Roman Gavrilov,4
Roman Gonzales,3
Roman Ivanov,13
Roman Kuznetsov,20
Roman Lunev,2
Roman Lyutyy,3
Roman Martynenko,2
Roman Osin,2
Roman Pankov,2
Roman Pogorelov,3
Roman Savitskiy,3
Roman Shishkin,3
Roman Vershinin,3
Roman Zakirov,2
Ron Conley,2
Ron Jacobs,3
Ron Johnson,2
Ron Mills,2
Ron White,4
Ross Watson,2
Ross Wiggin,2
Roy Brown,2
Ruben Gonzalez,6
Ruben Hernandez,3
Ruben Oliveira,2
Ruby Gutierrez,2
Ruby Martinez,2
Rudy Ruiz,4
Ruslan Aliev,8
Ruslan Andreev,2
Russ Barlow,2
Russ Smith,3
Russell Edwards,2
Russell Taylor,4
Rustem Eredzhepov,2
Ruth Douglas,2
Ruth Mitchell,2
Ryan Alexander,3
Ryan Allen,5
Ryan Aragon,2
Ryan Araujo,2
Ryan Bagley,2
Ryan Baker,2
Ryan Barnett,2
Ryan Brown,7
Ryan Campbell,3
Ryan Carrillo,2
Ryan Clark,9
Ryan Collins,4
Ryan Gallo,2
Ryan Garcia,10
Ryan Green,4
Ryan Gregory,2
Ryan Harrison,4
Ryan Hill,3
Ryan Horton,3
Ryan Huffman,3
Ryan Hughes,7
Ryan Humphries,2
Ryan Johnson,28
Ryan Jones,11
Ryan Jordan,4
Ryan Kennedy,3
Ryan King,9
Ryan Lee,4
Ryan Lucas,4
Ryan Martin,8
Ryan McClure,2
Ryan Miller,7
Ryan Mitchell,2
Ryan Morgan,5
Ryan Preston,3
Ryan Ramirez,4
Ryan Sanders,3
Ryan Shaw,2
Ryan Stephenson,2
Ryan Stewart,12
Ryan Strange,2
Ryan Taylor,9
Ryan Thompson,5
Ryan Webb,3
Ryan Williams,9
Rylee Davidson,2
Rylee Davis,2
S. Allen,9
S. Allsop,2
S. Bell,8
S. Castillo,2
S. Coburn,2
S. Cook,8
S. Emmons,2
S. Fitzgerald,2
S. Hall,11
S. Hanley,2
S. Harris,8
S. Helton,4
S. Herman,3
S. Hill,12
S. Hires,3
S. Hughes,6
S. Hultz,2
S. Johnson,35
S. Jones,25
S. Keen,2
S. Long,5
S. McGowan,2
S. Middleton,2
S. Moyer,2
S. Murphy,10
S. Murray,7
S. Myre,2
S. Parks,2
S. Pearman,2
S. Pence,2
S. Phillips,6
S. Singh,3
S. Smith,45
S. Steele,3
S. Wade,3
S. Weston,2
S. Whelan,2
Sabrina Miller,2
Sabrina Moore,2
Sally Perry,2
Salman Khan,3
Sam Bell,3
Sam Bird,2
Sam Brookes,2
Sam Brown,5
Sam Carter,2
Sam Clark,3
Sam Cook,2
Sam Cooper,4
Sam Fowler,7
Sam Garcia,4
Sam Graham,2
Sam Grubbs,2
Sam Harrison,3
Sam Harvey,2
Sam Henderson,3
Sam Hoffman,3
Sam Jackson,2
Sam Johnson,6
Sam Jones,4
Sam Mangialardi,2
Sam Martinez,2
Sam Moore,5
Sam Murphy,4
Sam Parker,3
Sam Robinson,4
Sam Sanchez,3
Sam Shapiro,2
Sam Smith,10
Sam Sparks,2
Sam Sullivan,2
Sam Taylor,8
Sam Ware,2
Sam Wood,2
Sam Wright,3
Samantha Brown,5
Samantha Cooper,3
Samantha Cox,2
Samantha Davis,2
Samantha Gardner,2
Samantha Johnson,3
Samantha Pierce,2
Samantha Reyes,2
Samantha Sanchez,3
Samantha Taylor,4
Samantha Thomas,2
Samantha White,3
Samantha Wilson,3
Samuel Cook,3
Samuel Hall,2
Samuel Legg,2
Samuel Sanchez,3
Samuel Smith,4
Samuel Taylor,2
Samuel Turner,2
Sandra Torres,2
Sandy Lee,2
Sara Hill,3
Sara Jones,4
Sara King,2
Sara Smith,5
Sarah Allen,3
Sarah Brenner,2
Sarah Brown,5
Sarah Butler,4
Sarah Coleman,3
Sarah Davis,3
Sarah Glover,2
Sarah Green,2
Sarah Griffin,2
Sarah Hernandez,2
Sarah Kelly,2
Sarah Klein,2
Sarah Lewis,3
Sarah Pearson,4
Sarah Scott,4
Sarah Skinner,3
Sarah Smith,9
Sarah Vance,2
Sarah Walls,3
Sarah Watkins,2
Sarah Watson,4
Sarah Wells,3
Sarah White,2
Sarah Wilson,4
Scott Evans,2
Scott Hall,4
Scott Hanna,2
Scott Harvey,2
Scott Hill,2
Scott Hopkins,2
Scott Hughes,4
Scott Morgan,6
Scott Rowe,2
Scott Russell,4
Scott Sciaretta,2
Scott Simon,3
Scott Smith,18
Scott Sullivan,4
Scott Thomas,8
Scott Turner,2
Scott Walker,6
Scott Williams,3
Scott Wood,6
Scott Wright,4
Scott York,2
Sean Barrett,3
Sean Brown,5
Sean Burke,2
Sean Burns,4
Sean Curran,4
Sean Dunn,2
Sean Gillespie,2
Sean Green,6
Sean Hayes,4
Sean Kelly,6
Sean McCarthy,4
Sean Miller,3
Sean Mills,2
Sean Simpson,3
Sean Smith,8
Sean Sullivan,5
Sergey Biryukov,9
Sergey Danielyan,2
Sergey Fedorov,18
Sergey Gerasimov,10
Sergey Gorbachev,4
Sergey Ivankov,2
Sergey Kolesnichenko,2
Sergey Kolesnik,2
Sergey Konovalov,8
Sergey Kuznetsov,47
Sergey Lukyanenko,2
Sergey Malkov,6
Sergey Matveev,13
Sergey Menshchikov,2
Sergey Mikhalev,2
Sergey Novikov,15
Sergey Popov,30
Sergey Sherstnev,2
Sergey Shvetsov,4
Sergey Sokolov,19
Sergey Solovev,6
Sergey Solovyev,3
Sergey Sychev,5
Sergey Tarasov,13
Sergey Zakharov,15
Sergey Zhuravlev,9
Sergio Rodriguez,6
Sergio Torres,4
Sergiy Karnaukhov,2
Sergiy Kharchenko,2
Sergiy Kuznetsov,3
Sergiy Miroshnichenko,3
Sergiy Pozdeev,2
Sergiy Prokofev,3
Sergiy Solomyrskyy,2
Sergiy Znamirovskiy,2
Seth Johnson,5
Seung Lee,2
Shane Bernard,2
Shane Cahill,2
Shannon Brown,3
Shannon Cook,3
Shannon Evans,4
Shannon Hart,2
Shannon Maxwell,2
Shannon Nichols,2
Shannon Ray,2
Shannon Rogers,2
Shannon Smith,3
Sharon Holmes,2
Sharon Ward,2
Shaun Davis,4
Shawn Brooks,2
Shawn Campbell,2
Shawn Edwards,2
Shawn Jones,8
Shawn Miller,2
Shawn Murphy,3
Shawn Sanchez,2
Shawn Warren,3
Shawn Watts,3
Shay Smith,2
Shay Ward,2
Shelby Anderson,2
Shelby Dickerson,2
Shelby Jones,3
Shelly Stewart,2
Shyam Singh Rana,2
Sierra Smith,2
Silvia Martinez,2
Simon Lewis,2
Simon Rowland,2
Simon Williams,2
Simon Zhu,2
Simone Corbett,2
Siobhan Hynes,2
Siriah Rodriguez,2
Skye Johnson,2
Skylar Crow,3
Skylar Johnson,5
Skylar Nelson,2
Sophie Fuller,2
Sophie Smith,2
Space,2
Spencer Brown,4
Spencer Erickson,2
Spencer Ferguson,2
Spencer Martin,3
Stacey Nelson,2
Stacey Robinson,2
Stacy Hawkins,2
Stacy Miller,3
Stanislav Afanasev,2
Stanislav Kuznetsov,3
Stanislav Maksimov,2
Stanislav Mikhaylov,2
Stanislav Morozov,2
Stephanie Bennett,3
Stephanie Hernandez,4
Stephanie Pearce,2
Stephanie Taylor,2
Stephen Adams,2
Stephen Anderson,2
Stephen Brown,5
Stephen Bryant,2
Stephen Coody,2
Stephen Davies,2
Stephen Duffy,2
Stephen Evans,6
Stephen Johnson,5
Stephen King,6
Stephen Lane,2
Stephen Martin,5
Stephen Moore,5
Stephen Slater,2
Stephen White,3
Sterling Brown,3
Steve Arnold,2
Steve Bennett,3
Steve Brandon,2
Steve Brown,12
Steve Dunn,3
Steve Fleming,3
Steve Frederick,2
Steve Gardner,3
Steve Jarvis,3
Steve Johnson,15
Steve King,3
Steve Knight,3
Steve Little,2
Steve Lumpee,2
Steve Mann,2
Steve McBride,2
Steve Meyer,3
Steve Miller,3
Steve Morgan,2
Steve Peña,2
Steve Roberts,2
Steve Smith,14
Steve Snell,2
Steve Snyder,4
Steve Taylor,4
Steve Walker,4
Steve White,2
Steve Wilson,2
Steve Wiseman,3
Steven Brown,4
Steven Evans,3
Steven Jackson,3
Steven Jones,3
Steven Lee,6
Steven Moore,5
Steven Moran,2
Steven Pham,2
Steven Rice,2
Steven Short,3
Steven Stewart,2
Steven Williams,5
Stjepan Kovač,3
Stuart Graham,2
Stuart Thomson,2
Sukhwinder Singh,3
Susan Edwards,2
Susan Farrell,2
Susan Johnson,3
Sutton,5
Suzanne Gray,2
Suzanne Smith,4
Svetlana Morozova,3
Sydney Stewart,3
T. An,2
T. Daniels,2
T. George,2
T. Hamilton,6
T. Legg,2
T. Potter,2
T. Rice,2
T. Sharp,2
T. Webster,4
T. Weller,2
Tám Nguyen,2
Tamara Cook,2
Tara Taylor,2
Tatiana Rodriguez,2
Tatum Price,2
Tatyana Ovchinnikova,4
Tatyana Zaytseva,2
Taylor Allen,2
Taylor Armstrong,2
Taylor Ball,2
Taylor Bennett,3
Taylor Black,2
Taylor Brown,4
Taylor Chapman,2
Taylor Clark,2
Taylor Corley,2
Taylor Daniel,2
Taylor Davis,5
Taylor Dudley,2
Taylor Ellis,2
Taylor Evans,4
Taylor Ford,3
Taylor Foster,3
Taylor Garcia,2
Taylor Garrett,2
Taylor Green,2
Taylor Gregg,3
Taylor Guerrero,2
Taylor Haas,2
Taylor Haley,2
Taylor Hall,4
Taylor Harris,4
Taylor Henderson,2
Taylor Hobbs,2
Taylor Hunt,2
Taylor Hurt,2
Taylor Jackson,4
Taylor Johnson,8
Taylor Jones,4
Taylor Kelley,3
Taylor Kemp,2
Taylor Lane,2
Taylor Lewis,2
Taylor Lipscomb,2
Taylor McKenzie,2
Taylor Medina,2
Taylor Miller,6
Taylor Mills,2
Taylor Moon,2
Taylor Moore,2
Taylor Morin,2
Taylor Moss,2
Taylor Myers,2
Taylor Osborne,2
Taylor Parker,2
Taylor Price,3
Taylor Ray,2
Taylor Reed,4
Taylor Reid,2
Taylor Roberts,3
Taylor Schneider,2
Taylor Selman,2
Taylor Smith,12
Taylor Thomas,5
Taylor Thompson,5
Taylor Torres,3
Taylor Ward,3
Taylor Webster,2
Taylor West,2
Taylor Williams,7
Taylor Wright,2
Taylor Young,5
Ted Cooper,2
Terry Baldwin,3
Terry Chapman,2
Terry Hall,2
Terry Kirby,2
Terry Morris,2
Terry Smith,8
Terry Turner,2
Terry Wilson,3
Tetyana Davidenko,2
Thanh Nguyen,6
Thanh Tran,2
Theresa Farley,2
Thomas Adams,4
Thomas Anderson,4
Thomas Davis,3
Thomas Duong,2
Thomas Evans,6
Thomas Goodwin,2
Thomas Grant,3
Thomas Hill,4
Thomas Johnston,5
Thomas Knapp,2
Thomas Lane,2
Thomas Le,2
Thomas Marshall,2
Thomas McCarthy,4
Thomas McCarty,2
Thomas McKinney,2
Thomas Miller,6
Thomas Ochoa,2
Thomas Perry,2
Thomas Simpson,2
Thomas Saunders,2
Thomas Tran,3
Thomas Wang,2
Thomas West,2
Thuong Nguyen,2
Tien Tran,2
Tigran Simonyan,2
Tim Albanese,2
Tim Arnold,2
Tim Baker,4
Tim Clark,2
Tim Davies,2
Tim Gale,2
Tim Johnston,4
Tim Krause,2
Tim Lewis,3
Tim Martin,6
Tim Mitchell,6
Tim O'Brien,5
Tim Parker,5
Tim Smith,10
Tim Taylor,6
Tim Willis,2
Timothy Brown,3
Timothy Davies,2
Tina Collins,2
Tina Michaud,2
TJ Collins,2
TJ Williams,3
Todd Wilson,3
Tom Bell,2
Tom Bishop,2
Tom Bowen,4
Tom Brown,8
Tom Burns,2
Tom Clarke,2
Tom Collins,3
Tom Conklin,2
Tom Cunningham,2
Tom Davies,2
Tom Davis,9
Tom Ford,2
Tom Fox,4
Tom Gee,2
Tom Griffin,2
Tom Griffiths,2
Tom Henderson,3
Tom Jenkins,3
Tom Jones,4
Tom Lee,4
Tom MacDonald,3
Tom Marshall,2
Tom Martin,6
Tom Miller,4
Tom Murphy,4
Tom O'Donnell,2
Tom Price,3
Tom Roberts,2
Tom Ross,2
Tom Rowell,2
Tom Smith,10
Tom Taylor,6
Tom Ward,3
Tom Williams,5
Tomas Gomez,2
Tomas Novak,2
Tommy Holland,3
Tommy Ray D'Ortez,2
Tony Brown,5
Tony Del Vecchio,2
Tony Galvez,2
Tony Harvey,2
Tony Howard,2
Tony Jackson,2
Tony Le,4
Tony Mai,2
Tony Payne,2
Tony Pedersen,2
Tony Ramos,3
Tony Robinson,3
Tony Rodriguez,5
Tony Rose,2
Tony Sanders,4
Tony Scott,2
Tony Stevens,2
Tori Baker,2
Tracy Adams,3
Tracy Brown,4
Tracy Bryant,3
Tracy Ellis,2
Tracy Johnson,8
Tracy Jones,4
Tracy Linton,2
Tracy Roberts,2
Tracy Russell,2
Tracy Smith,4
Travis Bell,2
Travis Ford,3
Travis Parker,3
Travis Webb,3
Travis Webster,2
Travis Wilson,3
Trevor Gilbert,2
Trevor Miller,4
Tristan Perez,3
Tristan Price,2
Troy Robinson,2
Troy Williams,2
Tu Le,3
Tuan Nguyen,4
Ty Evans,3
Ty Martin,2
Tyler Adams,7
Tyler Brooks,2
Tyler Collins,3
Tyler Copeland,2
Tyler Elliott,3
Tyler Evans,4
Tyler Garcia,3
Tyler Glover,2
Tyler Gray,5
Tyler Henderson,2
Tyler Jackson,4
Tyler Jones,9
Tyler Lang,2
Tyler Lee,3
Tyler Lloyd,3
Tyler Mann,2
Tyler Martinez,5
Tyler Morrow,3
Tyler Oliver,2
Tyler Sanders,2
Tyler Simpson,3
Tyler Smith,13
Tyler Tucker,2
Tyler White,6
Tyler Wilson,12
Tyler Young,3
Tyson Hubbard,2
Ulyana Zakhozhaya,2
V. Edwards,2
V. Welch,2
Vadim Aliev,2
Vadim Bondar,3
Valentin Kalinin,2
Valerie Leblanc,2
Valerie Sanchez,3
Valerie Smith,3
Valeriy Babich,2
Valeriy Chernov,3
Valeriy Gazayev,2
Valeriy Grigorev,2
Valeriy Karpov,2
Valeriy Kuznetsov,8
Valeriy Marchenko,2
Valeriy Melnik,2
Valeriy Savin,2
Valeriy Savinkin,2
Valeriy Sokolov,3
Valery Novik,2
Vanessa Butler,2
Vanessa Martinez,8
Vanessa Reed,2
Vasiliy Karpov,2
Veniamin Nikitin,2
Veronica Garcia,5
Veronica Rodriguez,3
Victor Aguilar,6
Victor Castro,3
Victor Hernandez,9
Victoria Anderson,2
Victoria Gutierrez,3
Victoria Hammond,2
Victoria Martinez,6
Victoria Miller,2
Victoria Robinson,2
Victoria Smith,5
Viktor Chernysh,3
Viktor Druzhininskiy,2
Viktor Falbiychuk,2
Viktor Grischenko,2
Viktor Kostyuk,2
Viktor Kurbatov,2
Viktor Kuznetsov,5
Viktor Nikitin,5
Viktor Pastukhov,2
Viktor Piskunov,2
Viktor Popov,7
Viktor Shevchenko,4
Viktor Yatsishin,2
Viktor Yurchenko,3
Viktoriya Boyko,2
Viktoriya Fedorova,2
Viktoriya Kalashnikova,2
Viktoriya Kazakova,2
Viktoriya Popova,2
Vincent Brown,2
Vincent Jones,4
Vincent Nguyen,6
Vinh Nguyen,6
Vitaliy Alekseev,2
Vitaliy Belyaev,4
Vitaliy Berko,2
Vitaliy Bondarev,3
Vitaliy Boyko,2
Vitaliy Burlakov,3
Vitaliy Dergachev,2
Vitaliy Dmitriev,2
Vitaliy Kasyanenko,2
Vitaliy Khaustov,3
Vitaliy Kotov,3
Vitaliy Kucheruk,2
Vitaliy Marchenko,3
Vitaliy Mazur,2
Vitaliy Mikheev,3
Vitaliy Miroshnichenko,2
Vitaliy Omelchenko,2
Vitaliy Samoylich,2
Vitaliy Savelev,2
Vitaliy Savin,3
Vitaliy Shvets,2
Vitaliy Sidorov,3
Vitaliy Tereschenko,3
Vitaliy Titarenko,2
Vitaliy Tkachenko,3
Vitaliy Vasilyev,2
Vitaliy Yurchenko,2
Vladimir Bondarenko,4
Vladimir Lysenko,3
Vladimir Maksimov,5
Vladimir Omelchenko,2
Vladimir Urban,2
Vladimir Volkov,9
Vladimir Zakharov,8
Vladimir Zavyalov,4
Vladislav Ermakov,2
Vladislav Ivanenko,2
Vladislav Kravchenko,4
Vladislav Mavrin,2
Vladislav Moiseev,2
Vladislav Nikitin,4
Vladislav Savitskiy,3
Vladislav Sirenko,2
Vladislav Vershinin,3
Vladislav Vishnevskiy,2
Volodymyr Lebedev,2
Vy Nguyen,2
Vyacheslav Arkhipov,2
Vyacheslav Babenko,2
Vyacheslav Filimonov,2
Vyacheslav Gorbunov,5
Vyacheslav Kazantsev,2
Vyacheslav Konovalov,3
Vyacheslav Kravchenko,4
Vyacheslav Maksimov,3
Vyacheslav Pankov,2
Vyacheslav Petrov,5
Vyacheslav Vlasyuk,2
Vyacheslav Yakovlev,5
Vyacheslav Zhukov,2
W. Aller,2
W. Davies,2
W. Hill,6
W. Lewis,3
W. Sharp,3
W. Stewart,8
Wade Phillips,2
Walter Diaz,2
Ward,8
Watts,2
Wayne Hunter,2
Wei Liu,2
Wei Wang,2
Wendy Harris,2
Wendy Williams,2
Wesley Cheng,2
Wesley Hall,2
Wesley Johnson,2
Wesley Williams,6
Will Barnett,3
Will McKinney,2
Will Morgan,2
Will Smith,11
Willi Müller,2
William Adams,5
William Allen,3
William Andrews,6
William Brennan,2
William Brown,12
William Cooper,3
William Davis,3
William Hall,8
William Hobbs,2
William Jackson,7
William Jones,8
William Kelly,3
William Lake,2
William Lawson,2
William Lay,2
William Manning,2
William McLaughlin,4
William Moore,10
William Murray,5
William Newton,2
William Nichols,3
William Payne,3
William Peters,2
William Phillips,3
William Pickering,2
William Reed,5
William Rodgers,3
William Smith,16
William Spencer,2
William Walker,6
William Watts,4
William Webb,3
William West,4
William Wright,3
Williams,36
Wood,6
Xavier Johnson,2
Xavier Perez,3
Xiao Wang,2
Yan Chen,2
Yan Sun,2
Yana Kuznetsova,2
Yang Xu,2
Yaroslav Yaroslavskiy,2
Yessica Martinez,2
Yevgen Vasilyev,2
Yevgen Yakovlev,2
Yi Chen,4
Ying Sun,2
Yuan Dong,2
Yue Cui,2
Yuliya Antonova,3
Yuliya Karaseva,2
Yuliya Kravchenko,5
Yuliya Manko,2
Yuliya Matveeva,2
Yuliya Medvedeva,4
Yuliya Novikova,5
Yuliya Ostapenko,2
Yuliya Rudenko,3
Yuliya Shevchenko,2
Yuliya Smirnova,4
Yuliya Vovk,2
Yuriy Akulov,2
Yuriy Alekseev,3
Yuriy Antonov,8
Yuriy Babenko,2
Yuriy Baranov,3
Yuriy Chernyavskiy,2
Yuriy Dudnik,2
Yuriy Fedotov,2
Yuriy Ischenko,2
Yuriy Ivanov,13
Yuriy Kolesnikov,3
Yuriy Konev,2
Yuriy Kravchenko,6
Yuriy Kukhterin,2
Yuriy Kulikov,3
Yuriy Kuzmenkov,2
Yuriy Lutsenko,2
Yuriy Mazur,2
Yuriy Medvedev,2
Yuriy Melnichenko,2
Yuriy Panteleev,2
Yuriy Parkhomenko,2
Yuriy Pavlov,2
Yuriy Pavlovskiy,2
Yuriy Polishchuk,5
Yuriy Popov,5
Yuriy Prokopenko,3
Yuriy Radchenko,2
Yuriy Romanov,2
Yuriy Sedin,2
Yuriy Semenov,6
Yuriy Sereda,2
Yuriy Shulga,4
Yuriy Smirnov,8
Yuriy Sobolev,2
Yuriy Sviridenko,2
Yuriy Vasilev,5
Yuriy Vlasov,2
Zac Mayo,2
Zach Allen,2
Zach Baggett,2
Zach Baker,3
Zach Brown,4
Zach Cole,2
Zach Flowers,2
Zach Mitchell,2
Zach Moore,7
Zach Morrow,3
Zach Murphy,2
Zach Robinson,2
Zach Smith,18
Zach Turner,2
Zach Wilson,4
Zachary Lee,2
Zachary Nelson,4
Zachary Williams,6
Zack Allen,2
Zack Austin,2
Zack Johnson,4
Zackary Sanders,2
Zane Smith,2
Zeb Jones,2
Zhanna Ivanova,3
Zion Lewis,2
Zoe Gonzalez,3
Zoey Baker,2
Zoltan Horvath,2
