Division,WeightClassKg,Place,Name,Team,BodyweightKg,Best3SquatKg,Best3BenchKg,Best3DeadliftKg,TotalKg,Equipment,Event,Sex,BirthDate
Boys,51.71,1,Colby Murphey,Ponder,50.08,111.13,65.77,115.67,292.57,Single-ply,SBD,M,
Boys,51.71,2,Jaden Dobyns,Alvord,51.17,104.33,56.7,124.74,285.76,Single-ply,SBD,M,
Boys,51.71,3,Nicky Diaz,Nocona,51.71,97.52,68.04,108.86,274.42,Single-ply,SBD,M,
Boys,51.71,4,Gage Dyer,Valley View,51.71,113.4,43.09,108.86,265.35,Single-ply,SBD,M,
Boys,55.79,1,Colton Covington,Bowie,55.79,129.27,86.18,149.69,365.14,Single-ply,SBD,M,
Boys,55.79,2,Leander Lovelace,Alvord,55.79,117.93,63.5,142.88,324.32,Single-ply,SBD,M,
Boys,55.79,3,Tyler Slimp,Alvord,55.34,108.86,61.23,117.93,288.03,Single-ply,SBD,M,
Boys,55.79,4,James Allison,Bowie,53.34,104.33,56.7,111.13,272.16,Single-ply,SBD,M,
Boys,55.79,DQ,Colton Prestridge,Paradise,53.07,,,,,Single-ply,SBD,M,
Boys,59.87,1,Wyatt Abbott,Alvord,57.7,165.56,95.25,192.78,453.59,Single-ply,SBD,M,
Boys,59.87,2,Miguel Olivares,Nocona,56.52,145.15,92.99,158.76,396.89,Single-ply,SBD,M,
Boys,59.87,3,Damian Estrada,Paradise,59.87,161.03,90.72,142.88,394.63,Single-ply,SBD,M,
Boys,59.87,4,Dorian Ellis,Nocona,57.97,136.08,77.11,149.69,362.87,Single-ply,SBD,M,
Boys,59.87,5,Damien Lopez,Chico,59.42,142.88,70.31,136.08,349.27,Single-ply,SBD,M,
Boys,59.87,DQ,Claetyn Moore,Ponder,59.87,142.88,,,,Single-ply,SBD,M,
Boys,67.13,1,Tucker Abbott,Alvord,63.5,192.78,113.4,238.14,544.31,Single-ply,SBD,M,
Boys,67.13,2,Arturo Parra,Chico,66.77,190.51,97.52,174.63,462.66,Single-ply,SBD,M,
Boys,67.13,3,Mason Hodges,Ponder,65.77,183.7,92.99,165.56,442.25,Single-ply,SBD,M,
Boys,67.13,4,Xavier Ochoa,Alvord,67.13,163.29,108.86,161.03,433.18,Single-ply,SBD,M,
Boys,67.13,5,Lane Medlock,Boyd,65.23,158.76,90.72,181.44,430.91,Single-ply,SBD,M,
Boys,67.13,6,Wyatt Exner,Valley View,62.96,151.95,61.23,170.1,383.29,Single-ply,SBD,M,
Boys,67.13,7,Jason Vaughn,Bowie,62.6,113.4,90.72,145.15,349.27,Single-ply,SBD,M,
Boys,67.13,8,Darren Loper,Paradise,66.95,111.13,81.65,154.22,347,Single-ply,SBD,M,
Boys,67.13,9,Wyatt Davis,Boyd,65.14,127.01,74.84,136.08,337.93,Single-ply,SBD,M,
Boys,67.13,10,Gavin Furgerson,Boyd,66.41,115.67,68.04,115.67,299.37,Single-ply,SBD,M,
Boys,74.84,1,Chase Compton,Alvord,69.67,195.04,113.4,183.7,492.15,Single-ply,SBD,M,
Boys,74.84,2,Trevor Hopson,Bowie,68.67,161.03,102.06,167.83,430.91,Single-ply,SBD,M,
Boys,74.84,3,Charles Marks,Ponder,72.48,156.49,90.72,170.1,417.3,Single-ply,SBD,M,
Boys,74.84,4,Jaxson Johnston,Bowie,73.35,149.69,97.52,149.69,396.89,Single-ply,SBD,M,
Boys,74.84,5,Chase Eustace,Boyd,67.95,145.15,88.45,149.69,383.29,Single-ply,SBD,M,
Boys,74.84,6,Matthew Longacre,Chico,72.39,124.74,79.38,154.22,358.34,Single-ply,SBD,M,
Boys,74.84,7,Christian Masters,Boyd,72.12,149.69,92.99,113.4,356.07,Single-ply,SBD,M,
Boys,74.84,8,Kayden Pinneke,Chico,71.94,124.74,83.91,113.4,322.05,Single-ply,SBD,M,
Boys,74.84,9,James Miles,Valley View,73.48,136.08,40.82,138.35,315.25,Single-ply,SBD,M,
Boys,74.84,10,Braden Miles,Valley View,72.21,22.68,72.57,151.95,247.21,Single-ply,SBD,M,
Boys,74.84,DQ,Kale Jones,Ponder,71.49,,,,,Single-ply,SBD,M,
Boys,82.1,1,Rayce Pennartz,Alvord,78.11,226.8,129.27,217.72,573.79,Single-ply,SBD,M,
Boys,82.1,2,Caden Smith,Ponder,80.47,199.58,131.54,226.8,557.92,Single-ply,SBD,M,
Boys,82.1,3,Michael Nelson,Boyd,81.92,208.65,117.93,226.8,553.38,Single-ply,SBD,M,
Boys,82.1,4,Tad Tamplen,Ponder,79.56,226.8,111.13,199.58,537.51,Single-ply,SBD,M,
Boys,82.1,5,Landon Wilson,Nocona,79.83,167.83,138.35,204.12,510.29,Single-ply,SBD,M,
Boys,82.1,6,Zane Cassidy,Ponder,78.56,197.31,111.13,183.7,492.15,Single-ply,SBD,M,
Boys,82.1,7,Johnny Stone,Nocona,80.56,181.44,102.06,197.31,480.81,Single-ply,SBD,M,
Boys,82.1,8,Jace Wilder,Boyd,79.2,145.15,111.13,142.88,399.16,Single-ply,SBD,M,
Boys,82.1,9,Cash Cawthon,Valley View,80.01,140.61,58.97,158.76,358.34,Single-ply,SBD,M,
Boys,82.1,10,Braden Thoms,Paradise,77.2,129.27,97.52,124.74,351.53,Single-ply,SBD,M,
Boys,82.1,11,Christian Aguilar,Boyd,75.39,120.2,77.11,129.27,326.59,Single-ply,SBD,M,
Boys,89.81,1,Johnny Arenas,Bowie,86.18,204.12,113.4,161.03,478.54,Single-ply,SBD,M,
Boys,89.81,2,Callan Furgerson,Boyd,83.46,174.63,120.2,181.44,476.27,Single-ply,SBD,M,
Boys,89.81,3,Tucker Thompson,Ponder,83.64,174.63,111.13,167.83,453.59,Single-ply,SBD,M,
Boys,89.81,4,Jesse Nelson,Boyd,87.91,158.76,113.4,170.1,442.25,Single-ply,SBD,M,
Boys,89.81,5,Blaine Warner,Paradise,86.09,154.22,106.59,154.22,415.04,Single-ply,SBD,M,
Boys,89.81,6,Nash Lowrance,Alvord,84.37,131.54,79.38,167.83,378.75,Single-ply,SBD,M,
Boys,89.81,DQ,Marrick Harvey,Paradise,83.01,181.44,,,,Single-ply,SBD,M,
Boys,99.79,1,Peyton Barthold,Valley View,94.8,190.51,97.52,222.26,510.29,Single-ply,SBD,M,
Boys,99.79,2,Jessie Rodriguez,Boyd,96.07,195.04,124.74,188.24,508.02,Single-ply,SBD,M,
Boys,99.79,3,Levi Waggoner,Paradise,94.17,190.51,102.06,167.83,460.4,Single-ply,SBD,M,
Boys,99.79,4,Alessandro Rico,Nocona,92.8,156.49,102.06,190.51,449.06,Single-ply,SBD,M,
Boys,99.79,DQ,Colby Price,Bowie,92.35,219.99,,,,Single-ply,SBD,M,
Boys,109.77,1,Jakson Hofbauer,Bowie,109.68,238.14,142.88,210.92,591.94,Single-ply,SBD,M,
Boys,109.77,2,Josh Tucker,Paradise,104.51,206.38,117.93,204.12,528.44,Single-ply,SBD,M,
Boys,109.77,3,Wyatt Isabell,Valley View,101.6,188.24,111.13,206.38,505.76,Single-ply,SBD,M,
Boys,109.77,4,Dario Cervantes,Valley View,101.7,181.44,90.72,190.51,462.66,Single-ply,SBD,M,
Boys,109.77,5,James Frye,Alvord,102.33,183.7,95.25,156.49,435.45,Single-ply,SBD,M,
Boys,109.77,6,Jakob Reed,Bowie,104.6,163.29,120.2,142.88,426.38,Single-ply,SBD,M,
Boys,109.77,7,Fabian Ortiz,Paradise,106.68,124.74,99.79,151.95,376.48,Single-ply,SBD,M,
Boys,109.77,DQ,Bryan DeLeon,Ponder,104.6,238.14,120.2,,,Single-ply,SBD,M,
Boys,124.74,1,Bryan Arellano,Bowie,116.3,317.51,181.44,204.12,703.07,Single-ply,SBD,M,
Boys,124.74,2,Hayden Sands,Alvord,112.22,240.4,145.15,195.04,580.6,Single-ply,SBD,M,
Boys,124.74,3,Gabe Arencibia,Bowie,114.12,206.38,117.93,215.46,539.77,Single-ply,SBD,M,
Boys,124.74,4,Joe Green,Ponder,111.22,215.46,127.01,188.24,530.7,Single-ply,SBD,M,
Boys,124.74,5,Thomas Carmona,Ponder,117.21,199.58,120.2,188.24,508.02,Single-ply,SBD,M,
Boys,139.71,1,Coleton Price,Bowie,130.73,319.78,151.95,244.94,716.68,Single-ply,SBD,M,
Boys,139.71,2,William Estel,Boyd,126.01,244.94,124.74,172.37,542.04,Single-ply,SBD,M,
Boys,139.71,3,Jacobi McGregor,Bowie,128.46,170.1,95.25,149.69,415.04,Single-ply,SBD,M,
Boys,139.71,4,Tyler Davis,Alvord,125.19,158.76,86.18,142.88,387.82,Single-ply,SBD,M,
