Division,WeightClassKg,Place,Name,Team,BodyweightKg,Best3SquatKg,Best3BenchKg,Best3DeadliftKg,TotalKg,Equipment,Event,Sex,BirthDate
Boys,59.87,1,Hunter Vandver,Splendora,58.6,138.35,95.25,170.1,403.7,Single-ply,SBD,M,
Boys,59.87,2,Kevin Jackson,Pasadena Rayburn,56.7,142.88,61.23,149.69,353.8,Single-ply,SBD,M,
Boys,67.13,1,Haden Moidel,Crosby,65.32,115.67,83.91,170.1,369.68,Single-ply,SBD,M,
Boys,67.13,DQ,Jimmy Guzman,Channelview,65.32,,,,,Single-ply,SBD,M,
Boys,74.84,1,Jonah Griffin,Crosby,73.48,161.03,79.38,165.56,405.97,Single-ply,SBD,M,
Boys,74.84,2,Aidan Guiting,Crosby,73.03,115.67,79.38,165.56,360.61,Single-ply,SBD,M,
Boys,74.84,3,Ashton Kneer,Splendora,71.03,147.42,79.38,129.27,356.07,Single-ply,SBD,M,
Boys,82.1,1,Fernando Garcia,Channelview,81.87,265.35,129.27,208.65,603.28,Single-ply,SBD,M,
Boys,82.1,2,Esteban Nava,Pasadena Rayburn,81.19,183.7,108.86,226.8,519.36,Single-ply,SBD,M,
Boys,82.1,3,Oscar Manzanares,Channelview,81.74,188.24,113.4,165.56,467.2,Single-ply,SBD,M,
Boys,82.1,4,Levi Fontenot,Crosby,80.74,188.24,86.18,188.24,462.66,Single-ply,SBD,M,
Boys,82.1,5,Matthew Fergeson,Splendora,80.47,158.76,113.4,161.03,433.18,Single-ply,SBD,M,
Boys,82.1,6,Nick Brown,Splendora,77.66,167.83,102.06,154.22,424.11,Single-ply,SBD,M,
Boys,82.1,7,Ayden Jones,Crosby,81.19,142.88,92.99,183.7,419.57,Single-ply,SBD,M,
Boys,82.1,8,Tyler Larive,Crosby,81.65,147.42,102.06,156.49,405.97,Single-ply,SBD,M,
Boys,82.1,9,Ernesto Garcia,Channelview,80.74,158.76,83.91,161.03,403.7,Single-ply,SBD,M,
Boys,82.1,10,David Ards,Crosby,78.93,124.74,83.91,188.24,396.89,Single-ply,SBD,M,
Boys,82.1,11,Aiden Miranda,Splendora,82.01,142.88,92.99,154.22,390.09,Single-ply,SBD,M,
Boys,82.1,12,Joseph Escalante,Channelview,78.93,158.76,68.04,145.15,371.95,Single-ply,SBD,M,
Boys,82.1,13,Rudy Rosas,Crosby,76.84,102.06,83.91,154.22,340.19,Single-ply,SBD,M,
Boys,89.81,1,Tanner Adams,Splendora,89.18,242.67,156.49,217.72,616.89,Single-ply,SBD,M,
Boys,89.81,2,Camron Richardson,Channelview,87.54,183.7,138.35,188.24,510.29,Single-ply,SBD,M,
Boys,89.81,3,Luis Castillo,Channelview,87.54,208.65,113.4,183.7,505.76,Single-ply,SBD,M,
Boys,89.81,4,Toby Keith,Splendora,85.09,181.44,129.27,165.56,476.27,Single-ply,SBD,M,
Boys,89.81,5,Ethan Rodriguez,Splendora,89.09,158.76,111.13,174.63,444.52,Single-ply,SBD,M,
Boys,89.81,6,Alan Roy,Houston Eisenhower,83.91,154.22,102.06,147.42,403.7,Single-ply,SBD,M,
Boys,89.81,7,Sakavion Hadnot,Houston Eisenhower,85.28,102.06,92.99,142.88,337.93,Single-ply,SBD,M,
Boys,89.81,DQ,Andres Espinosa,Splendora,83.37,,,,,Single-ply,SBD,M,
Boys,99.79,1,Chancellor Bradley,Crosby,98.88,183.7,108.86,206.38,498.95,Single-ply,SBD,M,
Boys,99.79,2,LeeRoy Banks,Crosby,98.88,183.7,102.06,192.78,478.54,Single-ply,SBD,M,
Boys,99.79,3,Cole Morton,Crosby,98.88,158.76,70.31,158.76,387.82,Single-ply,SBD,M,
Boys,99.79,4,Jordan Pressley,Houston Eisenhower,99.34,127.01,90.72,170.1,387.82,Single-ply,SBD,M,
Boys,99.79,5,Kleber Blanco,Pasadena Rayburn,99.34,145.15,81.65,161.03,387.82,Single-ply,SBD,M,
Boys,99.79,DQ,Josh Williams,Houston Eisenhower,95.25,,,,,Single-ply,SBD,M,
Boys,99.79,DQ,Omar Solis,Houston Eisenhower,93.89,,,,,Single-ply,SBD,M,
Boys,99.79,DQ,Cole Langley,Crosby,99.34,,,,,Single-ply,SBD,M,
Boys,109.77,1,Logan Alpha,Splendora,109.77,242.67,142.88,233.6,619.15,Single-ply,SBD,M,
Boys,109.77,2,Braden Wright,Crosby,109.77,242.67,131.54,235.87,610.08,Single-ply,SBD,M,
Boys,109.77,3,DeShawn King,Pasadena Rayburn,108.86,192.78,113.4,197.31,503.49,Single-ply,SBD,M,
Boys,109.77,4,Jeremiah Swain,Houston Eisenhower,106.14,174.63,108.86,170.1,453.59,Single-ply,SBD,M,
Boys,109.77,5,Kyle Smith,Crosby,108.86,174.63,90.72,183.7,449.06,Single-ply,SBD,M,
Boys,109.77,6,Edward Vargas,Houston Eisenhower,107.95,158.76,102.06,176.9,437.72,Single-ply,SBD,M,
Boys,109.77,7,Dominick Santana,Splendora,105.51,149.69,104.33,158.76,412.77,Single-ply,SBD,M,
Boys,109.77,8,Gabriel Fernandez,Crosby,106.14,151.95,106.59,149.69,408.23,Single-ply,SBD,M,
Boys,109.77,DQ,Levi Langley,Crosby,101.15,,,,,Single-ply,SBD,M,
Boys,109.77,DQ,Elijah Martin,Splendora,109.68,,,,,Single-ply,SBD,M,
Boys,124.74,1,Ryan Murrin,Crosby,122.92,206.38,102.06,183.7,492.15,Single-ply,SBD,M,
Boys,124.74,2,Alexander Hodges,Channelview,124.74,156.49,90.72,149.69,396.89,Single-ply,SBD,M,
Boys,124.74,3,Barion Riggins,Houston Eisenhower,111.13,115.67,88.45,136.08,340.19,Single-ply,SBD,M,
Boys,124.74,DQ,Casen McMullen,Crosby,124.28,,,,,Single-ply,SBD,M,
Boys,139.71,1,Jordan Thomas,Channelview,136.53,265.35,174.63,226.8,666.78,Single-ply,SBD,M,
Boys,139.71,2,Braxton Bowling,Crosby,139.71,238.14,113.4,170.1,521.63,Single-ply,SBD,M,
Boys,139.71,3,Rickey Folmsbee,Crosby,137.44,147.42,74.84,156.49,378.75,Single-ply,SBD,M,
Boys,139.71+,1,Aden Boutte,Channelview,146.06,272.16,142.88,217.72,632.76,Single-ply,SBD,M,
Boys,139.71+,2,Aanson Johnson,Crosby,149.69,145.15,83.91,142.88,371.95,Single-ply,SBD,M,
