Division,WeightClassKg,Place,Name,Team,BodyweightKg,Best3SquatKg,Best3BenchKg,Best3DeadliftKg,TotalKg,Equipment,Event,Sex,BirthDate
Boys,51.71,1,Wyatt Benett,Trinity,51.07,92.99,63.5,111.13,267.62,Single-ply,SBD,M,
Boys,51.71,2,Dray Renfrow,Bridge City,42.37,74.84,43.09,90.72,208.65,Single-ply,SBD,M,
Boys,55.79,1,Rock Page,Cleveland Tarkington,55.16,122.47,83.91,124.74,331.12,Single-ply,SBD,M,
Boys,55.79,2,Colten Gross,Bridge City,53.34,90.72,45.36,124.74,260.82,Single-ply,SBD,M,
Boys,55.79,NS,Jayden Ford,Trinity,,,,,,Single-ply,SBD,M,
Boys,59.87,1,James Hawkins,Bridge City,58.42,97.52,52.16,120.2,269.89,Single-ply,SBD,M,
Boys,67.13,1,Lain Baker,Shepherd,62.6,229.06,124.74,215.46,569.26,Single-ply,SBD,M,
Boys,67.13,2,Gage Murphy,Shepherd,66.45,163.29,113.4,174.63,451.32,Single-ply,SBD,M,
Boys,67.13,3,Dylan Errington,Cleveland Tarkington,66.95,151.95,113.4,172.37,437.72,Single-ply,SBD,M,
Boys,67.13,4,Aden Lapeyrolerie,Bridge City,66.04,151.95,88.45,156.49,396.89,Single-ply,SBD,M,
Boys,67.13,5,Cyrus Martinez,Shepherd,61.23,142.88,81.65,163.29,387.82,Single-ply,SBD,M,
Boys,67.13,6,Aiden Weeks,Shepherd,61.78,142.88,74.84,158.76,376.48,Single-ply,SBD,M,
Boys,67.13,7,Thomas Gregory,Shepherd,62.41,97.52,56.7,117.93,272.16,Single-ply,SBD,M,
Boys,67.13,8,Ethan Millard,Cleveland Tarkington,62.78,97.52,56.7,117.93,272.16,Single-ply,SBD,M,
Boys,67.13,9,Trenton McDaniels,Shepherd,61.87,95.25,58.97,113.4,267.62,Single-ply,SBD,M,
Boys,67.13,10,Jordan Cutaia,Shepherd,60.69,88.45,56.7,113.4,258.55,Single-ply,SBD,M,
Boys,74.84,1,Cole Odom,Trinity,74.84,204.12,120.2,179.17,503.49,Single-ply,SBD,M,
Boys,74.84,2,Remington Lassman,Trinity,68.49,190.51,104.33,172.37,467.2,Single-ply,SBD,M,
Boys,74.84,3,Cody Russell,Shepherd,73.03,131.54,88.45,149.69,369.68,Single-ply,SBD,M,
Boys,74.84,4,Zack Dommert,Bridge City,74.84,136.08,86.18,142.88,365.14,Single-ply,SBD,M,
Boys,74.84,5,Billy Walpole,Bridge City,72.48,97.52,52.16,131.54,281.23,Single-ply,SBD,M,
Boys,82.1,1,Brandon Pitty,Cleveland Tarkington,77.56,208.65,104.33,208.65,521.63,Single-ply,SBD,M,
Boys,82.1,2,Tanner Lacey,Shepherd,81.37,188.24,102.06,190.51,480.81,Single-ply,SBD,M,
Boys,82.1,3,Ian Puckett,Trinity,76.84,151.95,102.06,133.81,387.82,Single-ply,SBD,M,
Boys,82.1,4,Giovanni Gutierrez,Trinity,79.56,124.74,81.65,149.69,356.07,Single-ply,SBD,M,
Boys,82.1,5,Bryce Linder,Bridge City,80.47,142.88,61.23,142.88,347,Single-ply,SBD,M,
Boys,82.1,NS,Logan Morgan,Cleveland Tarkington,,,,,,Single-ply,SBD,M,
Boys,89.81,1,David McKendree,Trinity,87.72,192.78,127.01,185.97,505.76,Single-ply,SBD,M,
Boys,89.81,2,Jake Chapman,Shepherd,89.54,131.54,72.57,172.37,376.48,Single-ply,SBD,M,
Boys,89.81,3,Orion Moos,Bridge City,89.09,142.88,70.31,156.49,369.68,Single-ply,SBD,M,
Boys,99.79,1,Mason Pruett,Bridge City,95.35,176.9,108.86,188.24,474,Single-ply,SBD,M,
Boys,99.79,2,Victor Ortiz,Bridge City,91.35,172.37,95.25,167.83,435.45,Single-ply,SBD,M,
Boys,99.79,3,Aaron Caceres,Trinity,92.44,176.9,113.4,142.88,433.18,Single-ply,SBD,M,
Boys,99.79,4,Justin Scarborough,Cleveland Tarkington,92.8,151.95,102.06,129.27,383.29,Single-ply,SBD,M,
Boys,109.77,1,Dj Landry,Bridge City,105.23,183.7,92.99,133.81,410.5,Single-ply,SBD,M,
Boys,124.74,1,Gavin Edwards,Cleveland Tarkington,116.66,242.67,151.95,213.19,607.81,Single-ply,SBD,M,
Boys,124.74,2,Nicholas Lejeune,Bridge City,116.94,219.99,117.93,210.92,548.85,Single-ply,SBD,M,
Boys,124.74,3,Noah Castro,Shepherd,113.67,131.54,65.77,151.95,349.27,Single-ply,SBD,M,
Boys,124.74,NS,Colton Smith,Trinity,,,,,,Single-ply,SBD,M,
Boys,139.71,1,Elis Caceres,Trinity,133.99,229.06,113.4,229.06,571.53,Single-ply,SBD,M,
Boys,139.71,2,Kyler Colbert,Cleveland Tarkington,133.27,192.78,124.74,183.7,501.22,Single-ply,SBD,M,
Boys,139.71+,1,Kelvin Hernandez,Shepherd,140.7,142.88,79.38,142.88,365.14,Single-ply,SBD,M,
