Division,WeightClassKg,Place,Name,Team,BodyweightKg,Best3SquatKg,Best3BenchKg,Best3DeadliftKg,TotalKg,Equipment,Event,Sex,BirthDate
Boys,51.71,1,Jay Vasquez,Weslaco East,51.71,167.83,108.86,176.9,453.59,Single-ply,SBD,M,
Boys,51.71,2,Caleb Moreno,La Joya Juarez-Lincoln,48.44,108.86,77.11,142.88,328.85,Single-ply,SBD,M,
Boys,51.71,3,Daniel Limon,La Joya Juarez-Lincoln,51.71,108.86,61.23,133.81,303.91,Single-ply,SBD,M,
Boys,51.71,4,Carlos Cantu,McAllen Memorial,47.08,117.93,58.97,120.2,297.1,Single-ply,SBD,M,
Boys,55.79,1,Nate Martinez,Weslaco East,55.79,195.04,117.93,192.78,505.76,Single-ply,SBD,M,
Boys,55.79,2,Angel Rivera,McAllen Memorial,55.61,163.29,102.06,163.29,428.64,Single-ply,SBD,M,
Boys,55.79,3,Jonah Henderson,McAllen,54.98,158.76,97.52,161.03,417.3,Single-ply,SBD,M,
Boys,55.79,DQ,Seth DeLeon,McAllen Memorial,55.7,106.59,68.04,,,Single-ply,SBD,M,
Boys,55.79,DQ,Alex Montemayor,Mission Sharyland,55.79,,,,,Single-ply,SBD,M,
Boys,59.87,1,Isaac Lozano,Roma,59.15,172.37,102.06,188.24,462.66,Single-ply,SBD,M,
Boys,59.87,2,Eugenio Chavez,Mission Sharyland,57.61,149.69,83.91,145.15,378.75,Single-ply,SBD,M,
Boys,67.13,1,Nick Moreno,La Joya Juarez-Lincoln,66.59,235.87,133.81,210.92,580.6,Single-ply,SBD,M,
Boys,67.13,2,Isaias Salinas,McAllen Memorial,66.86,192.78,127.01,219.99,539.77,Single-ply,SBD,M,
Boys,67.13,3,Gael Gonzalez,La Joya Palmview,64.5,206.38,111.13,188.24,505.76,Single-ply,SBD,M,
Boys,67.13,4,Juan Gomez,Weslaco East,66.5,192.78,97.52,215.46,505.76,Single-ply,SBD,M,
Boys,67.13,5,Sebastian Aleman,McAllen Memorial,66.77,183.7,106.59,192.78,483.08,Single-ply,SBD,M,
Boys,67.13,6,Eleazar Gutierrez,Roma,66.59,172.37,102.06,185.97,460.4,Single-ply,SBD,M,
Boys,67.13,7,Adan De La Cruz,McAllen Rowe,66.86,179.17,104.33,174.63,458.13,Single-ply,SBD,M,
Boys,67.13,8,Jose Williams,La Joya Juarez-Lincoln,63.78,145.15,102.06,172.37,419.57,Single-ply,SBD,M,
Boys,67.13,9,Francisco Lopez,McAllen Rowe,67.13,124.74,86.18,149.69,360.61,Single-ply,SBD,M,
Boys,67.13,DQ,Marcelo Velasco,Mission Sharyland,66.22,183.7,,,,Single-ply,SBD,M,
Boys,67.13,DQ,Ulises Carlos,McAllen Memorial,65.32,,,,,Single-ply,SBD,M,
Boys,74.84,1,Daniel Anzaldua,Mission Sharyland,73.48,215.46,170.1,204.12,589.67,Single-ply,SBD,M,
Boys,74.84,2,Fidencio Ortega,La Joya Juarez-Lincoln,74.84,219.99,156.49,201.85,578.33,Single-ply,SBD,M,
Boys,74.84,3,Robert Pena,Rio Grande City Grulla,74.12,174.63,111.13,204.12,489.88,Single-ply,SBD,M,
Boys,74.84,4,Christain Garcia,Rio Grande City,74.48,179.17,111.13,199.58,489.88,Single-ply,SBD,M,
Boys,74.84,5,Eduardo Mendoza,Mission Sharyland,71.58,183.7,120.2,183.7,487.61,Single-ply,SBD,M,
Boys,74.84,6,John Lopez,Weslaco East,70.31,165.56,120.2,192.78,478.54,Single-ply,SBD,M,
Boys,74.84,7,Brandon Arredondo,Rio Grande City,73.12,179.17,104.33,176.9,460.4,Single-ply,SBD,M,
Boys,74.84,8,Isaac Santoyo,McAllen,72.21,174.63,97.52,172.37,444.52,Single-ply,SBD,M,
Boys,74.84,9,Jaime Anaya,Santa Rosa,74.12,163.29,117.93,151.95,433.18,Single-ply,SBD,M,
Boys,74.84,10,John Aleman,McAllen,72.03,158.76,120.2,151.95,430.91,Single-ply,SBD,M,
Boys,74.84,11,Damian Villalpando,La Joya Juarez-Lincoln,67.68,158.76,102.06,149.69,410.5,Single-ply,SBD,M,
Boys,74.84,12,Daniel Olivarez,Rio Grande City Grulla,72.76,142.88,106.59,156.49,405.97,Single-ply,SBD,M,
Boys,74.84,13,Raul Sevilla,Rio Grande City,71.76,156.49,86.18,131.54,374.21,Single-ply,SBD,M,
Boys,74.84,14,Omar Gonzalez,Santa Rosa,74.75,106.59,54.43,113.4,274.42,Single-ply,SBD,M,
Boys,74.84,DQ,Derrek Ramirez,Weslaco East,70.49,170.1,,,,Single-ply,SBD,M,
Boys,74.84,DQ,Marcelo Bartolomeo,Mission Sharyland,68.13,179.17,131.54,,,Single-ply,SBD,M,
Boys,74.84,DQ,Jesus De Anda,La Joya Palmview,69.13,167.83,83.91,,,Single-ply,SBD,M,
Boys,82.1,1,Angel Cantu,La Joya Palmview,76.48,258.55,147.42,226.8,632.76,Single-ply,SBD,M,
Boys,82.1,2,Raul Galvan,Rio Grande City Grulla,82.1,219.99,124.74,199.58,544.31,Single-ply,SBD,M,
Boys,82.1,3,Diego Ortiz,Weslaco East,78.74,219.99,129.27,192.78,542.04,Single-ply,SBD,M,
Boys,82.1,4,Rafael Benitez,Rio Grande City,80.1,190.51,117.93,208.65,517.1,Single-ply,SBD,M,
Boys,82.1,5,Angel Chapa,La Joya Palmview,80.47,183.7,120.2,183.7,487.61,Single-ply,SBD,M,
Boys,82.1,6,Sebastian Garza,Roma,82.1,183.7,102.06,181.44,467.2,Single-ply,SBD,M,
Boys,82.1,7,Isaiah Mata,McAllen Rowe,78.65,183.7,115.67,165.56,464.93,Single-ply,SBD,M,
Boys,82.1,8,Eric Requenez,McAllen Rowe,81.28,188.24,106.59,170.1,464.93,Single-ply,SBD,M,
Boys,82.1,9,Patricio Garcia,McAllen Rowe,80.01,165.56,127.01,167.83,460.4,Single-ply,SBD,M,
Boys,82.1,10,Ephraim Trevino,McAllen,80.29,183.7,108.86,165.56,458.13,Single-ply,SBD,M,
Boys,82.1,11,Erasmo Leal,Rio Grande City,75.93,163.29,104.33,185.97,453.59,Single-ply,SBD,M,
Boys,82.1,12,Ernesto Garcia,Rio Grande City,80.74,158.76,108.86,165.56,433.18,Single-ply,SBD,M,
Boys,82.1,13,Diego Barrera,McAllen,82.1,154.22,90.72,179.17,424.11,Single-ply,SBD,M,
Boys,82.1,14,Emiliano Bocanegra,McAllen,78.65,151.95,83.91,127.01,362.87,Single-ply,SBD,M,
Boys,82.1,DQ,Diego Trevino,Mission Sharyland,79.74,219.99,,,,Single-ply,SBD,M,
Boys,82.1,DQ,Andrew Balla,Santa Rosa,77.11,,,,,Single-ply,SBD,M,
Boys,89.81,1,Jose Zavala,Weslaco East,88.9,229.06,147.42,267.62,644.1,Single-ply,SBD,M,
Boys,89.81,2,Ray Pecina,La Joya Palmview,85.91,249.48,142.88,242.67,635.03,Single-ply,SBD,M,
Boys,89.81,3,Jose Cavazos,McAllen Rowe,88.63,258.55,142.88,231.33,632.76,Single-ply,SBD,M,
Boys,89.81,4,Tristan Solis,Rio Grande City,88.63,210.92,158.76,231.33,601.01,Single-ply,SBD,M,
Boys,89.81,5,Jorge Torres,Roma,88.45,247.21,154.22,195.04,596.47,Single-ply,SBD,M,
Boys,89.81,6,Jaime Munoz,Weslaco East,85.46,233.6,127.01,217.72,578.33,Single-ply,SBD,M,
Boys,89.81,7,Demitri Ayala,McAllen,83.91,229.06,133.81,208.65,571.53,Single-ply,SBD,M,
Boys,89.81,8,Daniel De La Cruz,McAllen Memorial,88,204.12,124.74,210.92,539.77,Single-ply,SBD,M,
Boys,89.81,9,Deven Becerra,Rio Grande City Grulla,87.09,183.7,95.25,151.95,430.91,Single-ply,SBD,M,
Boys,89.81,10,Victor Hernandez,La Joya Juarez-Lincoln,88.99,167.83,92.99,151.95,412.77,Single-ply,SBD,M,
Boys,89.81,DQ,Eduardo Herrera,La Joya Palmview,89.81,,,,,Single-ply,SBD,M,
Boys,89.81,DQ,Diego Flores,Santa Rosa,88.9,,,,,Single-ply,SBD,M,
Boys,99.79,1,Josue Moralez,Weslaco East,98.88,240.4,161.03,240.4,641.83,Single-ply,SBD,M,
Boys,99.79,2,Juan Cantu,McAllen,99.61,247.21,136.08,226.8,610.08,Single-ply,SBD,M,
Boys,99.79,3,Antonio Saldana,Santa Rosa,99.06,229.06,161.03,192.78,582.87,Single-ply,SBD,M,
Boys,99.79,4,Artemio Belmontes,Roma,95.8,240.4,117.93,217.72,576.06,Single-ply,SBD,M,
Boys,99.79,5,Julius Gonzalez,Weslaco East,99.25,215.46,124.74,210.92,551.11,Single-ply,SBD,M,
Boys,99.79,6,Silver Rangel,Weslaco East,96.8,190.51,136.08,204.12,530.7,Single-ply,SBD,M,
Boys,99.79,7,Rene Garcia,La Joya Juarez-Lincoln,99.7,215.46,124.74,190.51,530.7,Single-ply,SBD,M,
Boys,99.79,8,Aaron Benavidez,Rio Grande City,93.53,206.38,113.4,206.38,526.17,Single-ply,SBD,M,
Boys,99.79,9,Jesus Rios,Rio Grande City,96.98,199.58,104.33,210.92,514.83,Single-ply,SBD,M,
Boys,99.79,10,Daniel Melchor,Rio Grande City Grulla,99.25,206.38,115.67,183.7,505.76,Single-ply,SBD,M,
Boys,99.79,11,Eddie Valdez,La Joya Palmview,98.16,170.1,133.81,197.31,501.22,Single-ply,SBD,M,
Boys,99.79,12,Alejandro Bosada,McAllen Rowe,91.72,174.63,81.65,154.22,410.5,Single-ply,SBD,M,
Boys,99.79,DQ,Jj Johnson,McAllen Memorial,99.79,,,,,Single-ply,SBD,M,
Boys,99.79,DQ,Roman Vasquez,Roma,93.89,,,,,Single-ply,SBD,M,
Boys,109.77,1,Noe Castillo,Weslaco East,106.23,281.23,208.65,235.87,725.75,Single-ply,SBD,M,
Boys,109.77,2,Kelvin Flores,Weslaco East,108.86,260.82,204.12,254.01,718.94,Single-ply,SBD,M,
Boys,109.77,3,Christoval Villarreal,McAllen,105.69,254.01,161.03,263.08,678.12,Single-ply,SBD,M,
Boys,109.77,4,Isaac Gonzalez,Weslaco East,103.6,249.48,181.44,226.8,657.71,Single-ply,SBD,M,
Boys,109.77,5,Julian Gonzalez,Weslaco East,105.32,240.4,163.29,224.53,628.23,Single-ply,SBD,M,
Boys,109.77,6,Abelino Lopez,Rio Grande City Grulla,108.95,249.48,147.42,226.8,623.69,Single-ply,SBD,M,
Boys,109.77,7,Brandon Lopez,Rio Grande City Grulla,104.6,231.33,145.15,197.31,573.79,Single-ply,SBD,M,
Boys,109.77,DQ,Alejandro Rodriguez,McAllen Rowe,100.88,176.9,97.52,,,Single-ply,SBD,M,
Boys,109.77,DQ,Matthew Vega,McAllen,104.05,201.85,127.01,,,Single-ply,SBD,M,
Boys,124.74,1,Aiden Safford,Rio Grande City,119.84,260.82,181.44,265.35,707.6,Single-ply,SBD,M,
Boys,124.74,2,Jesus Garcia,Roma,113.67,272.16,161.03,235.87,669.05,Single-ply,SBD,M,
Boys,124.74,3,Omar Garcia,La Joya Juarez-Lincoln,121.83,240.4,163.29,238.14,641.83,Single-ply,SBD,M,
Boys,124.74,4,Benjamin Rios,Rio Grande City Grulla,118.39,276.69,149.69,213.19,639.57,Single-ply,SBD,M,
Boys,124.74,5,Julian Moreno,Santa Rosa,120.84,233.6,154.22,226.8,614.62,Single-ply,SBD,M,
Boys,124.74,6,Juan Garcia,McAllen Rowe,124.38,219.99,183.7,190.51,594.21,Single-ply,SBD,M,
Boys,124.74,7,Gabriel Dougherty,McAllen Rowe,116.12,226.8,145.15,215.46,587.4,Single-ply,SBD,M,
Boys,124.74,8,Ricardo Flores,Rio Grande City,117.84,251.74,129.27,206.38,587.4,Single-ply,SBD,M,
Boys,124.74,9,Michael Alegria,Weslaco East,122.29,204.12,131.54,188.24,523.9,Single-ply,SBD,M,
Boys,124.74,10,Arturo Sauceda,Santa Rosa,120.2,183.7,86.18,165.56,435.45,Single-ply,SBD,M,
Boys,139.71,1,Gerardo Rios,Santa Rosa,128.09,285.76,154.22,226.8,666.78,Single-ply,SBD,M,
Boys,139.71,2,Jose Silva,Roma,127.37,226.8,127.01,213.19,566.99,Single-ply,SBD,M,
Boys,139.71,3,Jose Garza,Roma,127.46,210.92,117.93,208.65,537.51,Single-ply,SBD,M,
Boys,139.71,4,Daniel Vargas,Santa Rosa,126.73,147.42,83.91,136.08,367.41,Single-ply,SBD,M,
Boys,139.71,DQ,Guadalupe Bazan,Rio Grande City Grulla,130.73,,,,,Single-ply,SBD,M,
Boys,139.71,DQ,Maddox Braxton,McAllen,135.81,,,,,Single-ply,SBD,M,
Boys,139.71+,1,Julio Moreno,Rio Grande City,141.7,242.67,170.1,213.19,625.96,Single-ply,SBD,M,
Boys,139.71+,2,Jerreck Espino,Weslaco East,141.43,226.8,142.88,215.46,585.13,Single-ply,SBD,M,
Boys,139.71+,3,Leesandro Martinez,Rio Grande City Grulla,151.41,226.8,133.81,204.12,564.72,Single-ply,SBD,M,
Boys,139.71+,4,Michael Banda,McAllen Rowe,146.96,188.24,142.88,181.44,512.56,Single-ply,SBD,M,
Boys,139.71+,5,Daniel García,Weslaco East,140.25,195.04,124.74,147.42,467.2,Single-ply,SBD,M,
Boys,139.71+,6,Rene Hernandez,Roma,144.15,199.58,102.06,158.76,460.4,Single-ply,SBD,M,
Boys,139.71+,7,Gabriel Banda,McAllen Rowe,145.97,176.9,124.74,158.76,460.4,Single-ply,SBD,M,
Boys,139.71+,DQ,Isaias Garcia,La Joya Palmview,192.05,,,,,Single-ply,SBD,M,
