Division,WeightClassKg,Place,Name,Team,BodyweightKg,Best3SquatKg,Best3BenchKg,Best3DeadliftKg,TotalKg,Equipment,Event,Sex,BirthDate
Boys,51.71,1,Sebastian Garza,Sonora,50.26,147.42,79.38,151.95,378.75,Single-ply,SBD,M,
Boys,51.71,2,Collen Prickett,Amarillo Highland Park,50.35,151.95,92.99,133.81,378.75,Single-ply,SBD,M,
Boys,51.71,3,Xavier Flores,Merkel,50.89,122.47,68.04,156.49,347,Single-ply,SBD,M,
Boys,51.71,4,Jaime Montoya,Abernathy,48.9,124.74,74.84,138.35,337.93,Single-ply,SBD,M,
Boys,51.71,5,Benjamin Perez,Amarillo Highland Park,50.71,111.13,74.84,124.74,310.71,Single-ply,SBD,M,
Boys,51.71,6,Campbell Bargas,Amarillo Highland Park,50.62,120.2,65.77,122.47,308.44,Single-ply,SBD,M,
Boys,51.71,7,Kaden Vela,Lamesa,48.9,111.13,63.5,129.27,303.91,Single-ply,SBD,M,
Boys,51.71,8,Ethan Rake,Tuscola Jim Ned,50.35,102.06,61.23,122.47,285.76,Single-ply,SBD,M,
Boys,51.71,9,Eugene Vasquez,Coahoma,49.9,108.86,65.77,106.59,281.23,Single-ply,SBD,M,
Boys,51.71,10,Brady Clinton,Ballinger,51.44,102.06,72.57,102.06,276.69,Single-ply,SBD,M,
Boys,51.71,11,Jake Stone,Clyde,42,113.4,95.25,61.23,269.89,Single-ply,SBD,M,
Boys,51.71,DQ,Sam O'Brien,Clyde,51.71,,,,,Single-ply,SBD,M,
Boys,55.79,1,Christian Orona,Stanton,54.16,208.65,122.47,199.58,530.7,Single-ply,SBD,M,
Boys,55.79,2,Jeremey Rodriguez,Tulia,55.79,167.83,92.99,172.37,433.18,Single-ply,SBD,M,
Boys,55.79,3,Angel Martinez,Big Lake Reagan County,55.79,179.17,95.25,156.49,430.91,Single-ply,SBD,M,
Boys,55.79,4,Juan Torres-Alvarez,Sonora,55.79,151.95,88.45,161.03,401.43,Single-ply,SBD,M,
Boys,55.79,5,Michael Bautista,Friona,54.79,145.15,79.38,151.95,376.48,Single-ply,SBD,M,
Boys,55.79,6,Javion Zavala,Ballinger,55.43,142.88,77.11,142.88,362.87,Single-ply,SBD,M,
Boys,55.79,7,Xayvion Gonzalez,Dimmitt,55.25,129.27,77.11,147.42,353.8,Single-ply,SBD,M,
Boys,55.79,8,Sergio Magallanes,Muleshoe,54.61,142.88,81.65,120.2,344.73,Single-ply,SBD,M,
Boys,55.79,9,Seger Maples,Amarillo Highland Park,54.34,102.06,88.45,140.61,331.12,Single-ply,SBD,M,
Boys,55.79,10,Aiden Trevino,Lamesa,55.25,127.01,61.23,138.35,326.59,Single-ply,SBD,M,
Boys,55.79,11,Danny Pena,San Angelo TLC Academy,52.98,102.06,83.91,120.2,306.17,Single-ply,SBD,M,
Boys,55.79,12,Gabriel Ramos,Friona,54.98,102.06,74.84,120.2,297.1,Single-ply,SBD,M,
Boys,59.87,1,Tristen Thompson,Merkel,58.79,204.12,129.27,192.78,526.17,Single-ply,SBD,M,
Boys,59.87,2,Eric Cruz,Lubbock Roosevelt,58.42,183.7,102.06,172.37,458.13,Single-ply,SBD,M,
Boys,59.87,3,Mario Bautista,Friona,58.88,165.56,104.33,170.1,439.98,Single-ply,SBD,M,
Boys,59.87,4,Hector Colon-Rivera,Coahoma,59.69,172.37,74.84,183.7,430.91,Single-ply,SBD,M,
Boys,59.87,5,Bryan Tarango,Dimmitt,58.33,154.22,77.11,181.44,412.77,Single-ply,SBD,M,
Boys,59.87,6,Dominic Galvan,Amarillo Highland Park,58.24,136.08,81.65,170.1,387.82,Single-ply,SBD,M,
Boys,59.87,7,Nolan Smith,Tuscola Jim Ned,57.33,147.42,88.45,142.88,378.75,Single-ply,SBD,M,
Boys,59.87,8,Christian Tavarez,Stanton,59.06,151.95,90.72,136.08,378.75,Single-ply,SBD,M,
Boys,59.87,9,Jorge Garcia,Friona,57.15,145.15,83.91,122.47,351.53,Single-ply,SBD,M,
Boys,59.87,10,Reagan Chapman,Coahoma,59.6,136.08,74.84,129.27,340.19,Single-ply,SBD,M,
Boys,59.87,DQ,Isaac Alcala,Amarillo Highland Park,58.51,,,,,Single-ply,SBD,M,
Boys,59.87,DQ,Cougar Jetton,San Angelo Grape Creek,59.78,185.97,,,,Single-ply,SBD,M,
Boys,67.13,1,Oscar Montoya,Merkel,66.13,219.99,124.74,195.04,539.77,Single-ply,SBD,M,
Boys,67.13,2,Diego Mendoza,Crane,66.5,197.31,124.74,185.97,508.02,Single-ply,SBD,M,
Boys,67.13,3,Vincent Yarbrough,Tulia,63.78,183.7,102.06,210.92,496.68,Single-ply,SBD,M,
Boys,67.13,4,Gabriel Reyes,Dimmitt,64.23,163.29,111.13,208.65,483.08,Single-ply,SBD,M,
Boys,67.13,5,Uriel Vasquez,Muleshoe,65.5,183.7,106.59,176.9,467.2,Single-ply,SBD,M,
Boys,67.13,6,Xuan Garcia,Friona,66.68,170.1,97.52,183.7,451.32,Single-ply,SBD,M,
Boys,67.13,7,Jacob Casarez,Lamesa,66.22,176.9,83.91,181.44,442.25,Single-ply,SBD,M,
Boys,67.13,8,Ignacio Coronado,Sonora,63.87,158.76,95.25,172.37,426.38,Single-ply,SBD,M,
Boys,67.13,9,Skyler Monroe,Tulia,66.59,158.76,92.99,172.37,424.11,Single-ply,SBD,M,
Boys,67.13,10,Breydon Walker,Tuscola Jim Ned,66.86,147.42,92.99,170.1,410.5,Single-ply,SBD,M,
Boys,67.13,11,Tyler Waggoner,Stanton,65.14,140.61,102.06,154.22,396.89,Single-ply,SBD,M,
Boys,67.13,DQ,Fabian Gomez,Clyde,61.96,165.56,102.06,,,Single-ply,SBD,M,
Boys,74.84,1,Avdan Fish,Clyde,73.84,215.46,142.88,231.33,589.67,Single-ply,SBD,M,
Boys,74.84,2,Jose Ticum,Friona,72.39,213.19,129.27,219.99,562.45,Single-ply,SBD,M,
Boys,74.84,3,Jayden Fuentes,Ballinger,74.75,201.85,136.08,208.65,546.58,Single-ply,SBD,M,
Boys,74.84,4,Clayton Kelly,Midland Classical Academy,72.12,183.7,120.2,226.8,530.7,Single-ply,SBD,M,
Boys,74.84,5,Nathan Rivera-McDuffee,Ballinger,70.31,197.31,138.35,192.78,528.44,Single-ply,SBD,M,
Boys,74.84,6,Dravon Valenzuela,Big Lake Reagan County,73.39,204.12,113.4,192.78,510.29,Single-ply,SBD,M,
Boys,74.84,7,Jared Wacker,Midland Classical Academy,68.86,190.51,95.25,204.12,489.88,Single-ply,SBD,M,
Boys,74.84,8,Rhett Bingham,Clyde,70.58,179.17,106.59,197.31,483.08,Single-ply,SBD,M,
Boys,74.84,9,Sabian Martinez,Dimmitt,73.39,185.97,115.67,174.63,476.27,Single-ply,SBD,M,
Boys,74.84,10,Feliciano Garcia,Amarillo Highland Park,73.75,170.1,102.06,197.31,469.47,Single-ply,SBD,M,
Boys,74.84,11,Gaviel Burrola,Kermit,71.58,176.9,106.59,181.44,464.93,Single-ply,SBD,M,
Boys,74.84,DQ,Jackson Carroll,Sonora,71.94,,,,,Single-ply,SBD,M,
Boys,82.1,1,Alex Trevino,Lubbock Roosevelt,80.74,254.01,127.01,249.48,630.49,Single-ply,SBD,M,
Boys,82.1,2,Christian DeLuna,Big Lake Reagan County,81.37,192.78,142.88,199.58,535.24,Single-ply,SBD,M,
Boys,82.1,3,Adiel Rodriguez,Kermit,79.11,213.19,117.93,195.04,526.17,Single-ply,SBD,M,
Boys,82.1,4,Montgomery McKinnon,Ballinger,80.29,192.78,133.81,192.78,519.36,Single-ply,SBD,M,
Boys,82.1,5,Caleb McDowell,Tulia,80.65,192.78,106.59,215.46,514.83,Single-ply,SBD,M,
Boys,82.1,6,Rino Hernandez,Sonora,79.11,183.7,108.86,213.19,505.76,Single-ply,SBD,M,
Boys,82.1,7,Ivan Trinidad,Denver City,80.2,172.37,133.81,197.31,503.49,Single-ply,SBD,M,
Boys,82.1,8,Kevin Lucatero,Friona,79.92,183.7,108.86,199.58,492.15,Single-ply,SBD,M,
Boys,82.1,NS,Bryson Salazar,Slaton,,,,,,Single-ply,SBD,M,
Boys,82.1,DQ,Jesse Butcher,Amarillo Highland Park,80.2,176.9,115.67,,,Single-ply,SBD,M,
Boys,82.1,DQ,Zachary Canada,Ballinger,80.1,,,,,Single-ply,SBD,M,
Boys,82.1,DQ,Francisco Garza,Brownfield,79.02,,,,,Single-ply,SBD,M,
Boys,89.81,1,Nate Gensler,Lubbock Roosevelt,85.28,249.48,158.76,249.48,657.71,Single-ply,SBD,M,
Boys,89.81,2,Daniel Medina,Ballinger,88.9,231.33,154.22,229.06,614.62,Single-ply,SBD,M,
Boys,89.81,3,Austin Ferriera,Brownfield,88.54,226.8,172.37,201.85,601.01,Single-ply,SBD,M,
Boys,89.81,4,Roman Rivero,Big Lake Reagan County,86.55,240.4,124.74,217.72,582.87,Single-ply,SBD,M,
Boys,89.81,5,Barrett Browning,Tuscola Jim Ned,88.09,204.12,142.88,210.92,557.92,Single-ply,SBD,M,
Boys,89.81,6,Johnathan Wheeler,Ballinger,84.73,206.38,115.67,208.65,530.7,Single-ply,SBD,M,
Boys,89.81,7,Reid Felton,Childress,86.36,183.7,145.15,181.44,510.29,Single-ply,SBD,M,
Boys,89.81,8,Aiden Knight,Ballinger,82.46,170.1,117.93,195.04,483.08,Single-ply,SBD,M,
Boys,89.81,9,Lucas Jordahl,San Angelo Grape Creek,86,185.97,108.86,185.97,480.81,Single-ply,SBD,M,
Boys,89.81,DQ,Trent Wright,Slaton,88.63,210.92,,,,Single-ply,SBD,M,
Boys,89.81,DQ,Juan Saucedo,Big Lake Reagan County,89.18,,,,,Single-ply,SBD,M,
Boys,89.81,DQ,Zeek Van Beek,Dalhart,85.73,204.12,,,,Single-ply,SBD,M,
Boys,89.81,DQ,Kason Holt,Dalhart,88,,,,,Single-ply,SBD,M,
Boys,99.79,1,Joe Barrera,Tulia,98.61,290.3,190.51,263.08,743.89,Single-ply,SBD,M,
Boys,99.79,2,JJ Diaz,Lubbock Roosevelt,94.98,303.91,163.29,247.21,714.41,Single-ply,SBD,M,
Boys,99.79,3,Eli Hernandez,Big Lake Reagan County,99.34,281.23,149.69,226.8,657.71,Single-ply,SBD,M,
Boys,99.79,4,Gerardo Gonzalez,Dimmitt,94.08,226.8,129.27,265.35,621.42,Single-ply,SBD,M,
Boys,99.79,5,Morgan Bryan,Clyde,97.98,247.21,147.42,215.46,610.08,Single-ply,SBD,M,
Boys,99.79,6,Elijah Samaniego,Sonora,97.79,254.01,136.08,190.51,580.6,Single-ply,SBD,M,
Boys,99.79,7,Thomas Sanchez,Lubbock Roosevelt,94.71,233.6,129.27,210.92,573.79,Single-ply,SBD,M,
Boys,99.79,8,Mat Guerrero,Big Lake Reagan County,93.08,231.33,124.74,199.58,555.65,Single-ply,SBD,M,
Boys,99.79,9,David Castro,Dalhart,96.07,206.38,133.81,210.92,551.11,Single-ply,SBD,M,
Boys,99.79,10,Landin Noey,Lubbock Roosevelt,99.34,204.12,122.47,215.46,542.04,Single-ply,SBD,M,
Boys,99.79,NS,Eziekel Hinojose,Muleshoe,,,,,,Single-ply,SBD,M,
Boys,99.79,NS,Matthew Lopez,Dimmitt,,,,,,Single-ply,SBD,M,
Boys,99.79,DQ,Marquez Garcia,Denver City,95.71,215.46,131.54,,,Single-ply,SBD,M,
Boys,109.77,1,Paul Walker,Crane,104.69,276.69,176.9,274.42,728.02,Single-ply,SBD,M,
Boys,109.77,2,Landyn McIntyre,Ballinger,101.97,265.35,183.7,276.69,725.75,Single-ply,SBD,M,
Boys,109.77,3,Elijah Flores,Merkel,106.68,249.48,161.03,263.08,673.58,Single-ply,SBD,M,
Boys,109.77,4,Daniel Leyva,Slaton,100.61,249.48,163.29,206.38,619.15,Single-ply,SBD,M,
Boys,109.77,5,Carson Little,Denver City,103.69,226.8,156.49,226.8,610.08,Single-ply,SBD,M,
Boys,109.77,6,Antonio Garza,Crane,100.24,235.87,138.35,204.12,578.33,Single-ply,SBD,M,
Boys,109.77,7,Martin Hernandez,Dimmitt,107.05,217.72,122.47,238.14,578.33,Single-ply,SBD,M,
Boys,109.77,8,Aaron Rodriguez,Friona,108.86,235.87,122.47,213.19,571.53,Single-ply,SBD,M,
Boys,109.77,9,Isidro Rodriguez,Big Lake Reagan County,104.42,226.8,131.54,201.85,560.19,Single-ply,SBD,M,
Boys,109.77,10,Ishmael Flores,Friona,101.33,233.6,122.47,201.85,557.92,Single-ply,SBD,M,
Boys,109.77,11,Zach Etheredge,Childress,106.87,181.44,138.35,199.58,519.36,Single-ply,SBD,M,
Boys,109.77,DQ,Bryan Gutierrez,Big Lake Reagan County,100.88,235.87,138.35,,,Single-ply,SBD,M,
Boys,124.74,1,Kesean Dever,Brownfield,114.94,272.16,181.44,240.4,694,Single-ply,SBD,M,
Boys,124.74,2,Jake Padilla,Friona,115.39,263.08,158.76,256.28,678.12,Single-ply,SBD,M,
Boys,124.74,3,Noah Powell,Tuscola Jim Ned,116.48,276.69,149.69,251.74,678.12,Single-ply,SBD,M,
Boys,124.74,4,Alex Quintero,Slaton,122.11,274.42,165.56,222.26,662.24,Single-ply,SBD,M,
Boys,124.74,5,Marcos Villalobos,Sonora,118.21,249.48,140.61,254.01,644.1,Single-ply,SBD,M,
Boys,124.74,6,Eliseo Bonilla,Kermit,109.86,217.72,147.42,215.46,580.6,Single-ply,SBD,M,
Boys,124.74,7,Jesus Trabado,Denver City,116.12,219.99,149.69,204.12,573.79,Single-ply,SBD,M,
Boys,124.74,8,Elijah Robledo,Friona,118.12,235.87,131.54,183.7,551.11,Single-ply,SBD,M,
Boys,124.74,9,Jacob Martinez,Sonora,115.21,217.72,129.27,199.58,546.58,Single-ply,SBD,M,
Boys,124.74,10,Anthony Abarca,Friona,113.85,226.8,108.86,201.85,537.51,Single-ply,SBD,M,
Boys,124.74,11,Cristian Salinas,Dalhart,111.4,208.65,138.35,183.7,530.7,Single-ply,SBD,M,
Boys,124.74,DQ,Billy Deel,Clyde,111.4,210.92,,,,Single-ply,SBD,M,
Boys,139.71,1,Markus Castleberry,Ballinger,132.18,267.62,183.7,231.33,682.66,Single-ply,SBD,M,
Boys,139.71,2,Aiden Marmolejo,Lamesa,131.72,185.97,115.67,190.51,492.15,Single-ply,SBD,M,
Boys,139.71,3,Aj Martinez,Kermit,132,102.06,72.57,161.03,335.66,Single-ply,SBD,M,
Boys,139.71,NS,Eric Jaramillo,Friona,,,,,,Single-ply,SBD,M,
Boys,139.71,DQ,Payden Alberts,Stanton,134.35,,,,,Single-ply,SBD,M,
Boys,139.71,DQ,Xathen Chasco,Tulia,125.19,,,,,Single-ply,SBD,M,
Boys,139.71+,1,Camron Price,Clyde,144.24,258.55,165.56,242.67,666.78,Single-ply,SBD,M,
Boys,139.71+,2,Ben Turner,Dalhart,146.06,272.16,154.22,240.4,666.78,Single-ply,SBD,M,
Boys,139.71+,3,Evan Sepeda,Lamesa,185.43,281.23,154.22,231.33,666.78,Single-ply,SBD,M,
Boys,139.71+,4,Brady Villanueva,Tuscola Jim Ned,165.2,226.8,149.69,224.53,601.01,Single-ply,SBD,M,
Boys,139.71+,5,Jerry Perez,Kermit,139.8,244.94,113.4,231.33,589.67,Single-ply,SBD,M,
Boys,139.71+,6,John Reagan,Coahoma,161.57,158.76,113.4,165.56,437.72,Single-ply,SBD,M,
