Division,WeightClassKg,Place,Name,Team,BodyweightKg,Best3SquatKg,Best3BenchKg,Best3DeadliftKg,TotalKg,Equipment,Event,Sex,BirthDate
Boys,51.71,1,Tomas Elizondo,San Diego,49.9,147.42,77.11,154.22,378.75,Single-ply,SBD,M,
Boys,51.71,2,Shiv Ranchhod,Gregory-Portland,49.9,131.54,72.57,147.42,351.53,Single-ply,SBD,M,
Boys,51.71,3,Rey Medrano,Mathis,51.62,124.74,65.77,138.35,328.85,Single-ply,SBD,M,
Boys,51.71,4,Trey Wright,Mathis,51.44,97.52,58.97,122.47,278.96,Single-ply,SBD,M,
Boys,55.79,1,Matt Lopez,Mathis,55.43,165.56,83.91,181.44,430.91,Single-ply,SBD,M,
Boys,55.79,2,David Perez,Ben Bolt-Palito Blanco,54.43,161.03,90.72,165.56,417.3,Single-ply,SBD,M,
Boys,55.79,3,Josh Trevino,Corpus Christi West Oso,55.34,149.69,86.18,165.56,401.43,Single-ply,SBD,M,
Boys,55.79,4,Donovan Longoria,Beeville Jones,53.52,140.61,81.65,142.88,365.14,Single-ply,SBD,M,
Boys,55.79,5,Rogelio Sanchez,Odem,55.79,129.27,72.57,158.76,360.61,Single-ply,SBD,M,
Boys,55.79,6,Cameron Aleman,Corpus Christi Incarnate Word Academy,53.52,104.33,61.23,120.2,285.76,Single-ply,SBD,M,
Boys,55.79,7,Justin Cruz,Mathis,55.02,90.72,56.7,124.74,272.16,Single-ply,SBD,M,
Boys,55.79,8,Daniel Cantu,Corpus Christi West Oso,53.98,81.65,58.97,127.01,267.62,Single-ply,SBD,M,
Boys,55.79,9,Carson Guidry,Taft,54.43,88.45,58.97,108.86,256.28,Single-ply,SBD,M,
Boys,55.79,DQ,Ryan Perez,Ben Bolt-Palito Blanco,53.52,,,,,Single-ply,SBD,M,
Boys,59.87,1,Corey Francis,Beeville Jones,59.42,145.15,117.93,158.76,421.84,Single-ply,SBD,M,
Boys,59.87,2,Joseph Espinoza,Taft,58.51,151.95,92.99,167.83,412.77,Single-ply,SBD,M,
Boys,59.87,3,Mark Moreno,Odem,58.97,158.76,77.11,158.76,394.63,Single-ply,SBD,M,
Boys,59.87,4,John Contreras,Beeville Jones,57.61,147.42,70.31,174.63,392.36,Single-ply,SBD,M,
Boys,59.87,5,Robert Rios,Mathis,59.56,183.7,113.4,91.63,388.73,Single-ply,SBD,M,
Boys,59.87,6,James Adams,Odem,58.51,142.88,90.72,142.88,376.48,Single-ply,SBD,M,
Boys,59.87,7,Jacob Perez #6,Freer,58.97,136.08,74.84,154.22,365.14,Single-ply,SBD,M,
Boys,59.87,8,Mikal Niembro,George West,57.61,136.08,70.31,113.4,319.78,Single-ply,SBD,M,
Boys,59.87,9,Stephen Valdez,Corpus Christi Tuloso-Midway,58.97,111.13,83.91,117.93,312.98,Single-ply,SBD,M,
Boys,59.87,10,Aiden Orines,Corpus Christi Incarnate Word Academy,58.06,83.91,54.43,88.45,226.8,Single-ply,SBD,M,
Boys,59.87,DQ,Ezra Salazar,Corpus Christi Tuloso-Midway,59.42,151.95,79.38,,,Single-ply,SBD,M,
Boys,59.87,DQ,Tyson Hinojosa,Taft,59.87,83.91,,,,Single-ply,SBD,M,
Boys,67.13,1,Gavin Chapa,Corpus Christi London,66.22,226.8,142.88,219.99,589.67,Single-ply,SBD,M,
Boys,67.13,2,Jody Ruiz,Mathis,65.59,185.97,151.95,183.7,521.63,Single-ply,SBD,M,
Boys,67.13,3,Jerek Sanchez,Taft,62.6,174.63,129.27,190.51,494.42,Single-ply,SBD,M,
Boys,67.13,4,Austin Mendez,San Diego,64.86,176.9,104.33,192.78,474,Single-ply,SBD,M,
Boys,67.13,5,Elyon Ybarra,Mathis,64.14,181.44,113.4,174.63,469.47,Single-ply,SBD,M,
Boys,67.13,6,Joseph Chavez,Taft,66.22,170.1,92.99,188.24,451.32,Single-ply,SBD,M,
Boys,67.13,7,Aaron Coulter,Gregory-Portland,65.32,170.1,102.06,167.83,439.98,Single-ply,SBD,M,
Boys,67.13,8,Joaquin Dion,Corpus Christi Incarnate Word Academy,64.86,170.1,83.91,181.44,435.45,Single-ply,SBD,M,
Boys,67.13,9,Christopher Hernandez,Beeville Jones,65.32,158.76,104.33,151.95,415.04,Single-ply,SBD,M,
Boys,67.13,10,Ethan Vasquez,Alice,67.13,142.88,102.06,154.22,399.16,Single-ply,SBD,M,
Boys,67.13,11,Nick Molina,Gregory-Portland,65.77,142.88,88.45,149.69,381.02,Single-ply,SBD,M,
Boys,67.13,12,Brandon Centers,George West,66.22,127.01,86.18,163.29,376.48,Single-ply,SBD,M,
Boys,67.13,13,Zach Guzman,Gregory-Portland,65.32,140.61,79.38,149.69,369.68,Single-ply,SBD,M,
Boys,67.13,14,Rj Garcia,Freer,67.13,127.01,86.18,147.42,360.61,Single-ply,SBD,M,
Boys,67.13,15,Syriz Martinez,Three Rivers,65.32,129.27,74.84,136.08,340.19,Single-ply,SBD,M,
Boys,67.13,16,Brandon Guajardo,Freer,63.96,106.59,72.57,124.74,303.91,Single-ply,SBD,M,
Boys,74.84,1,Lee Bazan,San Diego,74.84,272.16,163.29,231.33,666.78,Single-ply,SBD,M,
Boys,74.84,2,Mat Mora,Corpus Christi Tuloso-Midway,72.12,235.87,140.61,226.8,603.28,Single-ply,SBD,M,
Boys,74.84,3,Vince Escobedo,Gregory-Portland,71.67,206.38,113.4,210.92,530.7,Single-ply,SBD,M,
Boys,74.84,4,Chris Garcia #15,Ben Bolt-Palito Blanco,70.31,188.24,133.81,188.24,510.29,Single-ply,SBD,M,
Boys,74.84,5,Noah Paiz,George West,68.49,174.63,111.13,181.44,467.2,Single-ply,SBD,M,
Boys,74.84,6,Alex De La Fuente,Falfurrias,73.94,165.56,120.2,170.1,455.86,Single-ply,SBD,M,
Boys,74.84,7,Lukas Saliaz,San Diego,72.57,161.03,117.93,163.29,442.25,Single-ply,SBD,M,
Boys,74.84,8,Alec Puente,Beeville Jones,68.95,158.76,90.72,158.76,408.23,Single-ply,SBD,M,
Boys,74.84,9,John Espinoza,Odem,72.12,163.29,83.91,158.76,405.97,Single-ply,SBD,M,
Boys,74.84,10,Jaime Salinas,San Diego,74.84,172.37,90.72,136.08,399.16,Single-ply,SBD,M,
Boys,74.84,11,Pedro Diaz,Odem,73.94,149.69,90.72,136.08,376.48,Single-ply,SBD,M,
Boys,74.84,12,Raymond Benivides,Three Rivers,70.76,99.79,63.5,127.01,290.3,Single-ply,SBD,M,
Boys,74.84,DQ,Johnny Kiser,Corpus Christi Tuloso-Midway,69.4,,,,,Single-ply,SBD,M,
Boys,82.1,1,Jocob Loera,Alice,80.74,219.99,151.95,235.87,607.81,Single-ply,SBD,M,
Boys,82.1,2,Chiso Nwampka,Corpus Christi Tuloso-Midway,76.2,210.92,154.22,240.4,605.55,Single-ply,SBD,M,
Boys,82.1,3,Alan Rodriguez,Corpus Christi Tuloso-Midway,78.93,206.38,131.54,185.97,523.9,Single-ply,SBD,M,
Boys,82.1,4,Fernando Castillo,George West,78.47,192.78,115.67,195.04,503.49,Single-ply,SBD,M,
Boys,82.1,5,Gavin Gonzalez,Corpus Christi Tuloso-Midway,79.38,188.24,115.67,183.7,487.61,Single-ply,SBD,M,
Boys,82.1,6,Jacob Charles,Corpus Christi London,77.56,183.7,104.33,190.51,478.54,Single-ply,SBD,M,
Boys,82.1,7,Jaron Marshall,Corpus Christi Tuloso-Midway,82.1,167.83,108.86,192.78,469.47,Single-ply,SBD,M,
Boys,82.1,8,Cody Seal,Ben Bolt-Palito Blanco,79.38,183.7,108.86,163.29,455.86,Single-ply,SBD,M,
Boys,82.1,9,Matt Perez,Mathis,81.78,154.22,108.86,174.63,437.72,Single-ply,SBD,M,
Boys,82.1,10,AJ Gomez,Mathis,80.56,142.88,92.99,172.37,408.23,Single-ply,SBD,M,
Boys,82.1,11,Esteban Morieda,Corpus Christi Incarnate Word Academy,82.1,142.88,83.91,165.56,392.36,Single-ply,SBD,M,
Boys,82.1,DQ,Justin Navarro,Falfurrias,79.38,,,,,Single-ply,SBD,M,
Boys,89.81,1,Derik DeLeon,Mathis,87.68,278.96,185.97,249.48,714.41,Single-ply,SBD,M,
Boys,89.81,2,Joe Montoya,Beeville Jones,89.81,219.99,142.88,192.78,555.65,Single-ply,SBD,M,
Boys,89.81,3,Landon Garza,Odem,86.64,210.92,127.01,192.78,530.7,Single-ply,SBD,M,
Boys,89.81,4,Marcus Gutierrez,Beeville Jones,85.28,201.85,106.59,208.65,517.1,Single-ply,SBD,M,
Boys,89.81,5,Matthew Salinas,Beeville Jones,84.37,170.1,108.86,181.44,460.4,Single-ply,SBD,M,
Boys,89.81,6,Chris Bray,Gregory-Portland,89.81,174.63,111.13,174.63,460.4,Single-ply,SBD,M,
Boys,89.81,7,Nathan Reyes,Corpus Christi West Oso,87.09,142.88,97.52,188.24,428.64,Single-ply,SBD,M,
Boys,89.81,8,Nick Watts,Gregory-Portland,85.28,147.42,92.99,167.83,408.23,Single-ply,SBD,M,
Boys,89.81,9,Jorge De Los Santos,Corpus Christi West Oso,85.28,147.42,95.25,147.42,390.09,Single-ply,SBD,M,
Boys,89.81,10,Cesar Gonzalez,Mathis,89.63,108.86,106.59,158.76,374.21,Single-ply,SBD,M,
Boys,89.81,11,Anastacio Lopez,Taft,83.91,156.49,58.97,156.49,371.95,Single-ply,SBD,M,
Boys,89.81,12,Gavin Nunez,Gregory-Portland,89.81,147.42,79.38,145.15,371.95,Single-ply,SBD,M,
Boys,89.81,13,Richard Martinez,Mathis,86.73,136.08,86.18,142.88,365.14,Single-ply,SBD,M,
Boys,89.81,14,Caleb Blankenship,Three Rivers,88.45,111.13,95.25,145.15,351.53,Single-ply,SBD,M,
Boys,89.81,DQ,Pablo Fernandez,Alice,84.37,161.03,,,,Single-ply,SBD,M,
Boys,99.79,1,Marcos Gonzalez,Ben Bolt-Palito Blanco,98.43,267.62,161.03,256.28,684.92,Single-ply,SBD,M,
Boys,99.79,2,Jonathan Pena,San Diego,96.16,226.8,154.22,238.14,619.15,Single-ply,SBD,M,
Boys,99.79,3,Juan Chavera,Falfurrias,92.99,244.94,142.88,192.78,580.6,Single-ply,SBD,M,
Boys,99.79,4,Martelo Villarreal,Beeville Jones,94.35,206.38,147.42,192.78,546.58,Single-ply,SBD,M,
Boys,99.79,5,Isaac Martinez,Corpus Christi Tuloso-Midway,98.88,229.06,127.01,188.24,544.31,Single-ply,SBD,M,
Boys,99.79,6,Daniel Tamez,Odem,98.43,195.04,97.52,213.19,505.76,Single-ply,SBD,M,
Boys,99.79,7,Brandon Beltran,Odem,90.72,208.65,115.67,170.1,494.42,Single-ply,SBD,M,
Boys,99.79,8,Andrew Zuniga,Three Rivers,97.07,183.7,111.13,190.51,485.34,Single-ply,SBD,M,
Boys,99.79,9,Corey Poole,Beeville Jones,94.35,172.37,117.93,183.7,474,Single-ply,SBD,M,
Boys,99.79,10,Nick Benavides,Falfurrias,97.07,158.76,136.08,174.63,469.47,Single-ply,SBD,M,
Boys,99.79,11,Alex Gaona,Beeville Jones,97.52,161.03,120.2,179.17,460.4,Single-ply,SBD,M,
Boys,99.79,12,Ruben Gonzalez #1,San Diego,96.16,170.1,104.33,176.9,451.32,Single-ply,SBD,M,
Boys,99.79,13,Mark Morin,Taft,99.34,165.56,111.13,174.63,451.32,Single-ply,SBD,M,
Boys,99.79,14,Ismael Salinas,Mathis,99.2,151.95,120.2,156.49,428.64,Single-ply,SBD,M,
Boys,99.79,15,Agapito Carrera,Taft,97.52,156.49,97.52,163.29,417.3,Single-ply,SBD,M,
Boys,99.79,16,Christian Ortiz,Gregory-Portland,98.43,127.01,74.84,163.29,365.14,Single-ply,SBD,M,
Boys,99.79,DQ,Dante DeLeon,Mathis,99.06,9.07,,,,Single-ply,SBD,M,
Boys,99.79,DQ,Sabastin Martinez,Corpus Christi West Oso,98.88,,,,,Single-ply,SBD,M,
Boys,99.79,DQ,Ambrose D Patton,Beeville Jones,97.98,244.94,145.15,,,Single-ply,SBD,M,
Boys,99.79,DQ,Aiden Wilde,Alice,96.62,,,,,Single-ply,SBD,M,
Boys,99.79,DQ,Michael Esquivel III,Taft,98.88,,,,,Single-ply,SBD,M,
Boys,99.79,DQ,Marcus Cerda,Taft,98.88,,,,,Single-ply,SBD,M,
Boys,109.77,1,Asher Gonzalez,San Diego,108.86,226.8,149.69,231.33,607.81,Single-ply,SBD,M,
Boys,109.77,2,Phillip Conner,Gregory-Portland,109.32,219.99,129.27,219.99,569.26,Single-ply,SBD,M,
Boys,109.77,3,Peyton Rasbury,Mathis,107.68,226.8,136.08,165.56,528.44,Single-ply,SBD,M,
Boys,109.77,4,Joshua Villela,Gregory-Portland,107.5,154.22,127.01,185.97,467.2,Single-ply,SBD,M,
Boys,109.77,5,AJ Obregon,Freer,106.59,179.17,117.93,147.42,444.52,Single-ply,SBD,M,
Boys,109.77,6,Isreal Gonzalez,Mathis,104.1,154.22,120.2,158.76,433.18,Single-ply,SBD,M,
Boys,109.77,7,Lee Andrew Moreno,Taft,108.86,151.95,113.4,145.15,410.5,Single-ply,SBD,M,
Boys,109.77,8,Shawn Garza,Freer,107.5,147.42,99.79,138.35,385.55,Single-ply,SBD,M,
Boys,109.77,DQ,Mason Pena,Ben Bolt-Palito Blanco,107.95,215.46,138.35,,,Single-ply,SBD,M,
Boys,124.74,1,Cameron Roulston,Corpus Christi London,120.2,260.82,183.7,272.16,716.68,Single-ply,SBD,M,
Boys,124.74,2,Jamie Gonzales,Taft,115.67,281.23,156.49,247.21,684.92,Single-ply,SBD,M,
Boys,124.74,3,Julian Gomez,Odem,116.12,249.48,163.29,226.8,639.57,Single-ply,SBD,M,
Boys,124.74,4,Robert Kroen,Corpus Christi Tuloso-Midway,120.2,219.99,117.93,185.97,523.9,Single-ply,SBD,M,
Boys,124.74,5,Javier Sanchez,Alice,120.66,201.85,111.13,183.7,496.68,Single-ply,SBD,M,
Boys,124.74,6,Ricardo Perez,Taft,120.66,195.04,117.93,174.63,487.61,Single-ply,SBD,M,
Boys,124.74,7,Juanito Cabrera,Falfurrias,110.22,206.38,90.72,172.37,469.47,Single-ply,SBD,M,
Boys,124.74,8,Joseph Gonzalez,Falfurrias,117.03,188.24,97.52,158.76,444.52,Single-ply,SBD,M,
Boys,124.74,DQ,Diego Gutierrez,Mathis,122.74,,,,,Single-ply,SBD,M,
Boys,124.74+,1,Leo Soliz,Corpus Christi Tuloso-Midway,129.73,299.37,183.7,260.82,743.89,Single-ply,SBD,M,
Boys,124.74+,2,Tony Chavez,Taft,161.03,170.1,88.45,156.49,415.04,Single-ply,SBD,M,
