Division,WeightClassKg,Place,Name,Team,BodyweightKg,Best3SquatKg,Best3BenchKg,Best3DeadliftKg,TotalKg,Equipment,Event,Sex,BirthDate
Boys,51.71,1,Tim Kruger,Rosebud-Lott,51.26,102.06,63.5,111.13,276.69,Single-ply,SBD,M,
Boys,55.79,1,Dylan Deutsch,Bastrop Cedar Creek,52.75,133.81,95.25,156.49,385.55,Single-ply,SBD,M,
Boys,55.79,2,Aydin Luna,Kyle Lehman,55.7,120.2,70.31,129.27,319.78,Single-ply,SBD,M,
Boys,55.79,3,Nik Caproni,Rosebud-Lott,55.2,104.33,77.11,122.47,303.91,Single-ply,SBD,M,
Boys,55.79,4,Diego Carmona,San Marcos,55.79,99.79,68.04,122.47,290.3,Single-ply,SBD,M,
Boys,59.87,1,Fabio Reyes,Kyle Lehman,59.83,170.1,97.52,179.17,446.79,Single-ply,SBD,M,
Boys,59.87,2,Justin Barcenas,Kyle Lehman,59.87,170.1,86.18,183.7,439.98,Single-ply,SBD,M,
Boys,59.87,3,Augustine Vasquez,San Marcos,58.79,151.95,70.31,151.95,374.21,Single-ply,SBD,M,
Boys,67.13,1,Zach Decker,San Marcos,64.77,206.38,88.45,195.04,489.88,Single-ply,SBD,M,
Boys,67.13,2,Juan Mendez Lopez,Del Valle,65.14,154.22,97.52,149.69,401.43,Single-ply,SBD,M,
Boys,67.13,3,Joseph Gonzales,Del Valle,62.69,120.2,74.84,136.08,331.12,Single-ply,SBD,M,
Boys,74.84,1,Miguel Guerra,Kyle Lehman,74.21,204.12,117.93,233.6,555.65,Single-ply,SBD,M,
Boys,74.84,2,Jason Allison,Rosebud-Lott,73.39,172.37,111.13,172.37,455.86,Single-ply,SBD,M,
Boys,74.84,3,Jose Solis,Kyle Lehman,74.8,170.1,88.45,192.78,451.32,Single-ply,SBD,M,
Boys,74.84,DQ,Ceasar Hernandez,Lockhart,74.75,,,,,Single-ply,SBD,M,
Boys,82.1,1,Matheus Eifling,Kyle Lehman,76.84,104.33,63.5,102.06,269.89,Single-ply,SBD,M,
Boys,82.1,DQ,Allan Romero,Del Valle,81.69,213.19,120.2,,,Single-ply,SBD,M,
Boys,89.81,1,Blas Mendez,Buda Hays,82.92,181.44,102.06,174.63,458.13,Single-ply,SBD,M,
Boys,89.81,2,Alvin Clarkson-Williams,Rosebud-Lott,82.64,163.29,104.33,176.9,444.52,Single-ply,SBD,M,
Boys,89.81,3,Marcos Hernandez,Buda Hays,85.5,174.63,90.72,176.9,442.25,Single-ply,SBD,M,
Boys,89.81,4,Christian Longoria,Del Valle,87.32,147.42,102.06,158.76,408.23,Single-ply,SBD,M,
Boys,99.79,1,Nicholas Luna,Kyle Lehman,99.79,247.21,147.42,244.94,639.57,Single-ply,SBD,M,
Boys,99.79,2,Christian Ramirez,Buda Hays,99.11,231.33,158.76,217.72,607.81,Single-ply,SBD,M,
Boys,99.79,DQ,Tristan Amos,Lockhart,98.34,,,,,Single-ply,SBD,M,
Boys,99.79,DQ,Guarionex Suarez,San Marcos,91.22,233.6,131.54,,,Single-ply,SBD,M,
Boys,109.77,1,Taj Johnson,Del Valle,103.65,247.21,145.15,235.87,628.23,Single-ply,SBD,M,
Boys,109.77,2,Riley Owen,Lockhart,103.15,231.33,120.2,219.99,571.53,Single-ply,SBD,M,
Boys,109.77,DQ,Jalen Miller,Kyle Lehman,109.63,272.16,124.74,,,Single-ply,SBD,M,
Boys,124.74,1,Michael Valenta,Georgetown,123.65,263.08,170.1,249.48,682.66,Single-ply,SBD,M,
Boys,139.71,1,Dylan Clifton,Buda Hays,133.54,260.82,158.76,251.74,671.32,Single-ply,SBD,M,
Boys,139.71,2,Karim Zuniga,Lockhart,130.45,240.4,136.08,251.74,628.23,Single-ply,SBD,M,
Boys,139.71,DQ,Joseph Leal,Buda Hays,124.96,260.82,,,,Single-ply,SBD,M,
Boys,139.71+,1,Davarion Godley,Manor,175.77,215.46,142.88,219.99,578.33,Single-ply,SBD,M,
Boys,139.71+,2,Jayden Cofield,Manor,153.54,226.8,151.95,185.97,564.72,Single-ply,SBD,M,
