Division,WeightClassKg,Place,Name,Team,BodyweightKg,Best3SquatKg,Best3BenchKg,Best3DeadliftKg,TotalKg,Equipment,Event,Sex,BirthDate
Boys,51.71,1,Eli Saunders,Burton,51.3,151.95,79.38,149.69,381.02,Single-ply,SBD,M,
Boys,51.71,2,Imanol Mendez,Louise,50.48,145.15,68.04,149.69,362.87,Single-ply,SBD,M,
Boys,51.71,3,Oziel Martinez,Granger,51.48,129.27,63.5,142.88,335.66,Single-ply,SBD,M,
Boys,51.71,4,Tim Kruger,Rosebud-Lott,51.66,104.33,63.5,117.93,285.76,Single-ply,SBD,M,
Boys,51.71,5,Aidan Valdez,Rosebud-Lott,51.62,92.99,65.77,117.93,276.69,Single-ply,SBD,M,
Boys,51.71,6,Jacob Miller,Louise,51.26,86.18,79.38,102.06,267.62,Single-ply,SBD,M,
Boys,51.71,NS,Hardy Hay,Weimar,,,,,,Single-ply,SBD,M,
Boys,51.71,DQ,Curtis Ledwig,Ganado,51.35,,,,,Single-ply,SBD,M,
Boys,55.79,1,Herschel Conway,Somerville,55.38,154.22,102.06,151.95,408.23,Single-ply,SBD,M,
Boys,55.79,2,Rio Garcia,Deweyville,55.29,136.08,90.72,149.69,376.48,Single-ply,SBD,M,
Boys,55.79,3,Isaac Lizardo,Granger,55.34,140.61,74.84,133.81,349.27,Single-ply,SBD,M,
Boys,55.79,4,Nik Caproni,Rosebud-Lott,55.11,104.33,77.11,129.27,310.71,Single-ply,SBD,M,
Boys,55.79,5,Javier Zarate,Normangee,55.57,108.86,68.04,133.81,310.71,Single-ply,SBD,M,
Boys,55.79,6,Caden Schulens,Snook,54.93,106.59,47.63,129.27,283.5,Single-ply,SBD,M,
Boys,55.79,7,Trevor Lutringer,Louise,53.71,95.25,58.97,124.74,278.96,Single-ply,SBD,M,
Boys,55.79,NS,Derek Lopez,Somerville,,,,,,Single-ply,SBD,M,
Boys,55.79,NS,Lane Gray,Deweyville,,,,,,Single-ply,SBD,M,
Boys,55.79,DQ,Kyler Snell,Grapeland,54.84,,,,,Single-ply,SBD,M,
Boys,55.79,DQ,Abiel Trigueros,Jewett Leon,54.7,,,,,Single-ply,SBD,M,
Boys,55.79,DQ,Wyatt Coker,Rosebud-Lott,53.75,,,,,Single-ply,SBD,M,
Boys,59.87,1,Verkobe Woodberry,Somerville,58.74,172.37,92.99,190.51,455.86,Single-ply,SBD,M,
Boys,59.87,2,Gentry Doyle,Flatonia,58.56,149.69,92.99,142.88,385.55,Single-ply,SBD,M,
Boys,59.87,3,Dakota Ford,Weimar,59.83,131.54,86.18,165.56,383.29,Single-ply,SBD,M,
Boys,59.87,4,Richard Rivera-Espinoza,Somerville,58.6,142.88,81.65,154.22,378.75,Single-ply,SBD,M,
Boys,59.87,5,Elijah Curl,Deweyville,59.51,140.61,83.91,154.22,378.75,Single-ply,SBD,M,
Boys,59.87,6,Liam Gale,Normangee,59.83,131.54,86.18,142.88,360.61,Single-ply,SBD,M,
Boys,59.87,7,Logan Houghton,Saratoga West Hardin,59.83,136.08,77.11,138.35,351.53,Single-ply,SBD,M,
Boys,59.87,8,Michael Michala,Thrall,59.28,129.27,77.11,142.88,349.27,Single-ply,SBD,M,
Boys,59.87,9,Adin Beyer,Schulenburg,59.15,124.74,68.04,133.81,326.59,Single-ply,SBD,M,
Boys,59.87,10,Kato Mattair,Rosebud-Lott,59.87,113.4,72.57,133.81,319.78,Single-ply,SBD,M,
Boys,59.87,11,Alex Jimenez,Schulenburg,59.6,108.86,70.31,138.35,317.51,Single-ply,SBD,M,
Boys,59.87,DQ,Carlos Bolaños,Jewett Leon,59.69,,,,,Single-ply,SBD,M,
Boys,67.13,1,Max Herrera,Chilton,66.04,190.51,120.2,183.7,494.42,Single-ply,SBD,M,
Boys,67.13,2,Manny Calderon,Ganado,64.95,190.51,111.13,188.24,489.88,Single-ply,SBD,M,
Boys,67.13,3,Carlos Saucedo,Rosebud-Lott,66.63,158.76,120.2,181.44,460.4,Single-ply,SBD,M,
Boys,67.13,4,Jorge Olvera,Schulenburg,66.81,161.03,90.72,195.04,446.79,Single-ply,SBD,M,
Boys,67.13,5,Gavin Cruz,Holland,66.86,165.56,95.25,183.7,444.52,Single-ply,SBD,M,
Boys,67.13,6,Michael Drozd,Louise,67.09,142.88,113.4,183.7,439.98,Single-ply,SBD,M,
Boys,67.13,7,Seth Jayaprabhu,Holland,63.5,165.56,83.91,188.24,437.72,Single-ply,SBD,M,
Boys,67.13,8,Ryan Barbera,Chilton,63.59,158.76,92.99,183.7,435.45,Single-ply,SBD,M,
Boys,67.13,9,Cain Hayden,Ganado,65.54,172.37,92.99,163.29,428.64,Single-ply,SBD,M,
Boys,67.13,10,Anthony Haney,Jewett Leon,65,161.03,77.11,179.17,417.3,Single-ply,SBD,M,
Boys,67.13,DQ,Tyler Thibodeaux,Hull-Daisetta,67.04,163.29,,,,Single-ply,SBD,M,
Boys,67.13,NS,Raymond Avalos,Thorndale,,,,,,Single-ply,SBD,M,
Boys,67.13,DQ,Benjamin Blanco,Louise,67,,,,,Single-ply,SBD,M,
Boys,74.84,1,Trent Mendez,Schulenburg,72.53,201.85,136.08,204.12,542.04,Single-ply,SBD,M,
Boys,74.84,2,Alexis Martinez,Ganado,73.62,208.65,117.93,206.38,532.97,Single-ply,SBD,M,
Boys,74.84,3,Aiden Gonzales,Flatonia,73.8,195.04,127.01,206.38,528.44,Single-ply,SBD,M,
Boys,74.84,4,Aj Hernandez,Thorndale,74.43,192.78,111.13,204.12,508.02,Single-ply,SBD,M,
Boys,74.84,5,Luke Jakubik,Snook,73.44,188.24,108.86,201.85,498.95,Single-ply,SBD,M,
Boys,74.84,6,Ezequiel Medina,Louise,71.17,167.83,97.52,213.19,478.54,Single-ply,SBD,M,
Boys,74.84,7,Donnie Cantwell,Granger,74.48,199.58,102.06,174.63,476.27,Single-ply,SBD,M,
Boys,74.84,8,Jermi Shamblin,Colmesneil,72.3,183.7,102.06,183.7,469.47,Single-ply,SBD,M,
Boys,74.84,9,Jason Allison,Rosebud-Lott,73.48,170.1,111.13,181.44,462.66,Single-ply,SBD,M,
Boys,74.84,10,Anthony Vicknair,Thorndale,73.16,170.1,124.74,156.49,451.32,Single-ply,SBD,M,
Boys,74.84,11,Jacob Vacek,Schulenburg,71.85,149.69,97.52,199.58,446.79,Single-ply,SBD,M,
Boys,74.84,12,Brandon Almeda,Ganado,73.71,181.44,102.06,145.15,428.64,Single-ply,SBD,M,
Boys,74.84,NS,Deven Green,Somerville,,,,,,Single-ply,SBD,M,
Boys,82.1,1,Trace Riggs,Thrall,79.38,213.19,129.27,204.12,546.58,Single-ply,SBD,M,
Boys,82.1,2,Luis Guillen,Jewett Leon,81.01,192.78,108.86,226.8,528.44,Single-ply,SBD,M,
Boys,82.1,3,Adrian Ibarra,Holland,77.43,192.78,124.74,188.24,505.76,Single-ply,SBD,M,
Boys,82.1,4,Phillip Ramirez,Flatonia,81.83,197.31,120.2,181.44,498.95,Single-ply,SBD,M,
Boys,82.1,5,Jayden Shamblin,Colmesneil,76.93,170.1,104.33,185.97,460.4,Single-ply,SBD,M,
Boys,82.1,6,Zach Taylor,Centerville,79.24,165.56,124.74,170.1,460.4,Single-ply,SBD,M,
Boys,82.1,7,Luke Pearson,Thrall,78.93,163.29,108.86,174.63,446.79,Single-ply,SBD,M,
Boys,82.1,NS,Nick Rea,Grapeland,,,,,,Single-ply,SBD,M,
Boys,82.1,DQ,James Webb,Centerville,78.34,,,,,Single-ply,SBD,M,
Boys,82.1,DQ,Dd Starnes,Centerville,75.57,204.12,,,,Single-ply,SBD,M,
Boys,82.1,DQ,Dude West,Centerville,82.1,,,,,Single-ply,SBD,M,
Boys,82.1,DQ,Carter Kovar,Ganado,78.56,190.51,111.13,,,Single-ply,SBD,M,
Boys,82.1,DQ,Orlando Adame,Schulenburg,80.65,,,,,Single-ply,SBD,M,
Boys,89.81,1,Hayden Kylberg,Thorndale,88.5,258.55,163.29,249.48,671.32,Single-ply,SBD,M,
Boys,89.81,2,Colton Cargill,Holland,83.14,204.12,117.93,217.72,539.77,Single-ply,SBD,M,
Boys,89.81,3,Nathan Parker,Deweyville,87.18,204.12,127.01,201.85,532.97,Single-ply,SBD,M,
Boys,89.81,4,Caleb Hanks,Somerville,89.27,204.12,115.67,197.31,517.1,Single-ply,SBD,M,
Boys,89.81,5,Albert Martinez,Holland,84.91,190.51,108.86,188.24,487.61,Single-ply,SBD,M,
Boys,89.81,6,Alvin Clarkson-Williams,Rosebud-Lott,82.42,167.83,106.59,170.1,444.52,Single-ply,SBD,M,
Boys,89.81,7,Lee Frank,Hearne,88.68,165.56,92.99,185.97,444.52,Single-ply,SBD,M,
Boys,89.81,8,David Almeda,Ganado,88.68,181.44,102.06,145.15,428.64,Single-ply,SBD,M,
Boys,89.81,9,Roy Arrambide,Louise,88.41,154.22,99.79,170.1,424.11,Single-ply,SBD,M,
Boys,89.81,10,James Johnson,Snook,82.46,142.88,92.99,161.03,396.89,Single-ply,SBD,M,
Boys,89.81,NS,Mason Wells,Saratoga West Hardin,,,,,,Single-ply,SBD,M,
Boys,89.81,NS,Ryan Bland,Deweyville,,,,,,Single-ply,SBD,M,
Boys,89.81,DQ,Cameron Pate,Centerville,89.04,,,,,Single-ply,SBD,M,
Boys,99.79,1,Daniel Gaona III,Louise,96.57,254.01,165.56,242.67,662.24,Single-ply,SBD,M,
Boys,99.79,2,Jc Chaney,Holland,93.26,249.48,165.56,233.6,648.64,Single-ply,SBD,M,
Boys,99.79,3,Josh Ramirez,Schulenburg,95.48,229.06,136.08,233.6,598.74,Single-ply,SBD,M,
Boys,99.79,4,Levodrick Phillips,Centerville,95.35,231.33,147.42,201.85,580.6,Single-ply,SBD,M,
Boys,99.79,5,Daniel Rodriguez,Rosebud-Lott,93.76,219.99,133.81,217.72,571.53,Single-ply,SBD,M,
Boys,99.79,6,Miguel Barron,Chilton,95.71,195.04,145.15,226.8,566.99,Single-ply,SBD,M,
Boys,99.79,7,Luke Hutka,Holland,98.02,215.46,136.08,195.04,546.58,Single-ply,SBD,M,
Boys,99.79,8,Ethan Resendez,Louise,95.3,201.85,99.79,208.65,510.29,Single-ply,SBD,M,
Boys,99.79,9,Conner Drake,Hull-Daisetta,99.16,183.7,124.74,192.78,501.22,Single-ply,SBD,M,
Boys,99.79,10,Payton Sprouse,Somerville,96.84,204.12,104.33,190.51,498.95,Single-ply,SBD,M,
Boys,99.79,11,Lorenzo Robles,Chilton,98.38,170.1,138.35,181.44,489.88,Single-ply,SBD,M,
Boys,99.79,DQ,Callan Shrode,Jewett Leon,96.66,197.31,113.4,,,Single-ply,SBD,M,
Boys,99.79,DQ,Weston Pavlik,Weimar,94.3,179.17,106.59,,,Single-ply,SBD,M,
Boys,109.77,1,Jose Molina,Normangee,109.72,276.69,170.1,238.14,684.92,Single-ply,SBD,M,
Boys,109.77,2,Braylon Cornish,Normangee,104.37,260.82,145.15,233.6,639.57,Single-ply,SBD,M,
Boys,109.77,3,Cody Noriega,Snook,107.27,254.01,149.69,231.33,635.03,Single-ply,SBD,M,
Boys,109.77,4,Kaleb Yount,Thorndale,107.86,215.46,151.95,226.8,594.21,Single-ply,SBD,M,
Boys,109.77,5,Eric Flores,Burton,106.78,215.46,142.88,231.33,589.67,Single-ply,SBD,M,
Boys,109.77,6,Elijah Flores,Rosebud-Lott,108.64,222.26,151.95,208.65,582.87,Single-ply,SBD,M,
Boys,109.77,7,Holden Loper,Saratoga West Hardin,109.5,249.48,113.4,192.78,555.65,Single-ply,SBD,M,
Boys,109.77,8,Tyler Bonkowski,Thrall,101.92,210.92,127.01,210.92,548.85,Single-ply,SBD,M,
Boys,109.77,9,Nolan Kahlig,Rosebud-Lott,106.41,192.78,140.61,192.78,526.17,Single-ply,SBD,M,
Boys,109.77,10,Tyler Foster,Holland,102.56,181.44,127.01,210.92,519.36,Single-ply,SBD,M,
Boys,109.77,11,Collin Alverson,Hull-Daisetta,102.33,197.31,122.47,197.31,517.1,Single-ply,SBD,M,
Boys,109.77,12,Audreas Gibson,Hearne,105.6,192.78,117.93,199.58,510.29,Single-ply,SBD,M,
Boys,124.74,1,Christopher Vasquez,Louise,122.42,294.84,136.08,244.94,675.85,Single-ply,SBD,M,
Boys,124.74,2,Caden Espinosa,Somerville,116.03,235.87,167.83,258.55,662.24,Single-ply,SBD,M,
Boys,124.74,3,Luis Gonzalez,Deweyville,110.31,260.82,147.42,201.85,610.08,Single-ply,SBD,M,
Boys,124.74,4,Dylan Fowler,Colmesneil,111.63,206.38,142.88,222.26,571.53,Single-ply,SBD,M,
Boys,124.74,5,Andrew Vasquez,Somerville,110.9,242.67,131.54,192.78,566.99,Single-ply,SBD,M,
Boys,124.74,6,Isaiah Adams,Schulenburg,121.25,226.8,136.08,204.12,566.99,Single-ply,SBD,M,
Boys,124.74,7,Emanuel Gaytan,Weimar,111.54,213.19,97.52,195.04,505.76,Single-ply,SBD,M,
Boys,124.74,8,Canyon Surovik,Somerville,121.25,201.85,104.33,170.1,476.27,Single-ply,SBD,M,
Boys,124.74,DQ,Kolyer Marshall,Colmesneil,123.24,,,,,Single-ply,SBD,M,
Boys,124.74,NS,Lane Abshier,Hull-Daisetta,,,,,,Single-ply,SBD,M,
Boys,124.74,DQ,Kayden Flowers,Hull-Daisetta,122.06,154.22,,,,Single-ply,SBD,M,
Boys,124.74,DQ,Vincent Barajas,Ganado,112.13,192.78,117.93,,,Single-ply,SBD,M,
Boys,124.74,DQ,Jace Metzer,Normangee,116.07,,,,,Single-ply,SBD,M,
Boys,139.71,1,Easton Fulton,Rosebud-Lott,134.94,229.06,167.83,260.82,657.71,Single-ply,SBD,M,
Boys,139.71,2,Davon Walles,Flatonia,129.46,231.33,145.15,215.46,591.94,Single-ply,SBD,M,
Boys,139.71,3,Dylan Scott,Hull-Daisetta,132.09,206.38,147.42,215.46,569.26,Single-ply,SBD,M,
Boys,139.71,4,Jason DeCluette,Grapeland,134.4,219.99,124.74,204.12,548.85,Single-ply,SBD,M,
Boys,139.71,5,Ignacio Hernandez,Schulenburg,138.57,208.65,113.4,217.72,539.77,Single-ply,SBD,M,
Boys,139.71,6,David Sweet,Colmesneil,133.63,188.24,108.86,210.92,508.02,Single-ply,SBD,M,
Boys,139.71,7,Calvin Thompson,Schulenburg,136.17,204.12,113.4,181.44,498.95,Single-ply,SBD,M,
Boys,139.71,8,Pete Galvan,Louise,125.69,181.44,104.33,204.12,489.88,Single-ply,SBD,M,
Boys,139.71,9,Grayson Vanya,Saratoga West Hardin,130.91,192.78,95.25,170.1,458.13,Single-ply,SBD,M,
Boys,139.71,10,Jason Ford,Hull-Daisetta,130.82,165.56,113.4,174.63,453.59,Single-ply,SBD,M,
Boys,139.71,11,Hogan Ueckert,Colmesneil,130.18,122.47,83.91,142.88,349.27,Single-ply,SBD,M,
Boys,139.71,DQ,Keaton Crowley,Centerville,125.06,,,,,Single-ply,SBD,M,
Boys,139.71+,1,Taden Alvarado,Flatonia,148.73,306.17,170.1,242.67,718.94,Single-ply,SBD,M,
Boys,139.71+,2,Ryleigh O'Campo,Thrall,141.29,294.84,161.03,226.8,682.66,Single-ply,SBD,M,
Boys,139.71+,3,Travay Brown,Holland,147.83,226.8,129.27,222.26,578.33,Single-ply,SBD,M,
Boys,139.71+,4,Justin Ellington,Grapeland,150.64,204.12,92.99,188.24,485.34,Single-ply,SBD,M,
Boys,139.71+,5,Jashawn Jones,Somerville,140.93,195.04,104.33,149.69,449.06,Single-ply,SBD,M,
Boys,139.71+,NS,Jesus Espinoza,Somerville,,,,,,Single-ply,SBD,M,
Boys,139.71+,DQ,Javian Faulkner,Granger,160.34,158.76,95.25,,,Single-ply,SBD,M,
