Division,WeightClassKg,Place,Name,Team,BodyweightKg,Best3SquatKg,Best3BenchKg,Best3DeadliftKg,TotalKg,Equipment,Event,Sex,BirthDate
Boys,51.71,1,Mark Ochoa,Gregory-Portland,51.26,115.67,79.38,131.54,326.59,Single-ply,SBD,M,
Boys,51.71,2,Ernie Cano,Kenedy,51.44,106.59,68.04,113.4,288.03,Single-ply,SBD,M,
Boys,55.79,1,Sammy Ronje,Bishop,55.43,142.88,88.45,149.69,381.02,Single-ply,SBD,M,
Boys,55.79,2,Randy Velasquez,Robstown,55.16,136.08,88.45,127.01,351.53,Single-ply,SBD,M,
Boys,55.79,3,Chris Salgado,Banquete,53.25,102.06,45.36,127.01,274.42,Single-ply,SBD,M,
Boys,59.87,1,Austin Lopez,Banquete,59.87,183.7,102.06,188.24,474,Single-ply,SBD,M,
Boys,59.87,2,Danny Hughston,Cuero,59.51,192.78,92.99,167.83,453.59,Single-ply,SBD,M,
Boys,59.87,3,John Ryan Dimicali,Bishop,58.06,136.08,74.84,151.95,362.87,Single-ply,SBD,M,
Boys,59.87,DQ,Cleo Leal,Kenedy,59.42,151.95,,,,Single-ply,SBD,M,
Boys,67.13,1,Alex Gonzalez,Banquete,66.5,190.51,113.4,195.04,498.95,Single-ply,SBD,M,
Boys,67.13,2,Andrew Alaniz,Bruni,66.22,170.1,113.4,181.44,464.93,Single-ply,SBD,M,
Boys,67.13,3,Juan Castillo,Bishop,66.36,158.76,92.99,188.24,439.98,Single-ply,SBD,M,
Boys,67.13,4,Aaron Flores,Banquete,66.04,161.03,111.13,156.49,428.64,Single-ply,SBD,M,
Boys,67.13,5,Ben Neely,Banquete,64.59,149.69,97.52,170.1,417.3,Single-ply,SBD,M,
Boys,67.13,6,Morris Brown,Kenedy,62.32,156.49,83.91,165.56,405.97,Single-ply,SBD,M,
Boys,67.13,7,Daniel Pena,Kenedy,66.95,147.42,102.06,133.81,383.29,Single-ply,SBD,M,
Boys,67.13,8,Adrián Medina,Gregory-Portland,65.14,133.81,95.25,142.88,371.95,Single-ply,SBD,M,
Boys,67.13,9,Giovanni Robles,Robstown,65.59,124.74,97.52,147.42,369.68,Single-ply,SBD,M,
Boys,67.13,10,Gonzalez Garcia,Bruni,67.04,142.88,81.65,145.15,369.68,Single-ply,SBD,M,
Boys,67.13,11,Aiden Favella,Bruni,65.41,133.81,81.65,149.69,365.14,Single-ply,SBD,M,
Boys,67.13,12,Nathaniel Robles,Robstown,63.5,136.08,86.18,133.81,356.07,Single-ply,SBD,M,
Boys,67.13,DQ,Moises Perdomo,Kenedy,65.14,,,,,Single-ply,SBD,M,
Boys,74.84,1,Ramiro Ramos,Bruni,74.84,185.97,120.2,185.97,492.15,Single-ply,SBD,M,
Boys,74.84,2,Darrell Gibson,Kenedy,70.76,122.47,68.04,138.35,328.85,Single-ply,SBD,M,
Boys,82.1,1,Cody Baker,Cuero,79.56,235.87,154.22,222.26,612.35,Single-ply,SBD,M,
Boys,82.1,2,Adrian Perez,Robstown,82.1,181.44,127.01,195.04,503.49,Single-ply,SBD,M,
Boys,82.1,3,Ryan Arredondo,Gregory-Portland,81.56,201.85,113.4,183.7,498.95,Single-ply,SBD,M,
Boys,82.1,4,Caleb Barrientez,Kenedy,75.57,188.24,102.06,192.78,483.08,Single-ply,SBD,M,
Boys,82.1,5,Memphis Hill,Gregory-Portland,78.02,170.1,117.93,156.49,444.52,Single-ply,SBD,M,
Boys,82.1,6,Harrison Crain,Cuero,81.56,165.56,102.06,165.56,433.18,Single-ply,SBD,M,
Boys,82.1,7,Rhylan Guajardo,Robstown,75.84,163.29,104.33,163.29,430.91,Single-ply,SBD,M,
Boys,82.1,8,Manny Mayorga,Banquete,77.2,149.69,104.33,163.29,417.3,Single-ply,SBD,M,
Boys,82.1,9,Andrew Johnson,Bruni,76.75,142.88,90.72,131.54,365.14,Single-ply,SBD,M,
Boys,82.1,10,Justin Flores,Gregory-Portland,79.02,122.47,86.18,122.47,331.12,Single-ply,SBD,M,
Boys,89.81,1,Javaree Bacon,Cuero,87.91,244.94,136.08,226.8,607.81,Single-ply,SBD,M,
Boys,89.81,2,Dylan Farias,Kenedy,88.81,219.99,129.27,229.06,578.33,Single-ply,SBD,M,
Boys,89.81,3,Jared Villanueva,Cuero,86.36,201.85,122.47,197.31,521.63,Single-ply,SBD,M,
Boys,89.81,4,Gabe Trujillo,Gregory-Portland,88.9,195.04,127.01,181.44,503.49,Single-ply,SBD,M,
Boys,89.81,5,Deven Beltran,Banquete,87.82,206.38,113.4,172.37,492.15,Single-ply,SBD,M,
Boys,89.81,6,Arturo Gonzalez,Banquete,84.82,183.7,102.06,183.7,469.47,Single-ply,SBD,M,
Boys,89.81,7,Steven Paschal,Bishop,86.18,172.37,113.4,181.44,467.2,Single-ply,SBD,M,
Boys,89.81,8,Evan McConnell,Gregory-Portland,87.82,156.49,99.79,172.37,428.64,Single-ply,SBD,M,
Boys,89.81,DQ,Abel Delarosa,Robstown,87.27,204.12,140.61,,,Single-ply,SBD,M,
Boys,89.81,DQ,Calvin Lopez,Kenedy,85.64,,,,,Single-ply,SBD,M,
Boys,99.79,1,Noah Jasso,Bishop,91.17,195.04,120.2,199.58,514.83,Single-ply,SBD,M,
Boys,99.79,2,Owen Espinoza,Kenedy,98.7,183.7,142.88,188.24,514.83,Single-ply,SBD,M,
Boys,99.79,3,Jonte Gidrey,Banquete,92.9,192.78,113.4,190.51,496.68,Single-ply,SBD,M,
Boys,99.79,4,Weston Bonneau,Gregory-Portland,99.61,181.44,124.74,183.7,489.88,Single-ply,SBD,M,
Boys,99.79,5,Isreal Espinoza,Robstown,96.34,181.44,129.27,172.37,483.08,Single-ply,SBD,M,
Boys,99.79,6,Tyler Bergman,Gregory-Portland,98.43,183.7,106.59,176.9,467.2,Single-ply,SBD,M,
Boys,99.79,7,Alex Guerra,Banquete,95.35,172.37,88.45,149.69,410.5,Single-ply,SBD,M,
Boys,99.79,8,Brandon Herrera,Banquete,91.44,138.35,95.25,133.81,367.41,Single-ply,SBD,M,
Boys,99.79,DQ,Nando Vargas,Kenedy,94.98,,,,,Single-ply,SBD,M,
Boys,109.77,1,Jonaven Villarreal,Bruni,108.95,226.8,154.22,206.38,587.4,Single-ply,SBD,M,
Boys,109.77,2,Gavin Nunez,Gregory-Portland,102.69,192.78,117.93,174.63,485.34,Single-ply,SBD,M,
Boys,109.77,DQ,Cameron Villa,Cuero,105.96,213.19,117.93,,,Single-ply,SBD,M,
Boys,109.77,DQ,Leo Escamilla,Kenedy,105.32,,,,,Single-ply,SBD,M,
Boys,124.74,1,Joseph Luna,Kenedy,117.75,240.4,179.17,249.48,669.05,Single-ply,SBD,M,
Boys,124.74,2,Ryland Reyna,Kenedy,113.58,231.33,183.7,235.87,650.91,Single-ply,SBD,M,
Boys,124.74,3,Kyle Weghorst,Cuero,115.94,272.16,158.76,208.65,639.57,Single-ply,SBD,M,
Boys,124.74,4,Isaac Caldera,Bishop,118.93,233.6,142.88,208.65,585.13,Single-ply,SBD,M,
Boys,124.74,5,Edwin Aguilar,Robstown,111.67,215.46,136.08,213.19,564.72,Single-ply,SBD,M,
Boys,124.74,6,Andrew Evans,Gregory-Portland,117.84,154.22,115.67,201.85,471.74,Single-ply,SBD,M,
Boys,124.74,7,Andrew Flores,Gregory-Portland,112.58,158.76,124.74,163.29,446.79,Single-ply,SBD,M,
Boys,124.74,8,Miguel Lopez,Bruni,119.66,174.63,99.79,161.03,435.45,Single-ply,SBD,M,
Boys,124.74,9,Ricardo Ramirez,Banquete,122.47,147.42,79.38,136.08,362.87,Single-ply,SBD,M,
Boys,139.71,1,Benjamin Oyervides,Robstown,132.09,235.87,163.29,208.65,607.81,Single-ply,SBD,M,
Boys,139.71,2,Alex Brown,Cuero,129.55,215.46,106.59,165.56,487.61,Single-ply,SBD,M,
Boys,139.71+,1,Mark Pena,Robstown,146.78,285.76,201.85,217.72,705.34,Single-ply,SBD,M,
Boys,139.71+,2,Esteban Chapa,Bruni,144.7,204.12,131.54,181.44,517.1,Single-ply,SBD,M,
Boys,139.71+,3,Riley Herrera,Kenedy,140.8,188.24,124.74,142.88,455.86,Single-ply,SBD,M,
Boys,139.71+,4,Randy Dorsey,Bishop,156.94,188.24,72.57,163.29,424.11,Single-ply,SBD,M,
Boys,,NS,Benjamian Garcia,Robstown,,,,,,Single-ply,SBD,M,
Boys,,NS,Leo Pena,Bruni,,,,,,Single-ply,SBD,M,
