Division,WeightClassKg,Place,Name,Team,BodyweightKg,Best3SquatKg,Best3BenchKg,Best3DeadliftKg,TotalKg,Equipment,Event,Sex,BirthDate
Boys,51.71,1,Carlos Bolivar,Cameron Yoe,46.72,138.35,74.84,147.42,360.61,Single-ply,SBD,M,
Boys,51.71,2,Wyatt Smith,Rockdale,49.62,81.65,49.9,79.38,210.92,Single-ply,SBD,M,
Boys,55.79,1,Abiel Trigueros,Jewett Leon,54.34,120.2,65.77,136.08,322.05,Single-ply,SBD,M,
Boys,55.79,2,Wyatt Coker,Rosebud-Lott,52.53,111.13,61.23,127.01,299.37,Single-ply,SBD,M,
Boys,55.79,3,Aidan Valdez,Rosebud-Lott,52.53,102.06,56.7,127.01,285.76,Single-ply,SBD,M,
Boys,55.79,4,Tim Kruger,Rosebud-Lott,52.07,102.06,49.9,111.13,263.08,Single-ply,SBD,M,
Boys,55.79,DQ,Caden Schulens,Snook,54.61,104.33,,,,Single-ply,SBD,M,
Boys,59.87,1,Darren Carter,Rockdale,58.88,158.76,99.79,156.49,415.04,Single-ply,SBD,M,
Boys,59.87,2,Richard Rivera-Espinoza,Somerville,59.78,120.2,79.38,149.69,349.27,Single-ply,SBD,M,
Boys,59.87,3,Kato Mattair,Rosebud-Lott,59.69,117.93,72.57,136.08,326.59,Single-ply,SBD,M,
Boys,59.87,4,Nik Caproni,Rosebud-Lott,57.79,111.13,77.11,122.47,310.71,Single-ply,SBD,M,
Boys,67.13,1,Carlos Saucedo,Rosebud-Lott,66.41,165.56,120.2,183.7,469.47,Single-ply,SBD,M,
Boys,67.13,2,Carlos Bolaños,Jewett Leon,62.51,136.08,68.04,156.49,360.61,Single-ply,SBD,M,
Boys,67.13,3,Rylee Davis,Brenham,62.69,124.74,81.65,138.35,344.73,Single-ply,SBD,M,
Boys,67.13,DQ,Bryson Weaver,Rockdale,63.41,136.08,,,,Single-ply,SBD,M,
Boys,74.84,1,Fabian Salomon,Cameron Yoe,74.39,233.6,122.47,233.6,589.67,Single-ply,SBD,M,
Boys,74.84,2,Mike Gonzalez,Brenham,73.94,204.12,115.67,226.8,546.58,Single-ply,SBD,M,
Boys,74.84,3,Joseph Medrano,Brenham,70.58,174.63,120.2,183.7,478.54,Single-ply,SBD,M,
Boys,74.84,4,Luke Jakubik,Snook,73.03,188.24,99.79,190.51,478.54,Single-ply,SBD,M,
Boys,74.84,5,Deven Green,Somerville,74.75,167.83,102.06,188.24,458.13,Single-ply,SBD,M,
Boys,74.84,6,Jason Allison,Rosebud-Lott,73.12,172.37,104.33,172.37,449.06,Single-ply,SBD,M,
Boys,74.84,7,Jordan Price,Snook,68.95,136.08,92.99,158.76,387.82,Single-ply,SBD,M,
Boys,74.84,DQ,Ian Stelter,Brenham,73.94,158.76,,,,Single-ply,SBD,M,
Boys,82.1,1,Ruben Najera,Brenham,81.65,219.99,117.93,226.8,564.72,Single-ply,SBD,M,
Boys,82.1,2,John Rigsby,Brenham,78.02,192.78,129.27,219.99,542.04,Single-ply,SBD,M,
Boys,82.1,DQ,Nate Pedigo,Jewett Leon,77.02,145.15,,,,Single-ply,SBD,M,
Boys,89.81,1,Jakob Davis,Brenham,85,165.56,90.72,174.63,430.91,Single-ply,SBD,M,
Boys,89.81,2,Connor Appelt,Brenham,89.36,158.76,106.59,165.56,430.91,Single-ply,SBD,M,
Boys,89.81,3,Alvin Clarkson-Williams,Rosebud-Lott,83.91,151.95,104.33,167.83,424.11,Single-ply,SBD,M,
Boys,89.81,4,Quendra Straughter,Hearne,86.55,147.42,90.72,149.69,387.82,Single-ply,SBD,M,
Boys,99.79,1,Tristan Rupe,Rockdale,95.25,199.58,122.47,174.63,496.68,Single-ply,SBD,M,
Boys,99.79,2,Payton Sprouse,Somerville,99.79,185.97,102.06,195.04,483.08,Single-ply,SBD,M,
Boys,99.79,3,Lee Frank,Hearne,92.71,170.1,90.72,179.17,439.98,Single-ply,SBD,M,
Boys,99.79,DQ,Callan Shrode,Jewett Leon,96.16,204.12,117.93,,,Single-ply,SBD,M,
Boys,99.79,DQ,Sonny VanKampen,Jewett Leon,99.06,142.88,,,,Single-ply,SBD,M,
Boys,99.79,DQ,Daniel Rodriguez,Rosebud-Lott,94.98,215.46,131.54,,,Single-ply,SBD,M,
Boys,109.77,1,Garfield England,Cameron Yoe,107.05,240.4,151.95,213.19,605.55,Single-ply,SBD,M,
Boys,109.77,2,Elijah Flores,Rosebud-Lott,109.13,215.46,147.42,181.44,544.31,Single-ply,SBD,M,
Boys,109.77,3,Nolan Kahlig,Rosebud-Lott,106.87,199.58,145.15,192.78,537.51,Single-ply,SBD,M,
Boys,109.77,4,Audreas Gibson,Hearne,108.41,174.63,115.67,188.24,478.54,Single-ply,SBD,M,
Boys,109.77,5,William Davenport,Rockdale,107.86,183.7,124.74,165.56,474,Single-ply,SBD,M,
Boys,109.77,6,Jamariyon Benford,Hearne,106.41,161.03,115.67,161.03,437.72,Single-ply,SBD,M,
Boys,109.77,7,Jaxson Swallow,Jewett Leon,108.68,165.56,83.91,149.69,399.16,Single-ply,SBD,M,
Boys,124.74,1,Miguel Rodriguez,Brenham,113.31,235.87,172.37,192.78,601.01,Single-ply,SBD,M,
Boys,124.74,2,Kade LaSagna,Brenham,121.56,206.38,142.88,197.31,546.58,Single-ply,SBD,M,
Boys,124.74,3,Ryan Luckey,Rockdale,115.21,210.92,129.27,172.37,512.56,Single-ply,SBD,M,
Boys,124.74,4,Canyon Surovik,Somerville,117.12,195.04,95.25,165.56,455.86,Single-ply,SBD,M,
Boys,124.74,5,Mj Rubio,Somerville,113.85,167.83,102.06,158.76,428.64,Single-ply,SBD,M,
Boys,139.71,1,Miles Grear,Rockdale,136.62,219.99,136.08,158.76,514.83,Single-ply,SBD,M,
Boys,139.71+,1,Jashawn Jones,Somerville,142.88,181.44,99.79,165.56,446.79,Single-ply,SBD,M,
