Division,WeightClassKg,Place,Name,Team,BodyweightKg,Best3SquatKg,Best3BenchKg,Best3DeadliftKg,TotalKg,Equipment,Event,Sex,BirthDate
Boys,51.71,1,Isaiah Reyes,Plainview,51.62,149.69,79.38,167.83,396.89,Single-ply,SBD,M,
Boys,51.71,2,Marcus Rose,Abilene Wylie,50.8,124.74,72.57,167.83,365.14,Single-ply,SBD,M,
Boys,51.71,3,Paul Nguyen,Abilene,51.21,145.15,81.65,138.35,365.14,Single-ply,SBD,M,
Boys,51.71,4,Malachi Flores,Plainview,51.62,124.74,74.84,154.22,353.8,Single-ply,SBD,M,
Boys,51.71,5,David Rojas,Odessa,51.71,124.74,68.04,136.08,328.85,Single-ply,SBD,M,
Boys,51.71,6,Sergio Perales,Midland Legacy,49.44,104.33,74.84,145.15,324.32,Single-ply,SBD,M,
Boys,51.71,7,Elias Gonzalez,Lubbock,51.17,115.67,70.31,131.54,317.51,Single-ply,SBD,M,
Boys,51.71,8,Izajah Aguirre,Lubbock,50.35,102.06,61.23,111.13,274.42,Single-ply,SBD,M,
Boys,51.71,9,Liam Hawthorne,Lubbock,51.26,99.79,52.16,122.47,274.42,Single-ply,SBD,M,
Boys,51.71,10,Juan Rocha Flores,Lubbock Cooper,51.62,92.99,52.16,111.13,256.28,Single-ply,SBD,M,
Boys,51.71,11,Kevin Reyes,Abilene Cooper,48.99,72.57,43.09,90.72,206.38,Single-ply,SBD,M,
Boys,51.71,DQ,Mackinski Manicavelu,Lubbock,49.08,99.79,56.7,,,Single-ply,SBD,M,
Boys,55.79,1,John Hernandez,Lubbock Monterey,54.88,151.95,97.52,161.03,410.5,Single-ply,SBD,M,
Boys,55.79,2,Greg Fenalon,Plainview,54.79,138.35,70.31,163.29,371.95,Single-ply,SBD,M,
Boys,55.79,3,Isac Obregon,Lubbock,54.88,117.93,99.79,154.22,371.95,Single-ply,SBD,M,
Boys,55.79,4,Warren Jackson,Abilene,54.07,122.47,74.84,147.42,344.73,Single-ply,SBD,M,
Boys,55.79,5,Vincent Ybarra,Lubbock Monterey,55.34,122.47,61.23,138.35,322.05,Single-ply,SBD,M,
Boys,55.79,6,Santos Torres,Plainview,53.43,102.06,61.23,136.08,299.37,Single-ply,SBD,M,
Boys,55.79,7,Alexandro Sanchez,Lubbock,55.79,106.59,63.5,108.86,278.96,Single-ply,SBD,M,
Boys,55.79,8,Braden Warren,Abilene Cooper,54.43,90.72,49.9,97.52,238.14,Single-ply,SBD,M,
Boys,59.87,1,Seunghak Lee,Lubbock Cooper,59.87,197.31,92.99,201.85,492.15,Single-ply,SBD,M,
Boys,59.87,2,Juan Gomez,Lubbock,59.78,170.1,99.79,199.58,469.47,Single-ply,SBD,M,
Boys,59.87,3,Carlos Alvarado,Odessa,59.87,176.9,95.25,188.24,460.4,Single-ply,SBD,M,
Boys,59.87,4,Ethan Martinez,Wolfforth Frenship,58.97,165.56,108.86,176.9,451.32,Single-ply,SBD,M,
Boys,59.87,5,Alejandro Garcia,Plainview,59.78,170.1,79.38,183.7,433.18,Single-ply,SBD,M,
Boys,59.87,6,Andy Martinez,Odessa,59.42,174.63,95.25,151.95,421.84,Single-ply,SBD,M,
Boys,59.87,7,Aaron Dominguez,Lubbock Cooper,59.78,127.01,92.99,158.76,378.75,Single-ply,SBD,M,
Boys,59.87,8,Ben Reese,Lubbock Monterey,59.87,145.15,70.31,154.22,369.68,Single-ply,SBD,M,
Boys,59.87,DQ,Caston Miller,Odessa Permian,58.97,142.88,,,,Single-ply,SBD,M,
Boys,59.87,DQ,Jaxon Peacock,Abilene Wylie,59.87,208.65,,,,Single-ply,SBD,M,
Boys,59.87,DQ,Austun Gray,Abilene Wylie,59.87,151.95,,,,Single-ply,SBD,M,
Boys,59.87,NS,Keagan Franklin,Midland,,,,,,Single-ply,SBD,M,
Boys,67.13,1,Landry Carlton,Abilene Wylie,67.13,206.38,124.74,195.04,526.17,Single-ply,SBD,M,
Boys,67.13,2,Royce Knight,Midland,65.23,170.1,88.45,199.58,458.13,Single-ply,SBD,M,
Boys,67.13,3,Juan Palomo,Lubbock,66.22,163.29,108.86,185.97,458.13,Single-ply,SBD,M,
Boys,67.13,4,Michael Garza,Wolfforth Frenship,66.22,145.15,102.06,170.1,417.3,Single-ply,SBD,M,
Boys,67.13,5,Toby Blankenship,Odessa,66.68,145.15,79.38,188.24,412.77,Single-ply,SBD,M,
Boys,67.13,6,Hamilton Mitchell,Lubbock Cooper,66.32,147.42,88.45,172.37,408.23,Single-ply,SBD,M,
Boys,67.13,7,Rowdy Hester,Abilene,63.87,142.88,83.91,165.56,392.36,Single-ply,SBD,M,
Boys,67.13,DQ,Caleb Gutierrez,Abilene Cooper,66.86,156.49,,,,Single-ply,SBD,M,
Boys,67.13,DQ,Revin Gavino,Abilene Wylie,66.59,149.69,,,,Single-ply,SBD,M,
Boys,67.13,DQ,Gavin Parrott,Lubbock Cooper,65.86,,,,,Single-ply,SBD,M,
Boys,67.13,DQ,Maximus Foster,Canyon Randall,63.41,,,,,Single-ply,SBD,M,
Boys,67.13,NS,John Willis,Midland Legacy,,,,,,Single-ply,SBD,M,
Boys,74.84,1,Zion Ward,Midland,74.3,244.94,115.67,208.65,569.26,Single-ply,SBD,M,
Boys,74.84,2,Drayton McCoy,Midland,73.39,195.04,129.27,195.04,519.36,Single-ply,SBD,M,
Boys,74.84,3,Tanner Eade,Lubbock,74.3,183.7,124.74,192.78,501.22,Single-ply,SBD,M,
Boys,74.84,4,Nicholas Perez,San Angelo Central,70.76,181.44,104.33,190.51,476.27,Single-ply,SBD,M,
Boys,74.84,5,Silas Templet,Lubbock Monterey,73.84,183.7,108.86,183.7,476.27,Single-ply,SBD,M,
Boys,74.84,6,Damon Carrillo,Abilene Cooper,74.75,176.9,117.93,174.63,469.47,Single-ply,SBD,M,
Boys,74.84,7,Ben Turnbow,Abilene Wylie,74.3,174.63,117.93,174.63,467.2,Single-ply,SBD,M,
Boys,74.84,8,Jaxon Carpenter,Abilene Wylie,74.84,142.88,102.06,183.7,428.64,Single-ply,SBD,M,
Boys,74.84,9,Dakota Davis,Odessa Permian,71.12,183.7,120.2,,303.91,Single-ply,SB,M,
Boys,74.84,DQ,Izik Godino,Plainview,67.95,,,,,Single-ply,SBD,M,
Boys,74.84,DQ,Nimfasha Olivier,Abilene Cooper,72.48,,,,,Single-ply,SBD,M,
Boys,74.84,DQ,Fabio Ramos,Odessa,73.48,176.9,,,,Single-ply,SBD,M,
Boys,82.1,1,Joel Scott,Abilene Wylie,81.56,317.51,165.56,288.03,771.11,Single-ply,SBD,M,
Boys,82.1,2,Sebastian Bejarano,Odessa,80.65,210.92,129.27,224.53,564.72,Single-ply,SBD,M,
Boys,82.1,3,Marcos Del Fierro,Canyon Randall,80.65,197.31,151.95,197.31,546.58,Single-ply,SBD,M,
Boys,82.1,4,Jacob Lewis,Canyon Randall,79.83,204.12,127.01,204.12,535.24,Single-ply,SBD,M,
Boys,82.1,5,Mason Gallarneau,Lubbock Cooper,82.01,204.12,113.4,197.31,514.83,Single-ply,SBD,M,
Boys,82.1,6,Josh Ford,Lubbock,82.01,151.95,127.01,181.44,460.4,Single-ply,SBD,M,
Boys,82.1,7,Zachary Collins,Plainview,79.74,183.7,97.52,174.63,455.86,Single-ply,SBD,M,
Boys,82.1,8,Ruben Portillo,Midland,80.2,167.83,106.59,158.76,433.18,Single-ply,SBD,M,
Boys,82.1,9,Nate Vasquez,Lubbock,80.65,142.88,113.4,158.76,415.04,Single-ply,SBD,M,
Boys,82.1,10,Zach Long,Wolfforth Frenship,81.56,142.88,88.45,161.03,392.36,Single-ply,SBD,M,
Boys,82.1,NS,Ngai Thang,Midland Legacy,,,,,,Single-ply,SBD,M,
Boys,82.1,DQ,Aiden Gonzales,Odessa,81.65,,,,,Single-ply,SBD,M,
Boys,89.81,1,Jonathan Gonzalez,Plainview,83.46,240.4,165.56,226.8,632.76,Single-ply,SBD,M,
Boys,89.81,2,Jaileel Ross,Lubbock Cooper,86.09,217.72,127.01,244.94,589.67,Single-ply,SBD,M,
Boys,89.81,3,Ryan Johnson,Abilene,88.81,235.87,115.67,215.46,566.99,Single-ply,SBD,M,
Boys,89.81,4,James Fogle,Odessa,84.82,210.92,145.15,201.85,557.92,Single-ply,SBD,M,
Boys,89.81,5,Dom Benton,Abilene Wylie,88,204.12,136.08,215.46,555.65,Single-ply,SBD,M,
Boys,89.81,6,Johnathan Vanwinkle,Abilene Cooper,87.36,204.12,122.47,226.8,553.38,Single-ply,SBD,M,
Boys,89.81,7,Andrew Helguera,Odessa Permian,88,197.31,142.88,204.12,544.31,Single-ply,SBD,M,
Boys,89.81,8,Jaquim Rodriguez,Lubbock Cooper,89.36,229.06,111.13,199.58,539.77,Single-ply,SBD,M,
Boys,89.81,9,Omar Ramos,Odessa Permian,87.09,188.24,127.01,204.12,519.36,Single-ply,SBD,M,
Boys,89.81,10,Ethan Morton,Lubbock,86.18,188.24,124.74,197.31,510.29,Single-ply,SBD,M,
Boys,89.81,11,Jesus Montes,Odessa,87.45,190.51,113.4,190.51,494.42,Single-ply,SBD,M,
Boys,89.81,DQ,Zachary Barrientes,Lubbock Cooper,89.36,199.58,97.52,,,Single-ply,SBD,M,
Boys,99.79,1,Jacob Deax,Abilene Cooper,96.62,283.5,170.1,272.16,725.75,Single-ply,SBD,M,
Boys,99.79,2,Val Wylie,Abilene Wylie,98.43,274.42,117.93,213.19,605.55,Single-ply,SBD,M,
Boys,99.79,3,Jaime Davila,Midland,93.35,226.8,142.88,226.8,596.47,Single-ply,SBD,M,
Boys,99.79,4,Aj Servin,Lubbock,99.34,201.85,138.35,210.92,551.11,Single-ply,SBD,M,
Boys,99.79,5,Caleb Russell,San Angelo Central,95.71,210.92,113.4,219.99,544.31,Single-ply,SBD,M,
Boys,99.79,6,Brayden Cortinaz,Wolfforth Frenship,99.79,210.92,97.52,226.8,535.24,Single-ply,SBD,M,
Boys,99.79,7,Nathan Carrillo,Plainview,97.43,219.99,117.93,172.37,510.29,Single-ply,SBD,M,
Boys,99.79,DQ,Kade Kitchens,Abilene Wylie,92.53,,,,,Single-ply,SBD,M,
Boys,99.79,DQ,Caden Green,Abilene Wylie,99.34,167.83,,,,Single-ply,SBD,M,
Boys,99.79,DQ,Westin Rose,Abilene Wylie,98.43,249.48,,,,Single-ply,SBD,M,
Boys,99.79,DQ,Tristen Hall,Abilene,93.98,185.97,106.59,,,Single-ply,SBD,M,
Boys,99.79,NS,Caleb Goeddertz,Abilene Wylie,,,,,,Single-ply,SBD,M,
Boys,109.77,1,Joe Bolanos,Odessa,106.5,274.42,151.95,256.28,682.66,Single-ply,SBD,M,
Boys,109.77,2,Dawson Hall,Canyon Randall,101.06,233.6,154.22,233.6,621.42,Single-ply,SBD,M,
Boys,109.77,3,Juan Torres,Midland Legacy,106.59,226.8,183.7,197.31,607.81,Single-ply,SBD,M,
Boys,109.77,4,Damian Dominguez,Odessa,108.77,238.14,129.27,226.8,594.21,Single-ply,SBD,M,
Boys,109.77,5,Jonathan Dozal,Odessa,106.5,226.8,154.22,208.65,589.67,Single-ply,SBD,M,
Boys,109.77,6,Jonah Mendez,Lubbock Monterey,107.95,226.8,151.95,204.12,582.87,Single-ply,SBD,M,
Boys,109.77,7,Marvin Ramos,Midland,106.5,208.65,145.15,226.8,580.6,Single-ply,SBD,M,
Boys,109.77,8,Jose Guerrero,Odessa,106.05,226.8,136.08,215.46,578.33,Single-ply,SBD,M,
Boys,109.77,9,Alex Mehaffey,Abilene,100.7,229.06,106.59,226.8,562.45,Single-ply,SBD,M,
Boys,109.77,10,Reynaldo Loredo,Wolfforth Frenship,108.86,226.8,115.67,215.46,557.92,Single-ply,SBD,M,
Boys,109.77,11,Jonathan Taylor,Midland Legacy,103.87,210.92,151.95,183.7,546.58,Single-ply,SBD,M,
Boys,109.77,DQ,Christian Reyes,Midland Legacy,103.87,,,,,Single-ply,SBD,M,
Boys,124.74,1,Jaxon Lunsford,Abilene Wylie,122.38,317.51,226.8,265.35,809.66,Single-ply,SBD,M,
Boys,124.74,2,Cayden Clay,Abilene Wylie,120.11,283.5,188.24,240.4,712.14,Single-ply,SBD,M,
Boys,124.74,3,Hayden Becerra,Midland Legacy,114.21,276.69,172.37,199.58,648.64,Single-ply,SBD,M,
Boys,124.74,4,Noel Herrera,Abilene Cooper,119.2,251.74,147.42,233.6,632.76,Single-ply,SBD,M,
Boys,124.74,5,Jacob Vasquez,Midland,122.92,231.33,158.76,226.8,616.89,Single-ply,SBD,M,
Boys,124.74,6,Desmond Hill,Odessa Permian,114.76,249.48,151.95,197.31,598.74,Single-ply,SBD,M,
Boys,124.74,7,Lucas Barrientes,Midland Legacy,113.31,240.4,136.08,204.12,580.6,Single-ply,SBD,M,
Boys,124.74,8,Damareon Gray,Odessa,113.76,201.85,142.88,231.33,576.06,Single-ply,SBD,M,
Boys,124.74,9,Derek Mata,Plainview,,215.46,133.81,208.65,557.92,Single-ply,SBD,M,
Boys,124.74,10,Joshua Ortiz,Wolfforth Frenship,121.11,204.12,108.86,206.38,519.36,Single-ply,SBD,M,
Boys,124.74,NS,Girevis Bobey,Midland Legacy,,,,,,Single-ply,SBD,M,
Boys,124.74,DQ,Zemere Perez,Plainview,124.74,190.51,138.35,,,Single-ply,SBD,M,
Boys,124.74,DQ,John Peralez,Lubbock Cooper,124.65,208.65,174.63,,,Single-ply,SBD,M,
Boys,139.71,1,Xzavier Collins,Abilene Wylie,137.44,358.34,219.99,328.85,907.18,Single-ply,SBD,M,
Boys,139.71,2,Karson Jones,Wolfforth Frenship,135.08,244.94,176.9,265.35,687.19,Single-ply,SBD,M,
Boys,139.71,3,Gerardo Vazquez,Odessa,131.09,272.16,151.95,213.19,637.3,Single-ply,SBD,M,
Boys,139.71,4,Blaize Whitaker,Wolfforth Frenship,132,208.65,149.69,244.94,603.28,Single-ply,SBD,M,
Boys,139.71,5,Joshua Rangel,Wolfforth Frenship,132,215.46,133.81,238.14,587.4,Single-ply,SBD,M,
Boys,139.71,6,Goni Gjocaj,Abilene Wylie,133.81,219.99,165.56,192.78,578.33,Single-ply,SBD,M,
Boys,139.71,7,Chris Lea,Wolfforth Frenship,129.73,213.19,122.47,199.58,535.24,Single-ply,SBD,M,
Boys,139.71,8,Miguel Hernandez,Abilene,137.35,201.85,117.93,185.97,505.76,Single-ply,SBD,M,
Boys,139.71,DQ,Brayden Flores,Abilene Cooper,138.35,,,,,Single-ply,SBD,M,
Boys,139.71,NS,Jaycob Parker,Abilene,,,,,,Single-ply,SBD,M,
Boys,139.71,NS,Justice McGuinness,Abilene Wylie,,,,,,Single-ply,SBD,M,
Boys,139.71+,1,John Martinez-Guedry,Midland,150.96,303.91,213.19,269.89,786.98,Single-ply,SBD,M,
Boys,139.71+,2,Emilio Dominguez,Odessa,142.75,328.85,195.04,249.48,773.37,Single-ply,SBD,M,
Boys,139.71+,3,Jovani Olivares,Lubbock,152.77,256.28,165.56,217.72,639.57,Single-ply,SBD,M,
Boys,139.71+,4,Braxton Scott,Abilene,147.33,208.65,136.08,181.44,526.17,Single-ply,SBD,M,
Boys,139.71+,5,Gabe Pilger,Wolfforth Frenship,157.31,204.12,127.01,165.56,496.68,Single-ply,SBD,M,
Boys,139.71+,6,Hoss Lozano,Abilene,169.64,197.31,113.4,174.63,485.34,Single-ply,SBD,M,
Boys,139.71+,DQ,Brayan Olvera,Lubbock Monterey,157.85,294.84,,,,Single-ply,SBD,M,
