Place,Name,Division,Sex,Team,BirthDate,BodyweightKg,Deadlift1Kg,Deadlift2Kg,Deadlift3Kg,Best3DeadliftKg,TotalKg,Equipment,WeightClassKg,Event
1,Carolina Haag,Youth A,F,TG Landshut / Sparte KDK,1998-02-21,53.45,70,80,85,85,85,Raw,57,D
1,Petra Tschirsky,Masters 1,F,KSV Höllhöhe,1972-11-19,56.8,120,130,137.5,137.5,137.5,Raw,57,D
1,Eva Kastl,Youth A,F,TG Landshut / Sparte KDK,1997-05-27,59,70,80,-85,80,80,Raw,63,D
1,Marlies Winkel,Masters 2,F,TV Röhlinghausen,1957-11-20,60.35,130,138,-140,138,138,Raw,63,D
1,Sonja Stefanie Krüger,Youth B,F,Fitness-Club Rhein-Main Rüsselsh,1999-12-04,60.8,135.5,143,-150,143,143,Raw,63,D
1,Annette Reif,Masters 1,F,SC Oberölsbach,1974-05-08,73.15,100,-112.5,117.5,117.5,117.5,Raw,84,D
1,Nadia Otter,Open,F,TSV 1892 Heiligenrode e.V.,1983-05-01,83.65,205,215,-220.5,215,215,Raw,84,D
1,Sabine Kraut,Masters 2,F,Kölner Athleten- Club 1882,1960-03-04,85.15,140,152.5,,152.5,152.5,Raw,84+,D
2,Bettina Lampertsdörfer,Masters 2,F,AC-92 Weinheim,1959-06-11,87.65,90,95,100,100,100,Raw,84+,D
1,Martina Segerer,Open,F,SC-Wald e.V.,1980-07-29,106.35,175,182.5,-185,182.5,182.5,Raw,84+,D
1,Dominik Wegener,Youth B,M,KKSV Sonneberg e.V.,2000-03-11,45.65,90,95,102.5,102.5,102.5,Raw,53,D
2,Garry Beuthner,Youth B,M,SV Rotation Langenbach,1999-05-31,52.3,85,95,-102.5,95,95,Raw,53,D
1,Daniel Hupfauer,Youth B,M,TSV Burgau,1999-10-06,57.5,110,130,-140,130,130,Raw,59,D
1,Sebastian Czekanski,Open,M,SC-Wald e.V.,1986-08-14,59.85,132.5,142.5,-157.5,142.5,142.5,Raw,66,D
1,Sebastian Wegener,Youth B,M,KKSV Sonneberg e.V.,2001-03-29,61.35,90,100,115,115,115,Raw,66,D
1,Lennard Kaster,Juniors,M,KSV Essen 1888 e.V.,1995-08-25,62.8,165,185,-201,185,185,Raw,66,D
3,Oliver Gohl,Juniors,M,KSV Höllhöhe,1993-07-09,65.5,140,150,160,160,160,Raw,66,D
2,Steffen Kulhawy,Masters 2,M,FSV von 1861 Sarstedt e.V.,1963-11-09,65.9,170,182.5,-190,182.5,182.5,Raw,66,D
2,Max Schneider,Youth A,M,SV Rotation Langenbach,1998-11-27,66,90,105,112.5,112.5,112.5,Raw,66,D
4,Fabio Zahn,Youth A,M,SV Rotation Langenbach,1998-11-10,71.4,135,145,152.5,152.5,152.5,Raw,74,D
2,Patrick Popp,Youth A,M,AC 1888 Marburg e.V.,1997-12-21,72.4,165,177.5,185,185,185,Raw,74,D
3,Myrco Griesch,Open,M,Iron Athletik SportclubErfurt e.V.,1980-08-14,72.45,200,205,210,210,210,Raw,74,D
1,Aaron Langer,Youth B,M,SV Rotation Langenbach,2000-06-17,74.15,130,140,-150,140,140,Raw,83,D
2,Stefan Pagelsen,Juniors,M,TG Landshut / Sparte KDK,1992-07-18,79.95,245,255,-262.5,255,255,Raw,83,D
1,Rainer Schötz,Masters 4,M,SC Oberölsbach,1943-03-30,82.7,165,180,190,190,190,Raw,83,D
4,Mattia Giardini,Open,M,ASV 1897 Neu-Ulm,1984-05-21,85.6,185,205,-210,205,205,Raw,93,D
2,Justin Floß,Youth A,M,SV Rotation Langenbach,1998-12-09,87.7,155,165,170,170,170,Raw,93,D
4,Christian Flueras,Juniors,M,Sanssouci Gym e.V. Potsdam,1996-03-16,91.25,240,-252.5,-252.5,240,240,Raw,93,D
1,Kazimierz Michael Forys,Masters 4,M,KSV 1959 Langen e.V.,1945-08-03,91.75,210,-230,-230,210,210,Raw,93,D
2,Kai Eckert,Juniors,M,A.C.E. 1974 Gießen e.V.,1995-12-30,91.85,-242.5,242.5,252.5,252.5,252.5,Raw,93,D
6,Patrick Burger,Juniors,M,STC Bavaria 20 Landshut e.V.,1996-02-22,93.65,235,245,255,255,255,Raw,105,D
5,Carsten Hauschild,Masters 2,M,Kraftsportverein Weissensee e.V.,1960-04-24,95.9,130,140,150,150,150,Raw,105,D
3,Tobias Tolksdorf,Juniors,M,KSV Essen 1888 e.V.,1993-09-22,98.1,250,262.5,270,270,270,Raw,105,D
7,Markus Stolorz,Juniors,M,ASV Griesheim,1992-05-02,102.05,230,-250,,230,230,Raw,105,D
1,Siegmund Schiebe,Masters 3,M,Schwimmverein 05 Würzburg,1953-08-02,103.95,240,250,-263,250,250,Raw,105,D
4,Eduard Kehr,Open,M,KSV Renchtal e.V.,1991-11-06,104.25,222.5,242.5,252.5,252.5,252.5,Raw,105,D
3,Peter Herteux,Masters 1,M,KSV 1959 Langen e.V.,1968-04-21,104.75,190,200,205,205,205,Raw,105,D
6,Ralf Hüstermann,Open,M,TV Papenburg,1988-04-15,112.2,220,235,-242.5,235,235,Raw,120,D
1,Jürgen Kümmel,Masters 2,M,ASV Griesheim,1962-05-13,117.85,245,255,260,260,260,Raw,120,D
4,Uwe Dörfert,Masters 2,M,Powerlifting Duisburg,1959-09-07,118.3,180,200,-207.5,200,200,Raw,120,D
2,Roman Reinbold,Masters 1,M,TSV Katzwang,1972-02-19,119.6,260,275,282.5,282.5,282.5,Raw,120,D
1,Harald Paul,Masters 3,M,FSV Blau-Weiß Bergen e.V.,1954-10-15,124.05,190,205,215,215,215,Raw,120+,D
1,Erik Lorenz,Youth B,M,Gothaer Bierfassheberverein e.V.,2000-08-06,124.85,165,175,182.5,182.5,182.5,Raw,120+,D
1,Ana Geitner,Open,F,USV TU-Dresden,1967-03-07,42,140,147.5,-150,147.5,147.5,Single-ply,47,D
1,Sindi Viragos,Open,F,AC Siegen e.V.,1978-07-01,52,122.5,127.5,132.5,132.5,132.5,Single-ply,52,D
2,Rima Hassan,Youth B,F,Powerlifting Lauchhammer e.V.,2001-04-01,54.7,57.5,65,72.5,72.5,72.5,Single-ply,57,D
1,Celine Hein,Youth B,F,Kraftsportverein Weissensee e.V.,2000-03-08,55.8,100,110,,110,110,Single-ply,57,D
1,Susann Cichon,Open,F,KSV Renchtal e.V.,1987-05-22,56.4,155,162.5,-167.5,162.5,162.5,Single-ply,57,D
1,Pia Kring,Masters 2,F,AC Power Elite Haiger e.V.,1957-09-05,56.4,130,137.5,142.5,142.5,142.5,Single-ply,57,D
2,Beate Normann-Escher,Masters 2,F,Polizeisportverein Sonneberg e.V.,1960-03-17,58.4,80,90,100,100,100,Single-ply,63,D
1,Simone Brandt,Masters 1,F,SV Rotation Langenbach,1971-03-18,60.26,140,150,160,160,160,Single-ply,63,D
1,Anita Thimm,Masters 3,F,KSV 1959 Langen e.V.,1950-01-11,60.8,110,120,130,130,130,Single-ply,63,D
2,Celina-Marie Salbeck,Youth B,F,SC-Wald e.V.,2000-05-01,61.75,80,92.5,-100,92.5,92.5,Single-ply,63,D
1,Anne-Jasmin Scholz,Juniors,F,Powerlifting Lauchhammer e.V.,1996-05-25,62.3,140,150,160,160,160,Single-ply,63,D
1,Bettina Heinzen,Open,F,Kraftsportverein Bochum 1898 e.V.,1976-02-04,62.8,150,162.5,170,170,170,Single-ply,63,D
2,Celine Alperstedt,Youth B,F,Kraftsportverein Weissensee e.V.,2000-07-10,63.4,90,-100,-100,90,90,Single-ply,72,D
5,Karina Müller,Open,F,STC Bavaria 20 Landshut e.V.,1983-10-05,64.05,70,85,95,95,95,Single-ply,72,D
3,Andrea Pauli,Open,F,KSC Frauenau,1980-01-01,66.6,135,145,152.5,152.5,152.5,Single-ply,72,D
1,Marie Hauschild,Juniors,F,Kraftsportverein Weissensee e.V.,1995-06-13,66.75,110,120,125,125,125,Single-ply,72,D
2,Elke Schreiber,Open,F,KBV Bautzen e.V.,1984-08-15,67.35,155,165,175,175,175,Single-ply,72,D
6,Juliane Normann,Open,F,Polizeisportverein Sonneberg e.V.,1985-02-17,67.55,75,85,-97.5,85,85,Single-ply,72,D
1,Silvia Stütz,Open,F,KSV 1959 Langen e.V.,1978-01-13,67.8,175,192.5,200,200,200,Single-ply,72,D
1,Andrea Lange,Masters 2,F,TV Röhlinghausen,1965-04-06,68.95,160,170,172.5,172.5,172.5,Single-ply,72,D
1,Sandra Augustiniok,Youth B,F,TG Landshut / Sparte KDK,1999-01-29,69.55,110,125,133,133,133,Single-ply,72,D
4,Katja Broxtermann,Open,F,Sanssouci Gym e.V. Potsdam,1986-02-03,70.65,145,152.5,-155,152.5,152.5,Single-ply,72,D
1,Susanne Küttler,Masters 1,F,Kölner Athleten- Club 1882,1966-12-03,71.3,170,180,-185,180,180,Single-ply,72,D
2,Anke Köster,Masters 1,F,Athletenschmiede Heros-Kassel e.,1968-12-27,71.85,125,135,145,145,145,Single-ply,72,D
1,Susanne Steidle,Masters 2,F,Schwimmverein 05 Würzburg,1964-05-30,79.3,152.5,162.5,170,170,170,Single-ply,84,D
2,Veronika Kondraschow,Open,F,KSC Puch e.V.,1989-08-20,79.5,145,160,-167.5,160,160,Single-ply,84,D
1,Jessica Markus,Youth B,F,Powerlifting Lauchhammer e.V.,2000-09-15,80.35,92.5,-102.5,102.5,102.5,102.5,Single-ply,84,D
2,Stefanie Laich,Masters 1,F,Corpus Fitness Weightplayers 199,1975-12-02,81.05,110,115,-117.5,115,115,Single-ply,84,D
1,Amely Mendyka,Youth B,F,Kraftsportverein Weissensee e.V.,2000-05-15,85.4,95,102.5,110,110,110,Single-ply,84+,D
2,Anja Wanninger,Open,F,SC-Wald e.V.,1986-05-23,86.1,145,157.5,-182.5,157.5,157.5,Single-ply,84+,D
1,Jörg Gottschalk,Masters 1,M,KSV Höllhöhe,1974-01-27,55.45,130,150,-160,150,150,Single-ply,59,D
1,Ludwig Werner,Masters 4,M,AC Germania 1900 Aschaffenburg-,1938-03-18,58.5,130,140,-150,140,140,Single-ply,59,D
2,Maximilian Geitner,Juniors,M,SC Oberölsbach,1995-11-26,63.65,150,165,170,170,170,Single-ply,66,D
1,Kevin Litwitz,Youth A,M,SC Oberölsbach,1997-06-06,63.85,140,155,165,165,165,Single-ply,66,D
1,Alexander Diepold,Masters 4,M,KSC Puch e.V.,1937-10-07,63.95,140,145,152.5,152.5,152.5,Single-ply,66,D
1,Michael Wimmer,Masters 2,M,TG Landshut / Sparte KDK,1961-11-29,64.1,170,180,187.5,187.5,187.5,Single-ply,66,D
1,Werner Wagner,Masters 3,M,ASV 04 Grötzingen e.V.,1949-04-15,65.65,120,130,140,140,140,Single-ply,66,D
2,Ali Alkan,Masters 3,M,AC-92 Weinheim,1950-03-15,65.8,70,80,90,90,90,Single-ply,66,D
2,Heinz Kovarna,Masters 4,M,Postsportverein Blau Gelb Fulda,1944-02-04,65.95,125,140,147.5,147.5,147.5,Single-ply,66,D
3,Alex Osipenko,Juniors,M,KSV Renchtal e.V.,1993-12-16,67.7,-175,175,200,200,200,Single-ply,74,D
1,Eric Helbig,Youth A,M,Powerlifting Lauchhammer e.V.,1997-04-14,70.2,170,180,185,185,185,Single-ply,74,D
3,Tim Telscher,Youth A,M,SV Quitt Ankum,1998-08-17,70.95,150,-165,165,165,165,Single-ply,74,D
4,Georgios Efthymiou,Open,M,KFV Döbeln e.V.,1977-08-03,72.3,190,200,-210,200,200,Single-ply,74,D
1,Horst Echtner,Masters 3,M,SSV Bad Brambach e. V.,1952-02-05,72.55,190,200,-210,200,200,Single-ply,74,D
2,Armin Seynstahl,Open,M,TSV Katzwang,1991-10-20,73.05,220,230,-235,230,230,Single-ply,74,D
2,Robert Busch,Juniors,M,KSV Höllhöhe,1996-08-30,73.15,200,215,225,225,225,Single-ply,74,D
1,Michel Ehrlicher,Open,M,Polizeisportverein Sonneberg e.V.,1985-01-08,73.2,212.5,232.5,-245,232.5,232.5,Single-ply,74,D
2,Egon Escher,Masters 3,M,Polizeisportverein Sonneberg e.V.,1954-05-21,73.45,130,140,150,150,150,Single-ply,74,D
1,Marius Milla,Juniors,M,KSV 1959 Langen e.V.,1993-06-16,73.6,270,-285.5,-285.5,270,270,Single-ply,74,D
1,Thomas Möller,Masters 2,M,Corpus Fitness Weightplayers 199,1957-12-19,73.9,220,227.5,-232.5,227.5,227.5,Single-ply,74,D
1,Sunday Ehogharukomwen,Masters 2,M,KSC Attila Dachau,1965-03-15,78.55,250,260,272.5,272.5,272.5,Single-ply,83,D
3,Ekkehard Enslin,Masters 2,M,Corpus Fitness Weightplayers 199,1956-03-07,79.15,215,-225,-225,215,215,Single-ply,83,D
2,Hendrik Kühne,Masters 3,M,KFV Döbeln e.V.,1955-10-27,80.1,190,-200,-200,190,190,Single-ply,83,D
3,Thomas Markewitz,Masters 1,M,SSV Bad Brambach e. V.,1973-11-06,80.15,200,210,215,215,215,Single-ply,83,D
1,Hans-Joachim Hook,Masters 3,M,AC 1888 Marburg e.V.,1954-05-10,80.3,207.5,215,-220,215,215,Single-ply,83,D
2,Ergjan Pushkolli,Youth A,M,SV Quitt Ankum,1998-06-06,80.4,195,215,-230,215,215,Single-ply,83,D
2,Markus Rücker,Masters 1,M,Kraft & Fitness Eilenburg,1973-11-01,81.25,215,225,-237.5,225,225,Single-ply,83,D
4,Friedrich Mandl,Juniors,M,Hantelsport-Club Pfatter e.V.,1993-04-01,81.5,190,205,-210,205,205,Single-ply,83,D
2,Robert Robeis,Masters 2,M,Ac-Amberg e.V.,1958-05-13,81.5,-235,250,-270,250,250,Single-ply,83,D
2,Andreas Schmid,Open,M,ASV 1897 Neu-Ulm,1991-04-06,81.95,240,252.5,257.5,257.5,257.5,Single-ply,83,D
1,Yannick Fuchs,Youth A,M,SC-Wald e.V.,1997-08-26,82.4,210,222.5,232.5,232.5,232.5,Single-ply,83,D
1,Manuel Körner,Open,M,KSV Höllhöhe,1983-10-13,82.4,-260,260,-270,260,260,Single-ply,83,D
4,Thomas Lehmeier,Open,M,SC Oberölsbach,1991-01-20,82.45,220,242.5,255,255,255,Single-ply,83,D
3,Andreas Staude,Open,M,STC Bavaria 20 Landshut e.V.,1979-04-07,82.65,-250,250,257.5,257.5,257.5,Single-ply,83,D
1,Julian Schnurr,Juniors,M,KSV Renchtal e.V.,1994-01-21,82.7,275,-287.5,,275,275,Single-ply,83,D
1,János Geerhardt,Masters 1,M,SG Randersacker,1967-08-15,82.8,225,237.5,245,245,245,Single-ply,83,D
3,Patrick Strangis,Juniors,M,Corpus Fitness Weightplayers 199,1993-10-19,83,200,210,-212.5,210,210,Single-ply,83,D
1,Jonas Bausewein,Youth A,M,SG Randersacker,1997-12-20,83.7,185,195,-200,195,195,Single-ply,93,D
3,Andreas Petrenz,Masters 2,M,AC Heros Berlin,1956-07-19,84.75,200,210,-220,210,210,Single-ply,93,D
2,Johann Goldstein,Masters 2,M,Athletik Club Olympia Schrobenhau,1957-12-07,86.1,230,240,-252.5,240,240,Single-ply,93,D
2,Josef Weiß,Masters 3,M,KSC Frauenau,1954-06-09,87.5,185,200,-220,200,200,Single-ply,93,D
2,Heinz Zahn,Masters 4,M,Ac-Amberg e.V.,1945-09-14,89.1,-145,145,-155,145,145,Single-ply,93,D
1,Viktor Prokopov,Juniors,M,STC Bavaria 20 Landshut e.V.,1994-07-13,89.15,262.5,275,-280,275,275,Single-ply,93,D
3,Elias Dobrowolski,Open,M,SV Quitt Ankum,1988-06-07,89.25,225,245,-255,245,245,Single-ply,93,D
3,Franz Graaf,Juniors,M,Ac-Amberg e.V.,1996-01-18,90.6,250,-260,-260,250,250,Single-ply,93,D
5,Sebastian Heger,Juniors,M,SC Oberölsbach,1992-07-04,91.2,200,222.5,230,230,230,Single-ply,93,D
3,Alfons Räß,Masters 1,M,Hantelsport-Club Pfatter e.V.,1970-09-25,91.35,220,232.5,-235,232.5,232.5,Single-ply,93,D
1,Lutz Schuricht,Masters 3,M,VfV 1898 Cremlingen,1951-09-01,91.4,200,210,220,220,220,Single-ply,93,D
1,Sascha Stendebach,Open,M,KSV Mainz 08,1991-06-11,91.55,325,337.5,-348,337.5,337.5,Single-ply,93,D
1,Jochen Stöver,Masters 2,M,SV 14/19 Westerholt e.V.,1965-05-26,91.55,240,250,,250,250,Single-ply,93,D
2,Guido Nieland,Masters 1,M,AC-92 Weinheim,1970-09-25,92.1,-215,222.5,235,235,235,Single-ply,93,D
1,Mario Schnurr,Masters 1,M,KSV Renchtal e.V.,1966-07-28,92.35,265,282.5,292.5,292.5,292.5,Single-ply,93,D
2,Thomas Starklauf,Open,M,AC Bavaria Forchheim e. V.,1989-12-19,92.65,275,-300,-300,275,275,Single-ply,93,D
4,Andreas Schmitt,Masters 2,M,AC-92 Weinheim,1965-07-07,93,175,187.5,-200,187.5,187.5,Single-ply,93,D
8,Philipp Piecha,Juniors,M,Corpus Fitness Weightplayers 199,1992-05-24,93.15,210,220,-230,220,220,Single-ply,105,D
4,Josef Seitz,Masters 2,M,SC Oberölsbach,1956-01-17,93.65,170,180,190,190,190,Single-ply,105,D
1,Giancarlo Mavrici,Juniors,M,Kraftsportverein Bochum 1898 e.V.,1992-09-17,94.25,-307.5,307.5,-315,307.5,307.5,Single-ply,105,D
5,Tobias Merten,Open,M,Athletenschmiede Heros-Kassel e.,1991-11-12,94.25,250,-265,-265,250,250,Single-ply,105,D
9,Marco Frey,Juniors,M,STC Bavaria 20 Landshut e.V.,1995-08-31,94.6,212.5,-235,-240,212.5,212.5,Single-ply,105,D
2,Ulrich Urban,Masters 4,M,SC Lüchow v.1861 e.V:,1937-09-04,95.15,115,125,130,130,130,Single-ply,105,D
7,Christian Langner,Open,M,AC Siegen e.V.,1991-04-29,95.45,220,-240,240,240,240,Single-ply,105,D
1,Mykola Grapp,Open,M,SV Quitt Ankum,1982-12-06,97.1,320,-330,-330,320,320,Single-ply,105,D
3,Pascal Fleissner,Open,M,AC Siegen e.V.,1988-01-07,98.15,265,-285,-285,265,265,Single-ply,105,D
1,Lothar Krause,Masters 4,M,Ohrdrufer Sportverein e.V.,1943-08-04,98.45,150,-160,-160,150,150,Single-ply,105,D
3,Valeri Karpov,Masters 3,M,SV Quitt Ankum,1955-12-04,98.6,170,200,-205,200,200,Single-ply,105,D
3,Klaus Uschold,Masters 2,M,KSV Höllhöhe,1963-10-14,99.35,210,-225,-225,210,210,Single-ply,105,D
4,Daniel Mezger,Juniors,M,ASV Griesheim,1992-04-01,100.8,270,-285,-285,270,270,Single-ply,105,D
2,Harald Nutsch,Masters 2,M,SC Oberölsbach,1959-02-24,101.05,210,220,-227.5,220,220,Single-ply,105,D
6,Tamas Turiczki,Open,M,Corpus Fitness Weightplayers 199,1984-11-30,101.45,240,250,-255,250,250,Single-ply,105,D
DQ,Martin Verhoff,Masters 2,M,Kraftsportverein Bochum 1898 e.V.,1963-10-17,101.7,-210,-220,,,,Single-ply,105,D
2,Josef Grießl,Masters 1,M,STC Bavaria 20 Landshut e.V.,1967-12-17,103.75,250,-262.5,-262.5,250,250,Single-ply,105,D
5,Dennis Sauter,Juniors,M,Corpus Fitness Weightplayers 199,1994-09-14,103.85,250,260,-265,260,260,Single-ply,105,D
1,Thomas Krämer,Masters 1,M,AC-92 Weinheim,1970-05-25,104.2,245,262.5,-270,262.5,262.5,Single-ply,105,D
2,Dominik Laumer,Juniors,M,KSV Höllhöhe,1992-06-11,104.25,250,270,285,285,285,Single-ply,105,D
2,Thomas Leffers,Open,M,TV Papenburg,1977-11-10,104.25,275,-290,-290,275,275,Single-ply,105,D
1,Martin Thusbaß,Masters 2,M,KSV Höllhöhe,1963-11-24,104.3,250,265,270,270,270,Single-ply,105,D
2,Xaver Kennerknecht,Masters 3,M,TV Kempten 1856 e.V.,1946-11-19,104.55,185,195,207.5,207.5,207.5,Single-ply,105,D
1,Alfons Mietz,Masters 3,M,KSC Frauenau,1947-11-04,106.75,200,210,220,220,220,Single-ply,120,D
4,Timm Klingelhöfer,Open,M,AC Siegen e.V.,1990-10-04,107.1,225,240,-250,240,240,Single-ply,120,D
5,Sven Lorenz,Open,M,STC Bavaria 20 Landshut e.V.,1979-05-07,107.3,240,-260,-265,240,240,Single-ply,120,D
2,Alexander Geitner,Open,M,USV TU-Dresden,1978-01-02,108.4,290,310,320,320,320,Single-ply,120,D
3,Hendrik Pflug,Masters 1,M,AC Heros Berlin,1971-09-14,111.95,250,-270,-270,250,250,Single-ply,120,D
3,Armin Ehinger,Masters 2,M,Corpus Fitness Weightplayers 199,1957-08-26,112.8,210,220,-225,220,220,Single-ply,120,D
3,Ronnie Klug,Open,M,AC Siegen e.V.,1990-09-27,113.65,255,265,-275,265,265,Single-ply,120,D
1,Dr. Marcus Heinzen,Masters 1,M,Kraftsportverein Bochum 1898 e.V.,1969-06-03,114.7,285,295,302.5,302.5,302.5,Single-ply,120,D
1,Malte Fleissner,Open,M,AC Siegen e.V.,1989-12-18,115.05,325,340,-350,340,340,Single-ply,120,D
1,Dominik Pahl,Juniors,M,TV Papenburg,1992-04-20,116.3,290,310,320.5,320.5,320.5,Single-ply,120,D
2,Jürgen Titz,Masters 2,M,AC Power Elite Haiger e.V.,1965-05-23,117.25,220,235,255,255,255,Single-ply,120,D
1,Mateusz Volk,Juniors,M,SV Fellbach,1992-09-24,120.35,285,302.5,-312.5,302.5,302.5,Single-ply,120+,D
2,Karl-Heinz May,Masters 3,M,Polizeisportverein Sonneberg e.V.,1953-05-17,126.15,180,,,180,180,Single-ply,120+,D
4,Florian Bittorf,Open,M,KSV Zillbach,1985-10-03,132.95,260,-272.5,-275,260,260,Single-ply,120+,D
3,Volker Schwertz,Masters 3,M,SC Lüchow v.1861 e.V:,1947-01-17,141.2,135,-150,150,150,150,Single-ply,120+,D
2,Jewgenij Kondraschow,Open,M,KSC Puch e.V.,1983-02-23,141.3,275,305,-352.5,305,305,Single-ply,120+,D
1,Tobias Zinserling,Open,M,Gothaer Bierfassheberverein e.V.,1978-02-08,142.95,315,335,-363.5,335,335,Single-ply,120+,D
3,Marcus Hofmeister,Open,M,SG Randersacker,1976-07-19,160.8,240,270,-277.5,270,270,Single-ply,120+,D
