Division,WeightClassKg,Place,Name,Team,BodyweightKg,Best3SquatKg,Best3BenchKg,Best3DeadliftKg,TotalKg,Equipment,Event,Sex,BirthDate
Boys,51.71,1,Juan Gonzales,Gladewater Sabine,50.08,131.54,72.57,122.47,326.59,Single-ply,SBD,M,
Boys,51.71,2,Eric White,Lindale,47.26,72.57,43.09,86.18,201.85,Single-ply,SBD,M,
Boys,51.71,3,Kolby Lynn,Rusk,48.08,52.16,29.48,68.04,149.69,Single-ply,SBD,M,
Boys,51.71,4,Arthur Arita,Tyler Chapel Hill,44.36,52.16,31.75,58.97,142.88,Single-ply,SBD,M,
Boys,55.79,1,Caleb Cox,Gladewater Sabine,55.7,170.1,97.52,151.95,419.57,Single-ply,SBD,M,
Boys,55.79,2,Rhett Hutchins,Whitehouse,55.07,170.1,92.99,154.22,417.3,Single-ply,SBD,M,
Boys,59.87,1,Caden Phillips,Gladewater Sabine,58.06,158.76,115.67,165.56,439.98,Single-ply,SBD,M,
Boys,59.87,2,Joe Ray,Gladewater Sabine,58.79,156.49,88.45,158.76,403.7,Single-ply,SBD,M,
Boys,59.87,3,Curtis Griffith,Canton,58.6,138.35,77.11,142.88,358.34,Single-ply,SBD,M,
Boys,59.87,4,Trent Byers,Rusk,59.33,113.4,61.23,122.47,297.1,Single-ply,SBD,M,
Boys,59.87,5,Tanner Brooks,Rusk,59.69,92.99,52.16,124.74,269.89,Single-ply,SBD,M,
Boys,67.13,1,Kile Stripland,Gladewater Sabine,66.86,204.12,136.08,197.31,537.51,Single-ply,SBD,M,
Boys,67.13,2,Daniel Cabrera,Tyler Chapel Hill,66.77,199.58,127.01,199.58,526.17,Single-ply,SBD,M,
Boys,67.13,3,Jalin Hines,Lindale,65.59,170.1,88.45,174.63,433.18,Single-ply,SBD,M,
Boys,67.13,4,Alan Rojo,Rusk,66.13,167.83,92.99,172.37,433.18,Single-ply,SBD,M,
Boys,67.13,5,Demarian Sanders,Tyler Chapel Hill,63.5,129.27,102.06,190.51,421.84,Single-ply,SBD,M,
Boys,67.13,6,Hayden Dyess,Rusk,66.22,161.03,88.45,170.1,419.57,Single-ply,SBD,M,
Boys,67.13,7,Dylan McGregor,Whitehouse,62.69,136.08,90.72,149.69,376.48,Single-ply,SBD,M,
Boys,67.13,8,Keegan Angell,Canton,64.23,140.61,74.84,142.88,358.34,Single-ply,SBD,M,
Boys,67.13,9,Brock Meeks,Canton,66.86,140.61,74.84,136.08,351.53,Single-ply,SBD,M,
Boys,67.13,10,Cameron Griffith,Canton,63.23,140.61,68.04,140.61,349.27,Single-ply,SBD,M,
Boys,74.84,1,Zane Smith,Gladewater Sabine,73.3,210.92,161.03,226.8,598.74,Single-ply,SBD,M,
Boys,74.84,2,Thomas Fuller,Arp,74.84,199.58,136.08,226.8,562.45,Single-ply,SBD,M,
Boys,74.84,3,Matt Morgan,Gladewater Sabine,73.57,188.24,124.74,192.78,505.76,Single-ply,SBD,M,
Boys,74.84,4,Jaborian Cook,Tyler Chapel Hill,69.4,185.97,115.67,181.44,483.08,Single-ply,SBD,M,
Boys,74.84,5,Miles Miller,Lindale,72.76,165.56,115.67,158.76,439.98,Single-ply,SBD,M,
Boys,74.84,6,Abraham Rosales,Rusk,73.57,170.1,104.33,161.03,435.45,Single-ply,SBD,M,
Boys,74.84,7,Mason Trowbridge,Rusk,74.57,151.95,90.72,179.17,421.84,Single-ply,SBD,M,
Boys,74.84,8,Kyle Duffy,Arp,69.04,151.95,97.52,161.03,410.5,Single-ply,SBD,M,
Boys,74.84,9,Wyatt Hurst,Arp,68.49,147.42,88.45,156.49,392.36,Single-ply,SBD,M,
Boys,74.84,10,Noah Sahagun,Van,71.76,131.54,72.57,127.01,331.12,Single-ply,SBD,M,
Boys,74.84,11,Jaydon Spradlin,Arp,71.49,181.44,115.67,,297.1,Single-ply,SB,M,
Boys,74.84,12,Trenton Mitchell,Whitehouse,69.58,106.59,70.31,113.4,290.3,Single-ply,SBD,M,
Boys,74.84,13,Shawn Sawyer,Arp,68.49,142.88,88.45,,231.33,Single-ply,SB,M,
Boys,74.84,DQ,Clyde Bumgardner,Fruitvale,69.94,,,,,Single-ply,SBD,M,
Boys,82.1,1,Riley Roys,Gladewater Sabine,82.1,219.99,136.08,208.65,564.72,Single-ply,SBD,M,
Boys,82.1,2,Landon Moses,Gladewater Sabine,81.28,201.85,149.69,197.31,548.85,Single-ply,SBD,M,
Boys,82.1,3,Nik Moody,Tyler Chapel Hill,78.11,192.78,120.2,226.8,539.77,Single-ply,SBD,M,
Boys,82.1,4,Raul Lechuga,Whitehouse,80.74,197.31,106.59,183.7,487.61,Single-ply,SBD,M,
Boys,82.1,5,Reed Thornburgh,Gladewater Sabine,81.92,188.24,113.4,185.97,487.61,Single-ply,SBD,M,
Boys,82.1,6,Antonio Ponce,Arp,78.11,179.17,115.67,170.1,464.93,Single-ply,SBD,M,
Boys,82.1,7,Caden Sorrells,Whitehouse,80.01,165.56,106.59,176.9,449.06,Single-ply,SBD,M,
Boys,82.1,8,John Kwak,Rusk,82.1,181.44,92.99,158.76,433.18,Single-ply,SBD,M,
Boys,82.1,9,Pedro Alonzo,Rusk,77.11,147.42,92.99,170.1,410.5,Single-ply,SBD,M,
Boys,82.1,10,Tuff Arozamena,Van,75.02,140.61,86.18,138.35,365.14,Single-ply,SBD,M,
Boys,82.1,11,Angelo Magallon,Canton,77.11,124.74,74.84,136.08,335.66,Single-ply,SBD,M,
Boys,82.1,12,Emmanuel Ponce,Arp,79.47,163.29,99.79,,263.08,Single-ply,SB,M,
Boys,89.81,1,Caleb Bolay,Whitehouse,87.36,283.5,242.67,199.58,725.75,Single-ply,SBD,M,
Boys,89.81,2,Kaden Richard,Gladewater Sabine,83.82,219.99,142.88,213.19,576.06,Single-ply,SBD,M,
Boys,89.81,3,Nick Rodriguez,Tyler Chapel Hill,87.09,183.7,136.08,197.31,517.1,Single-ply,SBD,M,
Boys,89.81,4,Joshua Arredondo,Rusk,87.09,197.31,122.47,190.51,510.29,Single-ply,SBD,M,
Boys,89.81,5,Cameron Hicks,Lindale,89.27,199.58,111.13,183.7,494.42,Single-ply,SBD,M,
Boys,89.81,6,Cason Watts,Lindale,84.19,167.83,131.54,179.17,478.54,Single-ply,SBD,M,
Boys,89.81,7,Dawson Duty,Canton,87.27,188.24,113.4,170.1,471.74,Single-ply,SBD,M,
Boys,89.81,8,Joe Ruiz,Van,88.63,172.37,92.99,174.63,439.98,Single-ply,SBD,M,
Boys,89.81,9,Jesse Hipp,Canton,83.19,172.37,92.99,172.37,437.72,Single-ply,SBD,M,
Boys,89.81,10,Kaden Thorton,Pollok Central,86.45,147.42,104.33,165.56,417.3,Single-ply,SBD,M,
Boys,89.81,11,Gabe Hill,Tyler Chapel Hill,84.91,129.27,74.84,142.88,347,Single-ply,SBD,M,
Boys,89.81,12,Brandon Soules,Fruitvale,87.09,90.72,63.5,86.18,240.4,Single-ply,SBD,M,
Boys,99.79,1,Daylon Branham,Gladewater Sabine,91.63,242.67,154.22,240.4,637.3,Single-ply,SBD,M,
Boys,99.79,2,Taylor Wilson,Gladewater Sabine,92.62,213.19,138.35,183.7,535.24,Single-ply,SBD,M,
Boys,99.79,3,Cory Watts,Lindale,99.79,188.24,147.42,188.24,523.9,Single-ply,SBD,M,
Boys,99.79,4,Drew Ragland,Lindale,92.08,192.78,124.74,181.44,498.95,Single-ply,SBD,M,
Boys,99.79,5,Peyton Bryan,Whitehouse,98.97,183.7,133.81,181.44,498.95,Single-ply,SBD,M,
Boys,99.79,6,Gunner Johnson,Lindale,91.99,183.7,124.74,183.7,492.15,Single-ply,SBD,M,
Boys,99.79,7,Blake Archie,Arp,98.34,181.44,115.67,174.63,471.74,Single-ply,SBD,M,
Boys,99.79,8,Ethan Heller,Lindale,99.7,183.7,117.93,165.56,467.2,Single-ply,SBD,M,
Boys,99.79,9,Julian Gonzalez,Tyler Chapel Hill,99.61,165.56,124.74,163.29,453.59,Single-ply,SBD,M,
Boys,99.79,10,Jesus Alanis-Zamago,Pollok Central,98.07,124.74,70.31,158.76,353.8,Single-ply,SBD,M,
Boys,99.79,11,Alex Rodriguez,Tyler Chapel Hill,90.99,108.86,77.11,117.93,303.91,Single-ply,SBD,M,
Boys,109.77,1,Steven Calico,Gladewater Sabine,105.14,226.8,154.22,240.4,621.42,Single-ply,SBD,M,
Boys,109.77,2,Gabe Hart,Lindale,107.14,226.8,138.35,238.14,603.28,Single-ply,SBD,M,
Boys,109.77,3,Dawson Brooks,Gladewater Sabine,101.6,226.8,129.27,183.7,539.77,Single-ply,SBD,M,
Boys,109.77,4,Brady Robertson,Whitehouse,106.96,176.9,131.54,188.24,496.68,Single-ply,SBD,M,
Boys,109.77,5,Tyler Callaway,Fruitvale,105.14,172.37,88.45,170.1,430.91,Single-ply,SBD,M,
Boys,109.77,6,Juan Zamarripa,Pollok Central,100.97,161.03,63.5,174.63,399.16,Single-ply,SBD,M,
Boys,124.74,1,Pablo Cerda,Tyler Chapel Hill,111.4,235.87,158.76,197.31,591.94,Single-ply,SBD,M,
Boys,124.74,2,Casey Poe,Lindale,115.67,204.12,145.15,238.14,587.4,Single-ply,SBD,M,
Boys,124.74,3,Reggie Johnson,Van,111.49,231.33,122.47,219.99,573.79,Single-ply,SBD,M,
Boys,124.74,4,Kyren McCullough,Whitehouse,118.48,199.58,158.76,215.46,573.79,Single-ply,SBD,M,
Boys,124.74,5,Trey Mazratian,Lindale,113.13,204.12,131.54,192.78,528.44,Single-ply,SBD,M,
Boys,124.74,6,Corey Johnson,Tyler Chapel Hill,115.21,192.78,124.74,188.24,505.76,Single-ply,SBD,M,
Boys,124.74,7,Kepler Maulthaup,Van,116.94,181.44,92.99,190.51,464.93,Single-ply,SBD,M,
Boys,124.74,8,Leonel Ortega,Rusk,120.29,158.76,115.67,174.63,449.06,Single-ply,SBD,M,
Boys,124.74,9,Damion Joiner,Van,117.03,158.76,86.18,174.63,419.57,Single-ply,SBD,M,
Boys,139.71,1,Johnathan Bush,Whitehouse,128.19,226.8,145.15,226.8,598.74,Single-ply,SBD,M,
Boys,139.71,2,Jose Suarez,Van,126.28,233.6,106.59,204.12,544.31,Single-ply,SBD,M,
Boys,139.71,3,Lance Langenbau,Arp,130.91,188.24,142.88,201.85,532.97,Single-ply,SBD,M,
Boys,139.71,4,Trae Derrick,Van,128.37,226.8,117.93,170.1,514.83,Single-ply,SBD,M,
Boys,139.71,5,Keldrick Davis,Tyler Chapel Hill,127.37,197.31,117.93,181.44,496.68,Single-ply,SBD,M,
Boys,139.71+,1,Jalan Lofters,Tyler Chapel Hill,190.51,278.96,158.76,204.12,641.83,Single-ply,SBD,M,
Boys,139.71+,2,Caleb Power,Whitehouse,139.89,240.4,142.88,222.26,605.55,Single-ply,SBD,M,
Boys,139.71+,3,Cameron Clark,Whitehouse,140.07,179.17,156.49,172.37,508.02,Single-ply,SBD,M,
Boys,139.71+,4,Braden Brawner,Rusk,148.6,192.78,106.59,163.29,462.66,Single-ply,SBD,M,
Boys,139.71+,DQ,Bryce Everett,Arp,149.78,,,,,Single-ply,SBD,M,
Boys,,NS,Christian Ward,Arp,,,,,,Single-ply,SBD,M,
Boys,,NS,David Doan,Tyler Chapel Hill,,,,,,Single-ply,SBD,M,
Boys,,NS,Tyrell Gause,Tyler Chapel Hill,,,,,,Single-ply,SBD,M,
Boys,,NS,Logan Huerta,Lindale,,,,,,Single-ply,SBD,M,
Boys,,NS,Braydon Hullum,Van,,,,,,Single-ply,SBD,M,
Boys,,NS,Josh Christian,Van,,,,,,Single-ply,SBD,M,
Boys,,NS,Kaiden Bailey,Whitehouse,,,,,,Single-ply,SBD,M,
Boys,,NS,Jordan Slayton,Whitehouse,,,,,,Single-ply,SBD,M,
