Division,WeightClassKg,Place,Name,Team,BodyweightKg,Best3SquatKg,Best3BenchKg,Best3DeadliftKg,TotalKg,Equipment,Event,Sex,BirthDate
Boys,51.71,1,Kolbe Murray,Bay City,47.08,108.86,58.97,129.27,297.1,Single-ply,SBD,M,
Boys,51.71,2,M. Green,Huntsville,51.44,99.79,58.97,127.01,285.76,Single-ply,SBD,M,
Boys,51.71,3,Canaan Allen,Bay City,51.26,92.99,61.23,117.93,272.16,Single-ply,SBD,M,
Boys,51.71,4,C Hooks,Huntsville,50.53,95.25,68.04,92.99,256.28,Single-ply,SBD,M,
Boys,51.71,5,Wyatt Benett,Trinity,50.89,86.18,61.23,102.06,249.48,Single-ply,SBD,M,
Boys,51.71,6,Kaleb Murray,Bay City,49.62,79.38,45.36,92.99,217.72,Single-ply,SBD,M,
Boys,51.71,DQ,Cruz Terrell,Beaumont West Brook,51.71,,,,,Single-ply,SBD,M,
Boys,55.79,1,Rudy Morales,Shepherd,55.43,188.24,102.06,215.46,505.76,Single-ply,SBD,M,
Boys,55.79,2,Rock Page,Cleveland Tarkington,55.79,108.86,61.23,124.74,294.84,Single-ply,SBD,M,
Boys,55.79,DQ,Stoney Connors,Beaumont West Brook,55.79,,,,,Single-ply,SBD,M,
Boys,55.79,DQ,Hunter Vandver,Splendora,55.79,142.88,,,,Single-ply,SBD,M,
Boys,59.87,1,Jeremiah Salazar,Cleveland,59.69,136.08,83.91,145.15,365.14,Single-ply,SBD,M,
Boys,59.87,2,Ronnie Kimball,Bay City,59.87,102.06,52.16,117.93,272.16,Single-ply,SBD,M,
Boys,59.87,3,Bayardo Arauz,Houston Chavez,58.97,102.06,70.31,83.91,256.28,Single-ply,SBD,M,
Boys,59.87,4,Jayden Ford,Trinity,59.69,70.31,56.7,68.04,195.04,Single-ply,SBD,M,
Boys,59.87,DQ,Lain Baker,Shepherd,59.69,,,,,Single-ply,SBD,M,
Boys,67.13,1,Sergio Sandoval,Shepherd,66.13,201.85,113.4,201.85,517.1,Single-ply,SBD,M,
Boys,67.13,2,Carlos Guevara,Shepherd,66.13,192.78,97.52,183.7,474,Single-ply,SBD,M,
Boys,67.13,3,Dylan Errington,Cleveland Tarkington,67.13,163.29,122.47,167.83,453.59,Single-ply,SBD,M,
Boys,67.13,4,Jacob Brown,Livingston,65.77,138.35,111.13,176.9,426.38,Single-ply,SBD,M,
Boys,67.13,5,Andrew Phillips,Beaumont West Brook,64.23,149.69,99.79,158.76,408.23,Single-ply,SBD,M,
Boys,67.13,6,C. Schroeder,Huntsville,66.32,140.61,86.18,170.1,396.89,Single-ply,SBD,M,
Boys,67.13,7,Gage Murphy,Shepherd,65.86,124.74,92.99,165.56,383.29,Single-ply,SBD,M,
Boys,67.13,8,Cyrus Martinez,Shepherd,60.87,136.08,74.84,158.76,369.68,Single-ply,SBD,M,
Boys,74.84,1,Joel Weekes,Shepherd,72.85,222.26,138.35,219.99,580.6,Single-ply,SBD,M,
Boys,74.84,2,Larry Brooks,Beaumont West Brook,74.66,235.87,142.88,197.31,576.06,Single-ply,SBD,M,
Boys,74.84,3,Jonathan Martin,Beaumont United,74.48,195.04,117.93,231.33,544.31,Single-ply,SBD,M,
Boys,74.84,4,Cole Odom,Trinity,74.39,195.04,124.74,174.63,494.42,Single-ply,SBD,M,
Boys,74.84,5,M Tatum,Huntsville,67.59,179.17,108.86,181.44,469.47,Single-ply,SBD,M,
Boys,74.84,6,Remington Lassman,Trinity,69.04,181.44,104.33,174.63,460.4,Single-ply,SBD,M,
Boys,74.84,7,K. Lee,Huntsville,73.03,142.88,104.33,181.44,428.64,Single-ply,SBD,M,
Boys,74.84,8,Andy Gonzalez,Cleveland,73.75,149.69,90.72,151.95,392.36,Single-ply,SBD,M,
Boys,74.84,9,Cody Russell,Shepherd,72.48,127.01,88.45,149.69,365.14,Single-ply,SBD,M,
Boys,74.84,10,Damoriah Hill,Livingston,70.22,133.81,61.23,136.08,331.12,Single-ply,SBD,M,
Boys,74.84,11,Ashton Kneer,Splendora,70.85,111.13,79.38,136.08,326.59,Single-ply,SBD,M,
Boys,82.1,1,Brandon Pitty,Cleveland Tarkington,76.29,199.58,108.86,204.12,512.56,Single-ply,SBD,M,
Boys,82.1,2,Ja Quailon Chaney,Port Arthur Memorial,81.01,204.12,108.86,199.58,512.56,Single-ply,SBD,M,
Boys,82.1,3,Ethan Pullin,Corrigan-Camden,81.74,147.42,79.38,156.49,383.29,Single-ply,SBD,M,
Boys,82.1,4,Ian Puckett,Trinity,76.93,154.22,92.99,124.74,371.95,Single-ply,SBD,M,
Boys,82.1,5,Cedric Madison,Beaumont United,77.56,136.08,83.91,145.15,365.14,Single-ply,SBD,M,
Boys,82.1,6,Giovannia Gutierrez,Trinity,79.11,124.74,79.38,142.88,347,Single-ply,SBD,M,
Boys,82.1,7,Brandon Gracia,Bay City,80.65,113.4,68.04,149.69,331.12,Single-ply,SBD,M,
Boys,82.1,DQ,Alexis Cortes,Cleveland,80.1,158.76,,,,Single-ply,SBD,M,
Boys,82.1,DQ,Aiden Miranda,Splendora,81.74,133.81,,,,Single-ply,SBD,M,
Boys,82.1,DQ,Matthew Fergeson,Splendora,82.1,,,,,Single-ply,SBD,M,
Boys,82.1,DQ,Bradlee Koba,Beaumont West Brook,82.1,,,,,Single-ply,SBD,M,
Boys,82.1,DQ,Nick Brown,Splendora,76.29,,,,,Single-ply,SBD,M,
Boys,82.1,DQ,Tanner Lacey,Shepherd,81.65,,,,,Single-ply,SBD,M,
Boys,89.81,1,Jameer Martin,Cleveland,84.37,206.38,124.74,208.65,539.77,Single-ply,SBD,M,
Boys,89.81,2,David McKendree,Trinity,86.36,190.51,124.74,183.7,498.95,Single-ply,SBD,M,
Boys,89.81,3,Brayden Ethier,Livingston,85.09,188.24,106.59,181.44,476.27,Single-ply,SBD,M,
Boys,89.81,4,Toby Keith,Splendora,85.91,183.7,124.74,167.83,476.27,Single-ply,SBD,M,
Boys,89.81,5,B Redd,Huntsville,83.91,158.76,140.61,170.1,469.47,Single-ply,SBD,M,
Boys,89.81,6,Marcus Smalls,Port Arthur Memorial,84.91,158.76,102.06,174.63,435.45,Single-ply,SBD,M,
Boys,89.81,7,Jarius Hood,Corrigan-Camden,86.27,147.42,88.45,174.63,410.5,Single-ply,SBD,M,
Boys,89.81,8,Aden Standly,Corrigan-Camden,86.64,129.27,61.23,161.03,351.53,Single-ply,SBD,M,
Boys,89.81,9,Jaden Jordan,Livingston,88.81,124.74,79.38,142.88,347,Single-ply,SBD,M,
Boys,89.81,10,Cruz Godinez,Cleveland,82.83,95.25,54.43,185.97,335.66,Single-ply,SBD,M,
Boys,89.81,DQ,A Sandals,Huntsville,83.46,151.95,104.33,,,Single-ply,SBD,M,
Boys,89.81,DQ,Korleone Comeaux,Beaumont United,82.83,,,,,Single-ply,SBD,M,
Boys,89.81,DQ,Micah Harrison,Livingston,86,,,,,Single-ply,SBD,M,
Boys,89.81,DQ,Andres Espinosa,Splendora,83.55,,,,,Single-ply,SBD,M,
Boys,89.81,DQ,Tanner Adams,Splendora,88.18,,,,,Single-ply,SBD,M,
Boys,89.81,DQ,Ethan Rodriguez,Splendora,88.72,,,,,Single-ply,SBD,M,
Boys,99.79,1,Camron Coleman,Beaumont West Brook,98.16,226.8,167.83,210.92,605.55,Single-ply,SBD,M,
Boys,99.79,2,Logan Alpha,Splendora,99.79,233.6,133.81,233.6,601.01,Single-ply,SBD,M,
Boys,99.79,3,Caden Bradford,Bay City,91.63,226.8,147.42,199.58,573.79,Single-ply,SBD,M,
Boys,99.79,4,Landen Robbins,Shepherd,91.63,224.53,115.67,233.6,573.79,Single-ply,SBD,M,
Boys,99.79,5,Matthew Chin,Beaumont West Brook,98.07,192.78,124.74,215.46,532.97,Single-ply,SBD,M,
Boys,99.79,6,C. Hall,Huntsville,90.58,174.63,129.27,210.92,514.83,Single-ply,SBD,M,
Boys,99.79,7,Caden Pitre,Port Arthur Memorial,99.79,183.7,129.27,188.24,501.22,Single-ply,SBD,M,
Boys,99.79,8,Enrique Tellez,Livingston,95.16,181.44,115.67,190.51,487.61,Single-ply,SBD,M,
Boys,99.79,9,Joshual Jack,Cleveland,92.26,147.42,102.06,197.31,446.79,Single-ply,SBD,M,
Boys,99.79,10,Ricky Inguanzo,Corrigan-Camden,99.61,158.76,97.52,183.7,439.98,Single-ply,SBD,M,
Boys,99.79,11,Logan Bennett,Cleveland,92.71,170.1,102.06,165.56,437.72,Single-ply,SBD,M,
Boys,99.79,12,Garrett Craig,Trinity,96.71,176.9,102.06,151.95,430.91,Single-ply,SBD,M,
Boys,99.79,13,Aaron Caceres,Trinity,92.44,172.37,106.59,147.42,426.38,Single-ply,SBD,M,
Boys,99.79,14,Justin Scarborough,Cleveland Tarkington,99.79,129.27,95.25,133.81,358.34,Single-ply,SBD,M,
Boys,99.79,15,Ricardo Garcia,Bay City,91.63,115.67,79.38,158.76,353.8,Single-ply,SBD,M,
Boys,99.79,16,Eddie Monroe,Beaumont United,95.71,99.79,61.23,90.72,251.74,Single-ply,SBD,M,
Boys,99.79,DQ,Hayden Taylor,Trinity,94.89,158.76,,,,Single-ply,SBD,M,
Boys,99.79,DQ,Dominick Santana,Splendora,97.52,147.42,95.25,,,Single-ply,SBD,M,
Boys,109.77,1,Xavier Mindiola,Livingston,100.97,231.33,158.76,231.33,621.42,Single-ply,SBD,M,
Boys,109.77,2,Roshawn Calhoun,Port Arthur Memorial,109.77,233.6,115.67,206.38,555.65,Single-ply,SBD,M,
Boys,109.77,3,Jakob Pesina,Bay City,107.41,179.17,115.67,181.44,476.27,Single-ply,SBD,M,
Boys,109.77,4,Harvey Jones,Port Arthur Memorial,109.77,158.76,102.06,172.37,433.18,Single-ply,SBD,M,
Boys,109.77,5,Alex Burciaga,Bay City,102.33,151.95,86.18,151.95,390.09,Single-ply,SBD,M,
Boys,109.77,DQ,Jonah Balka,Beaumont United,109.77,,,,,Single-ply,SBD,M,
Boys,109.77,DQ,Elijah Martin,Splendora,109.77,,,,,Single-ply,SBD,M,
Boys,124.74,1,Gavin Edwards,Cleveland Tarkington,116.3,226.8,170.1,201.85,598.74,Single-ply,SBD,M,
Boys,124.74,2,Christian Gladney,Beaumont United,123.2,238.14,149.69,188.24,576.06,Single-ply,SBD,M,
Boys,124.74,3,Jess Shows,Corrigan-Camden,112.58,206.38,138.35,208.65,553.38,Single-ply,SBD,M,
Boys,124.74,4,J. Smith,Huntsville,124.74,226.8,133.81,188.24,548.85,Single-ply,SBD,M,
Boys,124.74,5,Jeremiah Jordan,Beaumont West Brook,118.93,206.38,129.27,195.04,530.7,Single-ply,SBD,M,
Boys,124.74,6,Treyvon Mims,Beaumont United,114.12,170.1,154.22,192.78,517.1,Single-ply,SBD,M,
Boys,124.74,7,C Robledo,Huntsville,124.74,195.04,131.54,185.97,512.56,Single-ply,SBD,M,
Boys,124.74,8,Jarius Crew,Livingston,110.4,197.31,120.2,185.97,503.49,Single-ply,SBD,M,
Boys,124.74,9,Auristel Mendez,Cleveland,112.67,154.22,131.54,190.51,476.27,Single-ply,SBD,M,
Boys,124.74,10,Hector Godinez,Cleveland,114.76,183.7,108.86,176.9,469.47,Single-ply,SBD,M,
Boys,124.74,11,Conner Colbert,Cleveland Tarkington,118.48,158.76,113.4,151.95,424.11,Single-ply,SBD,M,
Boys,124.74,12,Gailin Curl,Beaumont United,122.38,158.76,90.72,170.1,419.57,Single-ply,SBD,M,
Boys,124.74,13,Jahmal Arvie,Port Arthur Memorial,115.3,151.95,83.91,147.42,383.29,Single-ply,SBD,M,
Boys,124.74,14,Leland Aguilar,Bay City,124.74,145.15,79.38,151.95,376.48,Single-ply,SBD,M,
Boys,124.74,DQ,Braxton Chambers,Beaumont West Brook,124.74,,,,,Single-ply,SBD,M,
Boys,124.74,DQ,Justin Harmon,Beaumont United,114.67,,,,,Single-ply,SBD,M,
Boys,124.74,DQ,Colton Smith,Trinity,124.74,195.04,,,,Single-ply,SBD,M,
Boys,139.71,1,Arthur Hebert,Beaumont West Brook,129.64,235.87,149.69,183.7,569.26,Single-ply,SBD,M,
Boys,139.71,2,Chris Rodriguez,Cleveland,126.55,199.58,154.22,213.19,566.99,Single-ply,SBD,M,
Boys,139.71,3,Elis Caceres,Trinity,133.99,219.99,120.2,226.8,566.99,Single-ply,SBD,M,
Boys,139.71,4,Dailynn Hernandez,Bay City,139.71,244.94,138.35,183.7,566.99,Single-ply,SBD,M,
Boys,139.71,5,Christopher Smith,Huntsville,139.71,231.33,127.01,204.12,562.45,Single-ply,SBD,M,
Boys,139.71,6,Leihten Beck,Shepherd,125.19,201.85,102.06,199.58,503.49,Single-ply,SBD,M,
Boys,139.71,7,Kyler Colbert,Cleveland Tarkington,131.54,188.24,124.74,183.7,496.68,Single-ply,SBD,M,
Boys,139.71,8,Isaac Allen,Bay City,139.71,176.9,129.27,167.83,474,Single-ply,SBD,M,
Boys,139.71,9,Edward Taylor,Beaumont United,125.92,226.8,83.91,158.76,469.47,Single-ply,SBD,M,
Boys,139.71,10,Dameon Kampfer,Livingston,133.9,167.83,124.74,158.76,451.32,Single-ply,SBD,M,
Boys,139.71,11,Treye Atkinson,Livingston,135.81,167.83,83.91,188.24,439.98,Single-ply,SBD,M,
Boys,139.71,DQ,T. Rose,Huntsville,139.71,,,,,Single-ply,SBD,M,
Boys,139.71+,1,Micah Liedy,Beaumont United,165.11,238.14,120.2,204.12,562.45,Single-ply,SBD,M,
Boys,139.71+,2,Brynten White,Livingston,141.88,192.78,151.95,210.92,555.65,Single-ply,SBD,M,
Boys,139.71+,3,Marcus Jefferson,Beaumont West Brook,145.78,204.12,115.67,208.65,528.44,Single-ply,SBD,M,
Boys,139.71+,4,Guy Curl,Beaumont United,147.42,204.12,108.86,188.24,501.22,Single-ply,SBD,M,
Boys,139.71+,DQ,Jesse Martinez,Cleveland,140.61,,,,,Single-ply,SBD,M,
