Division,WeightClassKg,Place,Name,Team,BodyweightKg,Best3SquatKg,Best3BenchKg,Best3DeadliftKg,TotalKg,Equipment,Event,Sex,BirthDate
Boys,51.71,1,Noah Stephens,Salado,50.35,151.95,70.31,129.27,351.53,Single-ply,SBD,M,
Boys,51.71,2,Christian Morales,Lake Belton,48.63,129.27,70.31,145.15,344.73,Single-ply,SBD,M,
Boys,51.71,3,Spencer Mason,Lake Belton,51.62,115.67,81.65,138.35,335.66,Single-ply,SBD,M,
Boys,51.71,4,Antonio Contreras,Fredericksburg,50.44,122.47,74.84,127.01,324.32,Single-ply,SBD,M,
Boys,51.71,5,Nguyen Tran,Hillsboro,50.71,124.74,70.31,124.74,319.78,Single-ply,SBD,M,
Boys,51.71,6,Tyler Flower,Venus,51.44,127.01,77.11,115.67,319.78,Single-ply,SBD,M,
Boys,51.71,7,Mason Falcone,Comal Davenport,47.9,106.59,61.23,131.54,299.37,Single-ply,SBD,M,
Boys,51.71,8,Jonatan Martinez,Fredericksburg,50.62,117.93,72.57,104.33,294.84,Single-ply,SBD,M,
Boys,51.71,9,Matthew McFadden,Ferris,51.07,102.06,63.5,127.01,292.57,Single-ply,SBD,M,
Boys,51.71,10,Stevie Ray,Giddings,50.17,92.99,70.31,113.4,276.69,Single-ply,SBD,M,
Boys,51.71,11,Miguel Pineda,Hillsboro,45.36,95.25,58.97,117.93,272.16,Single-ply,SBD,M,
Boys,51.71,12,David Hernandez,Smithville,48.9,106.59,43.09,115.67,265.35,Single-ply,SBD,M,
Boys,51.71,DQ,Carlos Gaviria,Mexia,47.81,70.31,,,,Single-ply,SBD,M,
Boys,55.79,1,Caden Brister,Gatesville,54.88,154.22,79.38,138.35,371.95,Single-ply,SBD,M,
Boys,55.79,2,Oscar Salazar,Waco La Vega,54.25,136.08,74.84,151.95,362.87,Single-ply,SBD,M,
Boys,55.79,3,Alejandro Delima,Salado,55.52,154.22,74.84,133.81,362.87,Single-ply,SBD,M,
Boys,55.79,4,Humberto Gonzalez,Hillsboro,55.79,129.27,81.65,142.88,353.8,Single-ply,SBD,M,
Boys,55.79,5,Garrett Maddox,China Spring,55.25,136.08,79.38,136.08,351.53,Single-ply,SBD,M,
Boys,55.79,6,Connor Starjak,Comal Davenport,53.8,108.86,70.31,142.88,322.05,Single-ply,SBD,M,
Boys,55.79,7,Jacob Tuckness,Comal Canyon Lake,54.88,102.06,74.84,136.08,312.98,Single-ply,SBD,M,
Boys,55.79,8,Cole Coffee,Comal Canyon Lake,52.98,111.13,68.04,127.01,306.17,Single-ply,SBD,M,
Boys,55.79,9,Joey Wilson,Comal Canyon Lake,54.25,129.27,65.77,108.86,303.91,Single-ply,SBD,M,
Boys,55.79,10,Giovanni Aguilar,Taylor,54.34,102.06,70.31,127.01,299.37,Single-ply,SBD,M,
Boys,55.79,11,Tucker White,Jarrell,54.52,104.33,63.5,131.54,299.37,Single-ply,SBD,M,
Boys,59.87,1,Jayden Bridgewater,Alvarado,58.24,172.37,113.4,145.15,430.91,Single-ply,SBD,M,
Boys,59.87,2,Tyler Jessup,Alvarado,58.06,154.22,104.33,165.56,424.11,Single-ply,SBD,M,
Boys,59.87,3,Jamar Utley,Manor New Tech,57.24,142.88,97.52,172.37,412.77,Single-ply,SBD,M,
Boys,59.87,4,Thomas Dorman,Comal Canyon Lake,59.24,156.49,92.99,161.03,410.5,Single-ply,SBD,M,
Boys,59.87,5,Justin Abbott,Comal Canyon Lake,59.42,158.76,99.79,151.95,410.5,Single-ply,SBD,M,
Boys,59.87,6,Christian Osario,Smithville,57.88,163.29,77.11,161.03,401.43,Single-ply,SBD,M,
Boys,59.87,7,Dylan Wellington,Lake Belton,58.24,158.76,79.38,161.03,399.16,Single-ply,SBD,M,
Boys,59.87,8,Evan Basinger,Madisonville,59.6,142.88,83.91,161.03,387.82,Single-ply,SBD,M,
Boys,59.87,9,Wilson Hammond,Lampasas,58.88,136.08,92.99,154.22,383.29,Single-ply,SBD,M,
Boys,59.87,10,Jer'mal Holland,Madisonville,59.24,136.08,90.72,149.69,376.48,Single-ply,SBD,M,
Boys,59.87,DQ,Gage Gonzales,Robinson,59.06,145.15,90.72,,,Single-ply,SBD,M,
Boys,67.13,1,Alex Ansay,Alvarado,66.77,206.38,140.61,208.65,555.65,Single-ply,SBD,M,
Boys,67.13,2,Anthony Lopez,Ferris,66.5,215.46,140.61,197.31,553.38,Single-ply,SBD,M,
Boys,67.13,3,Leonardo Lopez,Hillsboro,63.68,204.12,131.54,190.51,526.17,Single-ply,SBD,M,
Boys,67.13,4,Braedon Scott,Madisonville,65.95,176.9,99.79,204.12,480.81,Single-ply,SBD,M,
Boys,67.13,5,Reid Simpson,Comal Canyon Lake,66.22,183.7,117.93,174.63,476.27,Single-ply,SBD,M,
Boys,67.13,6,Jaxson Jaeger,Giddings,65.86,172.37,120.2,174.63,467.2,Single-ply,SBD,M,
Boys,67.13,7,Benjamin Caperton,Madisonville,65.95,165.56,97.52,199.58,462.66,Single-ply,SBD,M,
Boys,67.13,8,Kaeson Raub,Lampasas,66.59,167.83,131.54,163.29,462.66,Single-ply,SBD,M,
Boys,67.13,9,Luke Rizzo,Fredericksburg,65.95,158.76,108.86,188.24,455.86,Single-ply,SBD,M,
Boys,67.13,10,Ronnie Mosley,Madisonville,62.69,167.83,86.18,192.78,446.79,Single-ply,SBD,M,
Boys,67.13,11,Jose Rodriguez,Burnet,62.32,158.76,102.06,158.76,419.57,Single-ply,SBD,M,
Boys,67.13,DQ,Jacob Marshall,Giddings,64.86,,,,,Single-ply,SBD,M,
Boys,74.84,1,John Parra,Fredericksburg,73.75,206.38,124.74,254.01,585.13,Single-ply,SBD,M,
Boys,74.84,2,Dominique Wooten,Lampasas,70.76,210.92,156.49,204.12,571.53,Single-ply,SBD,M,
Boys,74.84,3,Alejandro Mejia,Venus,73.03,204.12,129.27,179.17,512.56,Single-ply,SBD,M,
Boys,74.84,4,Jaxon Joudah,Comal Davenport,74.03,190.51,113.4,201.85,505.76,Single-ply,SBD,M,
Boys,74.84,5,Caleb Vandygrift,Godley,71.03,176.9,129.27,197.31,503.49,Single-ply,SBD,M,
Boys,74.84,6,Jj Bowling,Lampasas,72.57,170.1,136.08,183.7,489.88,Single-ply,SBD,M,
Boys,74.84,7,Tristan Robin,Lake Belton,70.03,181.44,111.13,165.56,458.13,Single-ply,SBD,M,
Boys,74.84,8,Cody Martinez,Robinson,72.94,167.83,120.2,170.1,458.13,Single-ply,SBD,M,
Boys,74.84,9,Moses Garza,China Spring,71.85,172.37,95.25,181.44,449.06,Single-ply,SBD,M,
Boys,74.84,DQ,Ricardo Martinez,Hillsboro,73.84,219.99,133.81,,,Single-ply,SBD,M,
Boys,74.84,DQ,Kaleb Walter,Navasota,69.13,,,,,Single-ply,SBD,M,
Boys,82.1,1,Derrick Willis,Ferris,80.01,229.06,142.88,240.4,612.35,Single-ply,SBD,M,
Boys,82.1,2,Hector Granados,Giddings,80.29,242.67,145.15,206.38,594.21,Single-ply,SBD,M,
Boys,82.1,3,Jaylen Trotter,China Spring,77.84,204.12,145.15,231.33,580.6,Single-ply,SBD,M,
Boys,82.1,4,Dustin Armstrong,Smithville,81.74,215.46,131.54,217.72,564.72,Single-ply,SBD,M,
Boys,82.1,5,Jorge Soria,Hillsboro,79.74,208.65,138.35,192.78,539.77,Single-ply,SBD,M,
Boys,82.1,6,Christian Mack,Waxahachie Life,78.65,197.31,127.01,213.19,537.51,Single-ply,SBD,M,
Boys,82.1,7,Jack Vanaartsen,Burnet,78.65,195.04,145.15,195.04,535.24,Single-ply,SBD,M,
Boys,82.1,8,Matthew Elson,Comal Canyon Lake,79.74,210.92,117.93,199.58,528.44,Single-ply,SBD,M,
Boys,82.1,9,Jayden Gross,Venus,80.29,199.58,131.54,188.24,519.36,Single-ply,SBD,M,
Boys,82.1,DQ,Conner Swonke,Madisonville,78.38,199.58,113.4,,,Single-ply,SBD,M,
Boys,82.1,DQ,Daniel Hardin,Lake Belton,77.56,,,,,Single-ply,SBD,M,
Boys,82.1,DQ,Jiovanni Thierry,Jarrell,81.01,,,,,Single-ply,SBD,M,
Boys,89.81,1,Westen Reid,Lampasas,85.37,267.62,167.83,267.62,703.07,Single-ply,SBD,M,
Boys,89.81,2,Jaydon Lang,Waco La Vega,84.28,247.21,138.35,260.82,646.37,Single-ply,SBD,M,
Boys,89.81,3,Dawson Exline,China Spring,89.45,244.94,147.42,242.67,635.03,Single-ply,SBD,M,
Boys,89.81,4,Cayden Mata,Gatesville,82.55,226.8,120.2,226.8,573.79,Single-ply,SBD,M,
Boys,89.81,5,Dylan Wigley,Salado,84.73,215.46,127.01,229.06,571.53,Single-ply,SBD,M,
Boys,89.81,6,Tristan Exline,China Spring,83.91,217.72,111.13,229.06,557.92,Single-ply,SBD,M,
Boys,89.81,7,Aden Rascoe,Lampasas,86.64,199.58,142.88,204.12,546.58,Single-ply,SBD,M,
Boys,89.81,8,Alex Torres,Madisonville,88.09,217.72,117.93,204.12,539.77,Single-ply,SBD,M,
Boys,89.81,DQ,Isaiah Morales,Venus,87.27,222.26,124.74,,,Single-ply,SBD,M,
Boys,89.81,DQ,Mateo Dominguez,Venus,87.63,231.33,122.47,,,Single-ply,SBD,M,
Boys,89.81,DQ,Ethan Colvin,Ferris,82.28,,,,,Single-ply,SBD,M,
Boys,89.81,DQ,Samuel DeLuna,Fredericksburg,88.09,,,,,Single-ply,SBD,M,
Boys,99.79,1,Aidan Wilson,Salado,98.52,278.96,149.69,272.16,700.8,Single-ply,SBD,M,
Boys,99.79,2,Jamien Henley,Waco La Vega,96.8,278.96,170.1,249.48,698.53,Single-ply,SBD,M,
Boys,99.79,3,Easton Kylberg,Giddings,96.71,256.28,172.37,256.28,684.92,Single-ply,SBD,M,
Boys,99.79,4,Jovani Tamayo,Venus,96.62,249.48,174.63,233.6,657.71,Single-ply,SBD,M,
Boys,99.79,5,Dillan Hempel,Salado,97.43,249.48,151.95,219.99,621.42,Single-ply,SBD,M,
Boys,99.79,6,Colby Hale,China Spring,98.25,244.94,145.15,219.99,610.08,Single-ply,SBD,M,
Boys,99.79,7,Kelvin Eagans,Hillsboro,95.35,217.72,136.08,249.48,603.28,Single-ply,SBD,M,
Boys,99.79,8,Caden Stockdale,Smithville,96.07,226.8,140.61,235.87,603.28,Single-ply,SBD,M,
Boys,99.79,9,Eduardo Perez,Navasota,99.79,229.06,120.2,197.31,546.58,Single-ply,SBD,M,
Boys,99.79,10,Dylan Olivares,Robinson,90.99,210.92,136.08,195.04,542.04,Single-ply,SBD,M,
Boys,99.79,11,Brayden Minton,Gatesville,97.43,181.44,117.93,199.58,498.95,Single-ply,SBD,M,
Boys,99.79,DQ,Noah Silcox,Navasota,91.08,197.31,106.59,,,Single-ply,SBD,M,
Boys,109.77,1,Gavyn Keyser,Salado,108.05,258.55,165.56,256.28,680.39,Single-ply,SBD,M,
Boys,109.77,2,Adan Rodriguez,Comal Davenport,108.59,251.74,170.1,258.55,680.39,Single-ply,SBD,M,
Boys,109.77,3,Dray McLane,Salado,102.15,265.35,147.42,235.87,648.64,Single-ply,SBD,M,
Boys,109.77,4,Anthony Rodriguez,Comal Davenport,101.7,217.72,145.15,217.72,580.6,Single-ply,SBD,M,
Boys,109.77,5,Marc Anthony Calderon,Ferris,100.24,226.8,136.08,204.12,566.99,Single-ply,SBD,M,
Boys,109.77,6,Omar Lopez,Madisonville,104.24,204.12,117.93,208.65,530.7,Single-ply,SBD,M,
Boys,109.77,7,Joseph Hutson,Ferris,107.5,190.51,131.54,188.24,510.29,Single-ply,SBD,M,
Boys,109.77,8,Aj Luna,Lampasas,102.51,215.46,108.86,183.7,508.02,Single-ply,SBD,M,
Boys,109.77,DQ,Joshua Mitschke,Giddings,101.33,,,,,Single-ply,SBD,M,
Boys,109.77,DQ,Esau Ortiz,Taylor,103.06,249.48,195.04,,,Single-ply,SBD,M,
Boys,124.74,1,Ryan Smiley,Gatesville,123.56,326.59,197.31,272.16,796.05,Single-ply,SBD,M,
Boys,124.74,2,Jaden Taylor,Taylor,117.75,254.01,197.31,244.94,696.26,Single-ply,SBD,M,
Boys,124.74,3,David Guevara,Madisonville,120.84,254.01,133.81,224.53,612.35,Single-ply,SBD,M,
Boys,124.74,4,Jimmy Mendoza,Comal Canyon Lake,116.3,233.6,122.47,233.6,589.67,Single-ply,SBD,M,
Boys,124.74,5,Collin Adams,Alvarado,118.48,233.6,156.49,199.58,589.67,Single-ply,SBD,M,
Boys,124.74,6,Dominic Simpson,Lake Belton,118.93,217.72,133.81,226.8,578.33,Single-ply,SBD,M,
Boys,124.74,7,Kade Hayes,Salado,111.77,219.99,149.69,197.31,566.99,Single-ply,SBD,M,
Boys,124.74,8,Ernie Alderete,Taylor,118.02,226.8,120.2,204.12,551.11,Single-ply,SBD,M,
Boys,124.74,DQ,Ivan Martinez,Waco La Vega,120.29,,,,,Single-ply,SBD,M,
Boys,124.74,DQ,Jalen Major,Madisonville,120.2,,,,,Single-ply,SBD,M,
Boys,139.71,1,Jaylen Johnson,Waco La Vega,133.08,283.5,183.7,238.14,705.34,Single-ply,SBD,M,
Boys,139.71,2,Matthew Quiroz,Ferris,125.19,292.57,183.7,192.78,669.05,Single-ply,SBD,M,
Boys,139.71,3,Jose Lopez,Navasota,125.92,224.53,124.74,238.14,587.4,Single-ply,SBD,M,
Boys,139.71,4,Xavier West,Mexia,128.09,233.6,117.93,226.8,578.33,Single-ply,SBD,M,
Boys,139.71,5,Kevin Ramirez,Giddings,131.54,238.14,151.95,188.24,578.33,Single-ply,SBD,M,
Boys,139.71,6,Zach Bryant,Gatesville,137.53,217.72,136.08,219.99,573.79,Single-ply,SBD,M,
Boys,139.71,7,Markus Abrego,Lake Belton,125.92,215.46,145.15,204.12,564.72,Single-ply,SBD,M,
Boys,139.71,8,Logan Gandara,Lake Belton,125.65,222.26,133.81,199.58,555.65,Single-ply,SBD,M,
Boys,139.71,9,Landon McMillan,China Spring,128.37,210.92,142.88,188.24,542.04,Single-ply,SBD,M,
Boys,139.71,10,Alfonso Sanchez,Robinson,130.45,197.31,133.81,188.24,519.36,Single-ply,SBD,M,
Boys,139.71,DQ,Challen Ma'ileoi,Lake Belton,132.36,,,,,Single-ply,SBD,M,
Boys,139.71,DQ,Fabian Silvas,Hillsboro,127.91,,,,,Single-ply,SBD,M,
Boys,139.71+,1,Joseph Fuentes,Ferris,139.89,272.16,185.97,249.48,707.6,Single-ply,SBD,M,
Boys,139.71+,2,Adam Walden,Lake Belton,167.47,272.16,165.56,242.67,680.39,Single-ply,SBD,M,
Boys,139.71+,3,Trent Tidwell,Hillsboro,140.7,242.67,208.65,226.8,678.12,Single-ply,SBD,M,
Boys,139.71+,4,Ja'Quan Walton,Waco La Vega,140.25,251.74,161.03,215.46,628.23,Single-ply,SBD,M,
Boys,139.71+,5,Gabe Charles,Gatesville,148.05,210.92,124.74,199.58,535.24,Single-ply,SBD,M,
Boys,139.71+,DQ,JaMarques Baugh,Waco Connally,162.2,,,,,Single-ply,SBD,M,
Boys,139.71+,DQ,Braden Bittick,Smithville,141.43,,,,,Single-ply,SBD,M,
