Division,WeightClassKg,Place,Name,Team,BodyweightKg,Best3SquatKg,Best3BenchKg,Best3DeadliftKg,TotalKg,Equipment,Event,Sex,BirthDate
Boys,51.71,1,Josh Ramirez,Somerset,50.8,90.72,52.16,129.27,272.16,Single-ply,SBD,M,
Boys,51.71,2,Matthew Balderas,Crystal City,49.9,90.72,61.23,102.06,254.01,Single-ply,SBD,M,
Boys,51.71,3,Juan Garcia,Crystal City,51.26,70.31,52.16,102.06,224.53,Single-ply,SBD,M,
Boys,55.79,1,Raul Musquiz,Crystal City,55.34,188.24,99.79,174.63,462.66,Single-ply,SBD,M,
Boys,55.79,2,Ryan Jiminez,Crystal City,55.79,154.22,97.52,151.95,403.7,Single-ply,SBD,M,
Boys,59.87,1,Sebastian Perez,Crystal City,59.87,208.65,102.06,206.38,517.1,Single-ply,SBD,M,
Boys,59.87,2,Blake Frye,Somerset,59.87,174.63,70.31,170.1,415.04,Single-ply,SBD,M,
Boys,59.87,3,Claude Faulkenberry,Crystal City,59.65,127.01,79.38,158.76,365.14,Single-ply,SBD,M,
Boys,59.87,4,Jordan Perez,Crystal City,58.97,133.81,77.11,149.69,360.61,Single-ply,SBD,M,
Boys,59.87,5,Leo Esparza,Pearsall,58.06,131.54,72.57,151.95,356.07,Single-ply,SBD,M,
Boys,59.87,6,Zachary Alvarez,Uvalde,59.42,127.01,83.91,124.74,335.66,Single-ply,SBD,M,
Boys,67.13,1,Anthony Gallegos,La Pryor,66.68,188.24,120.2,192.78,501.22,Single-ply,SBD,M,
Boys,67.13,2,Kingston Martinez,Pearsall,66.22,174.63,108.86,204.12,487.61,Single-ply,SBD,M,
Boys,67.13,3,Noah Garcia,Somerset,64.86,179.17,124.74,176.9,480.81,Single-ply,SBD,M,
Boys,67.13,4,Gerardo Martinez,Uvalde,65.32,172.37,92.99,179.17,444.52,Single-ply,SBD,M,
Boys,67.13,5,Nico Uballe,La Pryor,63.05,151.95,102.06,154.22,408.23,Single-ply,SBD,M,
Boys,67.13,6,Harris Austin,Rocksprings,65.77,147.42,95.25,147.42,390.09,Single-ply,SBD,M,
Boys,67.13,7,Nicholas Cruz,Carrizo Springs,64.86,122.47,86.18,158.76,367.41,Single-ply,SBD,M,
Boys,74.84,1,Valentin Garza,La Pryor,74.39,247.21,136.08,256.28,639.57,Single-ply,SBD,M,
Boys,74.84,2,Wyatt Boss,Hondo,74.84,208.65,138.35,183.7,530.7,Single-ply,SBD,M,
Boys,74.84,3,Luis Uballe,La Pryor,69.85,185.97,106.59,195.04,487.61,Single-ply,SBD,M,
Boys,74.84,4,Taylor Garcia,Uvalde,74.84,174.63,106.59,188.24,469.47,Single-ply,SBD,M,
Boys,74.84,5,Casey Vincent,Center Point,73.48,183.7,74.84,156.49,415.04,Single-ply,SBD,M,
Boys,74.84,6,Christian Lopez,La Pryor,74.84,142.88,81.65,165.56,390.09,Single-ply,SBD,M,
Boys,74.84,7,Mathew Rodriguez,Crystal City,74.39,133.81,83.91,158.76,376.48,Single-ply,SBD,M,
Boys,74.84,8,Michael Reyes,Carrizo Springs,74.84,127.01,86.18,158.76,371.95,Single-ply,SBD,M,
Boys,74.84,9,Carlos Salazar,Carrizo Springs,73.48,124.74,70.31,154.22,349.27,Single-ply,SBD,M,
Boys,74.84,10,Israel Ballesteros,Crystal City,74.39,61.23,47.63,92.99,201.85,Single-ply,SBD,M,
Boys,82.1,1,Ariel Hernandez,Pearsall,80.29,244.94,156.49,217.72,619.15,Single-ply,SBD,M,
Boys,82.1,2,David Garcia,Somerset,81.19,210.92,154.22,190.51,555.65,Single-ply,SBD,M,
Boys,82.1,3,Robert Olivarez,Uvalde,80.74,199.58,142.88,199.58,542.04,Single-ply,SBD,M,
Boys,82.1,4,Arturo Gonzalez,La Pryor,80.29,197.31,124.74,208.65,530.7,Single-ply,SBD,M,
Boys,82.1,5,Zackary Serna,Somerset,80.29,174.63,142.88,174.63,492.15,Single-ply,SBD,M,
Boys,82.1,6,Isaac Rodriguez,Somerset,78.47,163.29,92.99,199.58,455.86,Single-ply,SBD,M,
Boys,82.1,7,Hector Garcia,Carrizo Springs,77.11,167.83,111.13,165.56,444.52,Single-ply,SBD,M,
Boys,82.1,8,Aaron Sanchez,Crystal City,79.38,142.88,68.04,142.88,353.8,Single-ply,SBD,M,
Boys,89.81,1,Raul Maldonado,Crystal City,87.54,235.87,151.95,224.53,612.35,Single-ply,SBD,M,
Boys,89.81,2,Rodolfo Reyes,Uvalde,86.18,233.6,113.4,226.8,573.79,Single-ply,SBD,M,
Boys,89.81,3,Gabriel Guajardo,Hondo,86.64,201.85,127.01,226.8,555.65,Single-ply,SBD,M,
Boys,89.81,4,Augustine Aviles,Uvalde,86.18,213.19,138.35,199.58,551.11,Single-ply,SBD,M,
Boys,89.81,5,Isreal Reyes,Pearsall,87.54,201.85,117.93,201.85,521.63,Single-ply,SBD,M,
Boys,89.81,6,Chuy Vasquez,Uvalde,83.91,188.24,115.67,199.58,503.49,Single-ply,SBD,M,
Boys,89.81,DQ,Taylor Massey,Uvalde,83.46,127.01,92.99,,,Single-ply,SBD,M,
Boys,89.81,DQ,Andrew Lozano,La Pryor,87.09,154.22,,,,Single-ply,SBD,M,
Boys,89.81,DQ,Jarrett Gest,Carrizo Springs,86.64,226.8,149.69,,,Single-ply,SBD,M,
Boys,99.79,1,Isaac Garcia,Crystal City,99.34,292.57,172.37,260.82,725.75,Single-ply,SBD,M,
Boys,99.79,2,Gerardo Cantu,Somerset,98.43,240.4,145.15,213.19,598.74,Single-ply,SBD,M,
Boys,99.79,3,Kyle Sanders,Rocksprings,91.63,254.01,142.88,195.04,591.94,Single-ply,SBD,M,
Boys,99.79,4,Roberto Rivas,Rocksprings,97.98,251.74,104.33,219.99,576.06,Single-ply,SBD,M,
Boys,99.79,5,Jesus Tellez,Crystal City,99.34,217.72,117.93,204.12,539.77,Single-ply,SBD,M,
Boys,99.79,6,Salvador Sanchez,Somerset,93.89,206.38,124.74,201.85,532.97,Single-ply,SBD,M,
Boys,99.79,7,Jared Hale,La Pryor,93.89,199.58,97.52,192.78,489.88,Single-ply,SBD,M,
Boys,99.79,8,Julio Jimenez,Carrizo Springs,98.88,149.69,97.52,188.24,435.45,Single-ply,SBD,M,
Boys,99.79,9,Lucio Ramirez,Pearsall,97.07,185.97,97.52,138.35,421.84,Single-ply,SBD,M,
Boys,99.79,10,Taylor Kenneth,Pearsall,94.8,136.08,77.11,158.76,371.95,Single-ply,SBD,M,
Boys,99.79,11,Jordan Trujillo,Carrizo Springs,99.79,138.35,102.06,122.47,362.87,Single-ply,SBD,M,
Boys,99.79,DQ,Zach Robles,La Pryor,97.07,190.51,,,,Single-ply,SBD,M,
Boys,109.77,1,Martin Rios,Crystal City,108.86,294.84,183.7,229.06,707.6,Single-ply,SBD,M,
Boys,109.77,2,Felipe Cuellar,Hondo,100.7,242.67,140.61,249.48,632.76,Single-ply,SBD,M,
Boys,109.77,3,Sparlock John,Somerset,105.69,154.22,79.38,133.81,367.41,Single-ply,SBD,M,
Boys,109.77,4,Manuel Gutierrez,Carrizo Springs,102.06,129.27,70.31,136.08,335.66,Single-ply,SBD,M,
Boys,109.77,DQ,Sabastian Carrillo,Pearsall,105.23,215.46,,,,Single-ply,SBD,M,
Boys,124.74,1,Kirkland John Michael,Rocksprings,112.94,274.42,167.83,274.42,716.68,Single-ply,SBD,M,
Boys,124.74,2,Julio Obregon,Hondo,119.75,249.48,158.76,219.99,628.23,Single-ply,SBD,M,
Boys,124.74,3,Adolfo Flores,La Pryor,121.11,249.48,133.81,222.26,605.55,Single-ply,SBD,M,
Boys,124.74,4,Aaron Graves,Uvalde,118.39,233.6,154.22,215.46,603.28,Single-ply,SBD,M,
Boys,124.74,5,Rylan Diaz,Uvalde,113.85,231.33,102.06,210.92,544.31,Single-ply,SBD,M,
Boys,124.74,6,Daniel Solis,Somerset,111.13,217.72,124.74,199.58,542.04,Single-ply,SBD,M,
Boys,124.74,7,Andrew Torres,Carrizo Springs,117.03,195.04,102.06,170.1,467.2,Single-ply,SBD,M,
Boys,124.74,8,Isamel Gonzales,Pearsall,120.2,145.15,90.72,120.2,356.07,Single-ply,SBD,M,
Boys,124.74,DQ,Malaki Lara,Uvalde,112.49,206.38,140.61,,,Single-ply,SBD,M,
Boys,124.74,DQ,Justin Castillo,Crystal City,117.03,,,,,Single-ply,SBD,M,
Boys,139.71,1,Ezra Aranda,La Pryor,133.81,208.65,142.88,204.12,555.65,Single-ply,SBD,M,
Boys,139.71,2,Israel Moncada,Crystal City,129.27,226.8,131.54,192.78,551.11,Single-ply,SBD,M,
Boys,139.71,3,Ryan Hughes,Pearsall,125.65,217.72,117.93,170.1,505.76,Single-ply,SBD,M,
Boys,139.71,4,Dustin Jackson,La Pryor,126.1,185.97,92.99,195.04,474,Single-ply,SBD,M,
Boys,139.71,5,Dobbins Jadon,Rocksprings,132.9,197.31,95.25,163.29,455.86,Single-ply,SBD,M,
Boys,139.71+,1,Javier Adams,Somerset,175.09,192.78,165.56,206.38,564.72,Single-ply,SBD,M,
Boys,139.71+,2,Jakob Perez,Somerset,148.78,183.7,127.01,183.7,494.42,Single-ply,SBD,M,
Boys,139.71+,3,Robert Castro,Crystal City,195.04,124.74,92.99,142.88,360.61,Single-ply,SBD,M,
Boys,,NS,Tap Shanklin,Rocksprings,,,,,,Single-ply,SBD,M,
