Division,WeightClassKg,Place,Name,Team,BodyweightKg,Best3SquatKg,Best3BenchKg,Best3DeadliftKg,TotalKg,Equipment,Event,Sex
Boys,51.71,1,Jesse Ortiz,Sulphur Springs,51.35,145.15,81.65,149.69,376.48,Single-ply,SBD,M
Boys,51.71,2,Isaiah Peters,Paris Chisum,48.67,111.13,52.16,111.13,274.42,Single-ply,SBD,M
Boys,51.71,3,Carter Gonzales,Linden-Kildare,37.33,65.77,34.02,81.65,181.44,Single-ply,SBD,M
Boys,55.79,1,Wilberth Jimenez,Pittsburg,54.52,158.76,97.52,161.03,417.3,Single-ply,SBD,M
Boys,59.87,2,Naire Gaines,Paris,55.88,156.49,83.91,163.29,403.7,Single-ply,SBD,M
Boys,59.87,3,Auryan Parks,Hallsville,55.97,131.54,58.97,142.88,333.39,Single-ply,SBD,M
Boys,55.79,4,Austin Puetz,Paris,55.79,117.93,70.31,140.61,328.85,Single-ply,SBD,M
Boys,55.79,5,James Kitchens,Commerce,55.61,117.93,70.31,131.54,319.78,Single-ply,SBD,M
Boys,59.87,6,Zack Baker,Hallsville,55.97,113.4,72.57,122.47,308.44,Single-ply,SBD,M
Boys,55.79,7,Mauricio Cadena,Commerce,53.93,90.72,54.43,113.4,258.55,Single-ply,SBD,M
Boys,67.13,1,Luis Gamez #1,Sulphur Springs,60.06,163.29,111.13,181.44,455.86,Single-ply,SBD,M
Boys,59.87,2,Dalton Krodle,Commerce,58.42,158.76,88.45,161.03,408.23,Single-ply,SBD,M
Boys,59.87,3,Dakota Patton,Sulphur Springs,56.52,149.69,74.84,147.42,371.95,Single-ply,SBD,M
Boys,67.13,4,Levi Bettes,Honey Grove,59.96,149.69,70.31,145.15,365.14,Single-ply,SBD,M
Boys,59.87,5,Ryder Brock,Detroit,56.88,138.35,65.77,158.76,362.87,Single-ply,SBD,M
Boys,59.87,6,Austin Caldwell,Callisburg,58.65,140.61,72.57,147.42,360.61,Single-ply,SBD,M
Boys,59.87,7,Colton Strode,Cooper,59.56,127.01,79.38,136.08,342.46,Single-ply,SBD,M
Boys,59.87,8,Scottie Johnson,Cooper,56.25,117.93,58.97,117.93,294.84,Single-ply,SBD,M
Boys,59.87,9,Nick Bergt,Atlanta,58.15,102.06,65.77,115.67,283.5,Single-ply,SBD,M
Boys,67.13,1,Clemetra Bailey,Paris,66.32,217.72,151.95,233.6,603.28,Single-ply,SBD,M
Boys,67.13,2,Levi Roberts,Atlanta,66.22,176.9,108.86,181.44,467.2,Single-ply,SBD,M
Boys,67.13,3,Jb Peltier,Commerce,65.54,174.63,106.59,174.63,455.86,Single-ply,SBD,M
Boys,67.13,4,Keitron Reed,Paris North Lamar,64.86,149.69,88.45,176.9,415.04,Single-ply,SBD,M
Boys,74.84,5,Javier Gamboa,Commerce,67.36,161.03,90.72,163.29,415.04,Single-ply,SBD,M
Boys,67.13,6,Aaron Whitley,Bogata Rivercrest,63.91,158.76,92.99,127.01,378.75,Single-ply,SBD,M
Boys,67.13,7,Donald Gordan,Hallsville,66.68,117.93,86.18,136.08,340.19,Single-ply,SBD,M
Boys,82.1,1,Alvin Battle,Atlanta,74.93,226.8,122.47,199.58,548.85,Single-ply,SBD,M
Boys,74.84,2,Jody Price,Callisburg,72.48,201.85,99.79,208.65,510.29,Single-ply,SBD,M
Boys,74.84,3,Eddie Moreno,Denison,72.89,185.97,113.4,195.04,494.42,Single-ply,SBD,M
Boys,82.1,4,AJ Rose,Hallsville,75.07,158.76,140.61,176.9,476.27,Single-ply,SBD,M
Boys,74.84,5,Damien Lawson,Atlanta,70.58,170.1,106.59,195.04,471.74,Single-ply,SBD,M
Boys,74.84,6,Rob Ward #3,Bogata Rivercrest,74.84,179.17,95.25,192.78,467.2,Single-ply,SBD,M
Boys,74.84,7,Tanner Phifer,Cooper,73.39,163.29,92.99,181.44,437.72,Single-ply,SBD,M
Boys,74.84,8,Chase Perry,Paris North Lamar,74.84,136.08,97.52,163.29,396.89,Single-ply,SBD,M
Boys,74.84,9,Alex Gamez,Sulphur Springs,74.62,158.76,83.91,151.95,394.63,Single-ply,SBD,M
Boys,74.84,10,Gage Allen,Hallsville,70.08,145.15,92.99,151.95,390.09,Single-ply,SBD,M
Boys,82.1,11,Kyuntae Hicks,Hallsville,75.07,136.08,83.91,163.29,383.29,Single-ply,SBD,M
Boys,74.84,12,Drew Lawson,Hallsville,67.99,131.54,79.38,142.88,353.8,Single-ply,SBD,M
Boys,74.84,13,Nolan Tryon,Hallsville,70.99,108.86,70.31,117.93,297.1,Single-ply,SBD,M
Boys,74.84,14,Casey Harper,Paris North Lamar,71.89,102.06,72.57,102.06,276.69,Single-ply,SBD,M
Boys,82.1,1,Leo Meyers,Linden-Kildare,80.74,208.65,140.61,231.33,580.6,Single-ply,SBD,M
Boys,82.1,2,Clay McKenzie,Callisburg,81.24,226.8,127.01,226.8,580.6,Single-ply,SBD,M
Boys,82.1,3,Colton Henslee,Denison,81.24,213.19,124.74,233.6,571.53,Single-ply,SBD,M
Boys,82.1,4,Dedric Smith,Sulphur Springs,81.42,208.65,127.01,213.19,548.85,Single-ply,SBD,M
Boys,82.1,5,Andrew Johnson #6,Paris North Lamar,81.78,185.97,111.13,215.46,512.56,Single-ply,SBD,M
Boys,82.1,6,Derek McCuller,Hallsville,79.51,192.78,120.2,181.44,494.42,Single-ply,SBD,M
Boys,82.1,7,Travis Bryant,Detroit,80.97,204.12,97.52,192.78,494.42,Single-ply,SBD,M
Boys,82.1,8,Dakota Moore,Paris North Lamar,77.88,181.44,113.4,185.97,480.81,Single-ply,SBD,M
Boys,89.81,9,Josh Werline,Bogata Rivercrest,82.19,185.97,95.25,199.58,480.81,Single-ply,SBD,M
Boys,82.1,10,Tony Ramirez,Commerce,77.97,174.63,102.06,170.1,446.79,Single-ply,SBD,M
Boys,82.1,11,Chico Martinez,Pittsburg,80.2,174.63,108.86,158.76,442.25,Single-ply,SBD,M
Boys,89.81,12,Jordan Sanders,Paris,82.24,156.49,92.99,181.44,430.91,Single-ply,SBD,M
Boys,82.1,13,Kendall Alexander,Paris,81.33,172.37,92.99,163.29,428.64,Single-ply,SBD,M
Boys,82.1,14,Brandan Chandler,Cooper,81.65,149.69,92.99,181.44,424.11,Single-ply,SBD,M
Boys,82.1,15,Carter Patrick,Honey Grove,76.38,158.76,90.72,170.1,419.57,Single-ply,SBD,M
Boys,82.1,16,Darius Samuels,Paris,80.51,136.08,74.84,136.08,347,Single-ply,SBD,M
Boys,82.1,17,Calvin Cook,Paris,78.65,90.72,58.97,115.67,265.35,Single-ply,SBD,M
Boys,89.81,DQ,Robert Jackson,Commerce,82.33,,,,,Single-ply,SBD,M
Boys,89.81,1,Isaiah Martinez,Commerce,88.45,272.16,167.83,231.33,671.32,Single-ply,SBD,M
Boys,99.79,2,Marquis Gill,Paris,89.99,226.8,124.74,215.46,566.99,Single-ply,SBD,M
Boys,89.81,3,Dan Davis,Atlanta,88.45,190.51,124.74,219.99,535.24,Single-ply,SBD,M
Boys,89.81,4,Jordan Garnes,Paris,87.86,204.12,124.74,185.97,514.83,Single-ply,SBD,M
Boys,89.81,5,Kenneth Robinson,Paris,86.64,199.58,108.86,163.29,471.74,Single-ply,SBD,M
Boys,89.81,6,Joseph Winton,Paris Chisum,85.23,170.1,115.67,179.17,464.93,Single-ply,SBD,M
Boys,89.81,7,John Phillips,Big Sandy Harmony,86.18,174.63,102.06,176.9,453.59,Single-ply,SBD,M
Boys,89.81,8,Brandon Ramirez #2,Commerce,87.54,170.1,102.06,181.44,453.59,Single-ply,SBD,M
Boys,89.81,9,Colby Earley,Cooper,87,172.37,90.72,185.97,449.06,Single-ply,SBD,M
Boys,89.81,10,Zach Smith #14,Big Sandy Harmony,88.45,158.76,104.33,172.37,435.45,Single-ply,SBD,M
Boys,89.81,11,Jacob Akard,Paris North Lamar,83.78,158.76,83.91,170.1,412.77,Single-ply,SBD,M
Boys,89.81,12,Draylon Porter,Sulphur Springs,89.27,158.76,97.52,142.88,399.16,Single-ply,SBD,M
Boys,89.81,DQ,Tristan McClure,Paris,87.54,,,,,Single-ply,SBD,M
Boys,89.81,DQ,Jermaine Finney,Honey Grove,89.27,,,,,Single-ply,SBD,M
Boys,99.79,1,Shawn Shugart,Callisburg,99.38,249.48,108.86,201.85,560.19,Single-ply,SBD,M
Boys,99.79,2,Cole Davis #2,Atlanta,94.17,217.72,122.47,215.46,555.65,Single-ply,SBD,M
Boys,99.79,3,Deshanti Holloway,Atlanta,94.85,229.06,99.79,226.8,555.65,Single-ply,SBD,M
Boys,99.79,4,Tookie Neal,Atlanta,91.53,208.65,106.59,226.8,542.04,Single-ply,SBD,M
Boys,99.79,5,Ahmed Jabai,Honey Grove,93.39,170.1,142.88,219.99,532.97,Single-ply,SBD,M
Boys,99.79,6,Will Jamar,Paris North Lamar,92.94,185.97,147.42,179.17,512.56,Single-ply,SBD,M
Boys,99.79,7,Geoffrey Smith,Paris,97.07,188.24,106.59,217.72,512.56,Single-ply,SBD,M
Boys,99.79,8,Branson Davis,Big Sandy Harmony,91.81,165.56,108.86,185.97,460.4,Single-ply,SBD,M
Boys,99.79,9,Fernado Ramirez,Linden-Kildare,90.63,181.44,88.45,185.97,455.86,Single-ply,SBD,M
Boys,109.77,1,Josh Heath,Denison,104.28,256.28,147.42,231.33,635.03,Single-ply,SBD,M
Boys,109.77,2,Sergio Orona,Denison,105.05,238.14,147.42,226.8,612.35,Single-ply,SBD,M
Boys,109.77,3,Tray King,Hallsville,101.6,231.33,129.27,226.8,587.4,Single-ply,SBD,M
Boys,109.77,4,Tyler Trammel,Paris North Lamar,106.68,226.8,149.69,195.04,571.53,Single-ply,SBD,M
Boys,109.77,5,Seth Harred,Sulphur Springs,107.09,181.44,131.54,197.31,510.29,Single-ply,SBD,M
Boys,109.77,6,Tyler Carter,Paris North Lamar,104.42,183.7,136.08,188.24,508.02,Single-ply,SBD,M
Boys,109.77,7,Rivera Tito,Paris Chisum,108.54,195.04,99.79,201.85,496.68,Single-ply,SBD,M
Boys,109.77,8,Isaiah Epperson,Paris,106.37,188.24,124.74,181.44,494.42,Single-ply,SBD,M
Boys,109.77,9,Billy Watson #1,Cooper,107.23,158.76,99.79,204.12,462.66,Single-ply,SBD,M
Boys,109.77,10,Jackie Alston,Hallsville,109.09,140.61,68.04,140.61,349.27,Single-ply,SBD,M
Boys,109.77,11,Jacob Martello,Cooper,109.54,124.74,79.38,102.06,306.17,Single-ply,SBD,M
Boys,124.74,1,Joey Lenard,Atlanta,114.85,249.48,145.15,240.4,635.03,Single-ply,SBD,M
Boys,124.74,2,Heath Howard,Sulphur Springs,115.3,213.19,158.76,215.46,587.4,Single-ply,SBD,M
Boys,124.74,3,Landan Wathins,Sulphur Springs,118.52,215.46,142.88,192.78,551.11,Single-ply,SBD,M
Boys,124.74,4,Tilar Holloway,Pittsburg,115.03,217.72,140.61,183.7,542.04,Single-ply,SBD,M
Boys,124.74,5,Trevor Mobley,Cooper,116.85,215.46,122.47,190.51,528.44,Single-ply,SBD,M
Boys,124.74,6,Daniel Logan,Big Sandy Harmony,113.9,188.24,99.79,192.78,480.81,Single-ply,SBD,M
Boys,124.74,7,Tyler Williams,Cooper,120.07,181.44,115.67,181.44,478.54,Single-ply,SBD,M
Boys,124.74,8,Ty Saunders,Pittsburg,123.51,181.44,99.79,197.31,478.54,Single-ply,SBD,M
Boys,124.74,9,Levi Williams,Sulphur Springs,121.25,176.9,113.4,181.44,471.74,Single-ply,SBD,M
Boys,124.74,10,Bobby Krider,Linden-Kildare,121.25,192.78,97.52,163.29,453.59,Single-ply,SBD,M
Boys,124.74,11,Carlton Hasten,Hallsville,112.49,172.37,86.18,145.15,403.7,Single-ply,SBD,M
Boys,124.74,DQ,Cortez Crosby,Commerce,124.56,328.85,,,,Single-ply,SBD,M
Boys,124.74+,1,Blake Cunningham,Denison,151.68,272.16,172.37,235.87,680.39,Single-ply,SBD,M
Boys,124.74+,2,Kason Willis,Atlanta,126.19,263.08,133.81,231.33,628.23,Single-ply,SBD,M
Boys,124.74+,3,Lane Allen,Detroit,130.09,272.16,124.74,226.8,623.69,Single-ply,SBD,M
Boys,124.74+,4,Jared Lincoln,Atlanta,125.78,242.67,156.49,215.46,614.62,Single-ply,SBD,M
Boys,124.74+,5,Jackie Berry,Paris North Lamar,128.23,231.33,127.01,229.06,587.4,Single-ply,SBD,M
Boys,124.74+,6,Jess Jenhins,Sulphur Springs,133.17,190.51,138.35,222.26,551.11,Single-ply,SBD,M
Boys,124.74+,7,Johnathon Clark,Honey Grove,143.24,192.78,102.06,158.76,453.59,Single-ply,SBD,M
Boys,124.74+,8,Corey Hall,Hallsville,127.6,167.83,86.18,154.22,408.23,Single-ply,SBD,M
Boys,124.74+,DQ,Riley Coker,Paris,126.1,,,,,Single-ply,SBD,M
Boys,124.74+,DQ,Gerardo Sanchez,Commerce,130.86,204.12,,,,Single-ply,SBD,M
